{
  "Entries": [
    {
      "RequestUri": "https://management.azure.com/subscriptions/b9f138a1-1d64-4108-8413-9ea3be1c1b2d/resourcegroups/csmrg9308?api-version=2019-10-01",
      "RequestMethod": "PUT",
      "RequestHeaders": {
        "Authorization": "Sanitized",
        "Content-Length": "31",
        "Content-Type": "application/json",
        "traceparent": "00-646f09310efc2c458e5ccde2cbf37b86-f8e680e4f89f4c47-00",
        "User-Agent": [
          "azsdk-net-Management.Resources/1.0.0-dev.20200529.1",
          "(.NET Framework 4.8.4180.0; Microsoft Windows 10.0.19041 )"
        ],
        "x-ms-client-request-id": "830798dfdec5f70620d50568ff68400c",
        "x-ms-return-client-request-id": "true"
      },
      "RequestBody": {
        "location": "South Central US"
      },
      "StatusCode": 201,
      "ResponseHeaders": {
        "Cache-Control": "no-cache",
        "Content-Length": "223",
        "Content-Type": "application/json; charset=utf-8",
        "Date": "Fri, 29 May 2020 02:36:40 GMT",
        "Expires": "-1",
        "Pragma": "no-cache",
        "Strict-Transport-Security": "max-age=31536000; includeSubDomains",
        "X-Content-Type-Options": "nosniff",
        "x-ms-correlation-request-id": "5ebe4add-a517-4d1c-86b1-b0f7a7f4874e",
        "x-ms-ratelimit-remaining-subscription-writes": "1193",
        "x-ms-request-id": "5ebe4add-a517-4d1c-86b1-b0f7a7f4874e",
        "x-ms-routing-request-id": "EASTASIA:20200529T023641Z:5ebe4add-a517-4d1c-86b1-b0f7a7f4874e"
      },
      "ResponseBody": {
        "id": "/subscriptions/b9f138a1-1d64-4108-8413-9ea3be1c1b2d/resourceGroups/csmrg9308",
        "name": "csmrg9308",
        "type": "Microsoft.Resources/resourceGroups",
        "location": "southcentralus",
        "properties": {
          "provisioningState": "Succeeded"
        }
      }
    },
    {
      "RequestUri": "https://management.azure.com/subscriptions/b9f138a1-1d64-4108-8413-9ea3be1c1b2d/resourcegroups/csmrg9308/providers/Microsoft.Web//serverFarms/csmr9752?api-version=2018-02-01",
      "RequestMethod": "PUT",
      "RequestHeaders": {
        "Authorization": "Sanitized",
        "Content-Length": "58",
        "Content-Type": "application/json",
        "traceparent": "00-7e3ce7715d78cd4696ab4fd676f8cba8-da550c8734bf5345-00",
        "User-Agent": [
          "azsdk-net-Management.Resources/1.0.0-dev.20200529.1",
          "(.NET Framework 4.8.4180.0; Microsoft Windows 10.0.19041 )"
        ],
        "x-ms-client-request-id": "b3710bed85d80fda32ae9cb27eb73ad6",
        "x-ms-return-client-request-id": "true"
      },
      "RequestBody": {
        "properties": {},
        "sku": {
          "name": "S1"
        },
        "location": "West US"
      },
      "StatusCode": 200,
      "ResponseHeaders": {
        "Cache-Control": "no-cache",
        "Content-Length": "1282",
        "Content-Type": "application/json",
        "Date": "Fri, 29 May 2020 02:36:51 GMT",
        "Expires": "-1",
        "Pragma": "no-cache",
        "Server": "Microsoft-IIS/10.0",
        "Strict-Transport-Security": "max-age=31536000; includeSubDomains",
        "X-AspNet-Version": "4.0.30319",
        "X-Content-Type-Options": "nosniff",
        "x-ms-correlation-request-id": "96bd7f1d-064e-44fe-8454-5f7599ac28f2",
        "x-ms-ratelimit-remaining-subscription-writes": "1192",
        "x-ms-request-id": "29df90d2-8c8f-4832-b51a-1e480182e75f",
        "x-ms-routing-request-id": "EASTASIA:20200529T023651Z:96bd7f1d-064e-44fe-8454-5f7599ac28f2",
        "X-Powered-By": "ASP.NET"
      },
      "ResponseBody": {
        "id": "/subscriptions/b9f138a1-1d64-4108-8413-9ea3be1c1b2d/resourceGroups/csmrg9308/providers/Microsoft.Web/serverfarms/csmr9752",
        "name": "csmr9752",
        "type": "Microsoft.Web/serverfarms",
        "kind": "app",
        "location": "West US",
        "properties": {
          "serverFarmId": 32338,
          "name": "csmr9752",
          "workerSize": "Default",
          "workerSizeId": 0,
          "workerTierName": null,
          "numberOfWorkers": 1,
          "currentWorkerSize": "Default",
          "currentWorkerSizeId": 0,
          "currentNumberOfWorkers": 1,
          "status": "Ready",
          "webSpace": "csmrg9308-WestUSwebspace",
          "subscription": "b9f138a1-1d64-4108-8413-9ea3be1c1b2d",
          "adminSiteName": null,
          "hostingEnvironment": null,
          "hostingEnvironmentProfile": null,
          "maximumNumberOfWorkers": 10,
          "planName": "VirtualDedicatedPlan",
          "adminRuntimeSiteName": null,
          "computeMode": "Dedicated",
          "siteMode": null,
          "geoRegion": "West US",
          "perSiteScaling": false,
          "maximumElasticWorkerCount": 1,
          "numberOfSites": 0,
          "hostingEnvironmentId": null,
          "isSpot": false,
          "spotExpirationTime": null,
          "freeOfferExpirationTime": null,
          "tags": null,
          "kind": "app",
          "resourceGroup": "csmrg9308",
          "reserved": false,
          "isXenon": false,
          "hyperV": false,
          "mdmId": "waws-prod-bay-061_32338",
          "targetWorkerCount": 0,
          "targetWorkerSizeId": 0,
          "provisioningState": "Succeeded",
          "webSiteId": null,
          "existingServerFarmIds": null
        },
        "sku": {
          "name": "S1",
          "tier": "Standard",
          "size": "S1",
          "family": "S",
          "capacity": 1
        }
      }
    },
    {
      "RequestUri": "https://management.azure.com/subscriptions/b9f138a1-1d64-4108-8413-9ea3be1c1b2d/resourceGroups/csmrg9308/resources?api-version=2019-10-01",
      "RequestMethod": "GET",
      "RequestHeaders": {
        "Authorization": "Sanitized",
        "User-Agent": [
          "azsdk-net-Management.Resources/1.0.0-dev.20200529.1",
          "(.NET Framework 4.8.4180.0; Microsoft Windows 10.0.19041 )"
        ],
        "x-ms-client-request-id": "a86dc64eda755928bdf8511642537969",
        "x-ms-return-client-request-id": "true"
      },
      "RequestBody": null,
      "StatusCode": 200,
      "ResponseHeaders": {
        "Cache-Control": "no-cache",
        "Content-Length": "304",
        "Content-Type": "application/json; charset=utf-8",
        "Date": "Fri, 29 May 2020 02:36:51 GMT",
        "Expires": "-1",
        "Pragma": "no-cache",
        "Strict-Transport-Security": "max-age=31536000; includeSubDomains",
        "X-Content-Type-Options": "nosniff",
        "x-ms-correlation-request-id": "650d0eea-6f30-4cbb-8fad-cd0034c06755",
        "x-ms-ratelimit-remaining-subscription-reads": "11996",
        "x-ms-request-id": "650d0eea-6f30-4cbb-8fad-cd0034c06755",
        "x-ms-routing-request-id": "EASTASIA:20200529T023651Z:650d0eea-6f30-4cbb-8fad-cd0034c06755"
      },
      "ResponseBody": {
        "value": [
          {
            "id": "/subscriptions/b9f138a1-1d64-4108-8413-9ea3be1c1b2d/resourceGroups/csmrg9308/providers/Microsoft.Web/serverFarms/csmr9752",
            "name": "csmr9752",
            "type": "Microsoft.Web/serverFarms",
            "sku": {
              "name": "S1",
              "tier": "Standard",
              "size": "S1",
              "family": "S",
              "capacity": 1
            },
            "kind": "app",
            "location": "westus"
          }
        ]
      }
    },
    {
      "RequestUri": "https://management.azure.com/subscriptions/b9f138a1-1d64-4108-8413-9ea3be1c1b2d/resourceGroups/csmrg9308/resources?$top=10\u0026api-version=2019-10-01",
      "RequestMethod": "GET",
      "RequestHeaders": {
        "Authorization": "Sanitized",
        "User-Agent": [
          "azsdk-net-Management.Resources/1.0.0-dev.20200529.1",
          "(.NET Framework 4.8.4180.0; Microsoft Windows 10.0.19041 )"
        ],
        "x-ms-client-request-id": "9cd62e9bdafb5e57c862ca702434ace4",
        "x-ms-return-client-request-id": "true"
      },
      "RequestBody": null,
      "StatusCode": 200,
      "ResponseHeaders": {
        "Cache-Control": "no-cache",
        "Content-Length": "304",
        "Content-Type": "application/json; charset=utf-8",
        "Date": "Fri, 29 May 2020 02:36:51 GMT",
        "Expires": "-1",
        "Pragma": "no-cache",
        "Strict-Transport-Security": "max-age=31536000; includeSubDomains",
        "X-Content-Type-Options": "nosniff",
        "x-ms-correlation-request-id": "b6b9f5a2-fda1-4427-9a4b-b7627a3ba516",
        "x-ms-ratelimit-remaining-subscription-reads": "11995",
        "x-ms-request-id": "b6b9f5a2-fda1-4427-9a4b-b7627a3ba516",
        "x-ms-routing-request-id": "EASTASIA:20200529T023651Z:b6b9f5a2-fda1-4427-9a4b-b7627a3ba516"
      },
      "ResponseBody": {
        "value": [
          {
            "id": "/subscriptions/b9f138a1-1d64-4108-8413-9ea3be1c1b2d/resourceGroups/csmrg9308/providers/Microsoft.Web/serverFarms/csmr9752",
            "name": "csmr9752",
            "type": "Microsoft.Web/serverFarms",
            "sku": {
              "name": "S1",
              "tier": "Standard",
              "size": "S1",
              "family": "S",
              "capacity": 1
            },
            "kind": "app",
            "location": "westus"
          }
        ]
      }
    }
  ],
  "Variables": {
    "RandomSeed": "127490486",
    "SUBSCRIPTION_ID": "b9f138a1-1d64-4108-8413-9ea3be1c1b2d"
  }
}