{
  "Entries": [
    {
      "RequestUri": "https://storagedotnetdatalake.blob.core.windows.net/test-filesystem-7bfad588-932b-1c7a-b7a8-085b32d3f619?restype=container",
      "RequestMethod": "PUT",
      "RequestHeaders": {
        "Authorization": "Sanitized",
        "traceparent": "00-b52560c9229e1f4291f45773bf7e7dd6-1aa3eaa5caba4749-00",
        "User-Agent": [
          "azsdk-net-Storage.Files.DataLake/12.3.0-dev.20200708.1",
          "(.NET Core 4.6.28928.01; Microsoft Windows 10.0.18363 )"
        ],
        "x-ms-blob-public-access": "container",
        "x-ms-client-request-id": "e56db1b3-2532-eb0d-b042-36b9a74df1fa",
        "x-ms-return-client-request-id": "true",
        "x-ms-version": "2019-12-12"
      },
      "RequestBody": null,
      "StatusCode": 201,
      "ResponseHeaders": {
        "Content-Length": "0",
        "Date": "Thu, 09 Jul 2020 05:05:02 GMT",
        "ETag": "\u00220x8D823C5A39D5C9B\u0022",
        "Last-Modified": "Thu, 09 Jul 2020 05:05:03 GMT",
        "Server": [
          "Windows-Azure-Blob/1.0",
          "Microsoft-HTTPAPI/2.0"
        ],
        "x-ms-client-request-id": "e56db1b3-2532-eb0d-b042-36b9a74df1fa",
        "x-ms-request-id": "bd6d230f-601e-004f-52ae-5545a7000000",
        "x-ms-version": "2019-12-12"
      },
      "ResponseBody": []
    },
    {
      "RequestUri": "https://storagedotnetdatalake.dfs.core.windows.net/test-filesystem-7bfad588-932b-1c7a-b7a8-085b32d3f619/test-directory-db05b316-9da7-b725-4471-eb2d2abc79cf?resource=directory",
      "RequestMethod": "PUT",
      "RequestHeaders": {
        "Authorization": "Sanitized",
        "traceparent": "00-a673322f3c42be4e8da24a17a7f19005-6f6ed3bc8a207f46-00",
        "User-Agent": [
          "azsdk-net-Storage.Files.DataLake/12.3.0-dev.20200708.1",
          "(.NET Core 4.6.28928.01; Microsoft Windows 10.0.18363 )"
        ],
        "x-ms-client-request-id": "7979d3b0-934e-ec9c-a9c9-10513867b19b",
        "x-ms-return-client-request-id": "true",
        "x-ms-version": "2019-12-12"
      },
      "RequestBody": null,
      "StatusCode": 201,
      "ResponseHeaders": {
        "Content-Length": "0",
        "Date": "Thu, 09 Jul 2020 05:05:02 GMT",
        "ETag": "\u00220x8D823C5A3BFF03F\u0022",
        "Last-Modified": "Thu, 09 Jul 2020 05:05:03 GMT",
        "Server": [
          "Windows-Azure-HDFS/1.0",
          "Microsoft-HTTPAPI/2.0"
        ],
        "x-ms-client-request-id": "7979d3b0-934e-ec9c-a9c9-10513867b19b",
        "x-ms-request-id": "99bcc95d-c01f-000d-0cae-556eb3000000",
        "x-ms-version": "2019-12-12"
      },
      "ResponseBody": []
    },
    {
      "RequestUri": "https://storagedotnetdatalake.blob.core.windows.net/?restype=service\u0026comp=userdelegationkey",
      "RequestMethod": "POST",
      "RequestHeaders": {
        "Authorization": "Sanitized",
        "Content-Length": "56",
        "Content-Type": "application/xml",
        "traceparent": "00-bb6716e0d79cee40b991a239d4e92c8a-3bcbc83689af4243-00",
        "User-Agent": [
          "azsdk-net-Storage.Files.DataLake/12.3.0-dev.20200708.1",
          "(.NET Core 4.6.28928.01; Microsoft Windows 10.0.18363 )"
        ],
        "x-ms-client-request-id": "d409cfe6-78d3-9bac-9c5d-d25425336e2b",
        "x-ms-return-client-request-id": "true",
        "x-ms-version": "2019-12-12"
      },
      "RequestBody": "\u003CKeyInfo\u003E\u003CExpiry\u003E2020-07-09T06:05:03Z\u003C/Expiry\u003E\u003C/KeyInfo\u003E",
      "StatusCode": 200,
      "ResponseHeaders": {
        "Content-Type": "application/xml",
        "Date": "Thu, 09 Jul 2020 05:05:03 GMT",
        "Server": [
          "Windows-Azure-Blob/1.0",
          "Microsoft-HTTPAPI/2.0"
        ],
        "Transfer-Encoding": "chunked",
        "x-ms-client-request-id": "d409cfe6-78d3-9bac-9c5d-d25425336e2b",
        "x-ms-request-id": "bd6d23a5-601e-004f-48ae-5545a7000000",
        "x-ms-version": "2019-12-12"
      },
      "ResponseBody": "\uFEFF\u003C?xml version=\u00221.0\u0022 encoding=\u0022utf-8\u0022?\u003E\u003CUserDelegationKey\u003E\u003CSignedOid\u003Efdc49f93-5f8d-4904-8fd9-665911996ae1\u003C/SignedOid\u003E\u003CSignedTid\u003E72f988bf-86f1-41af-91ab-2d7cd011db47\u003C/SignedTid\u003E\u003CSignedStart\u003E2020-07-09T05:05:03Z\u003C/SignedStart\u003E\u003CSignedExpiry\u003E2020-07-09T06:05:03Z\u003C/SignedExpiry\u003E\u003CSignedService\u003Eb\u003C/SignedService\u003E\u003CSignedVersion\u003E2019-12-12\u003C/SignedVersion\u003E\u003CValue\u003EHVLfPXSD\u002Bkqa9jlNxULAcsNeiRG65MhAYfWU9eN81G8=\u003C/Value\u003E\u003C/UserDelegationKey\u003E"
    },
    {
      "RequestUri": "https://storagedotnetdatalake.dfs.core.windows.net/test-filesystem-7bfad588-932b-1c7a-b7a8-085b32d3f619/test-directory-db05b316-9da7-b725-4471-eb2d2abc79cf?skoid=fdc49f93-5f8d-4904-8fd9-665911996ae1\u0026sktid=72f988bf-86f1-41af-91ab-2d7cd011db47\u0026skt=2020-07-09T05%3A05%3A03Z\u0026ske=2020-07-09T06%3A05%3A03Z\u0026sks=b\u0026skv=2019-12-12\u0026sv=2019-12-12\u0026st=2020-07-09T04%3A05%3A03Z\u0026se=2020-07-09T06%3A05%3A03Z\u0026sr=b\u0026sp=racwd\u0026sig=Sanitized\u0026action=getAccessControl",
      "RequestMethod": "HEAD",
      "RequestHeaders": {
        "traceparent": "00-c729a3042b60d942a6440bac1e04d289-90cdff2229ed8f4a-00",
        "User-Agent": [
          "azsdk-net-Storage.Files.DataLake/12.3.0-dev.20200708.1",
          "(.NET Core 4.6.28928.01; Microsoft Windows 10.0.18363 )"
        ],
        "x-ms-client-request-id": "686b7228-dd5d-19c8-ab47-853673a558f8",
        "x-ms-return-client-request-id": "true",
        "x-ms-version": "2019-12-12"
      },
      "RequestBody": null,
      "StatusCode": 200,
      "ResponseHeaders": {
        "Date": "Thu, 09 Jul 2020 05:05:03 GMT",
        "ETag": "\u00220x8D823C5A3BFF03F\u0022",
        "Last-Modified": "Thu, 09 Jul 2020 05:05:03 GMT",
        "Server": [
          "Windows-Azure-HDFS/1.0",
          "Microsoft-HTTPAPI/2.0"
        ],
        "x-ms-acl": "user::rwx,group::r-x,other::---",
        "x-ms-client-request-id": "686b7228-dd5d-19c8-ab47-853673a558f8",
        "x-ms-group": "fdc49f93-5f8d-4904-8fd9-665911996ae1",
        "x-ms-owner": "fdc49f93-5f8d-4904-8fd9-665911996ae1",
        "x-ms-permissions": "rwxr-x---",
        "x-ms-request-id": "5dbdffcf-a01f-00bc-1bae-5596ce000000",
        "x-ms-version": "2019-12-12"
      },
      "ResponseBody": []
    },
    {
      "RequestUri": "https://storagedotnetdatalake.blob.core.windows.net/test-filesystem-7bfad588-932b-1c7a-b7a8-085b32d3f619?restype=container",
      "RequestMethod": "DELETE",
      "RequestHeaders": {
        "Authorization": "Sanitized",
        "traceparent": "00-f635436de4649a47a69069c21d3054a6-4bf4ced98536ed4e-00",
        "User-Agent": [
          "azsdk-net-Storage.Files.DataLake/12.3.0-dev.20200708.1",
          "(.NET Core 4.6.28928.01; Microsoft Windows 10.0.18363 )"
        ],
        "x-ms-client-request-id": "b32c13a4-05c8-1dcd-8e77-46e8b49bf634",
        "x-ms-return-client-request-id": "true",
        "x-ms-version": "2019-12-12"
      },
      "RequestBody": null,
      "StatusCode": 202,
      "ResponseHeaders": {
        "Content-Length": "0",
        "Date": "Thu, 09 Jul 2020 05:05:04 GMT",
        "Server": [
          "Windows-Azure-Blob/1.0",
          "Microsoft-HTTPAPI/2.0"
        ],
        "x-ms-client-request-id": "b32c13a4-05c8-1dcd-8e77-46e8b49bf634",
        "x-ms-request-id": "bd6d24fa-601e-004f-80ae-5545a7000000",
        "x-ms-version": "2019-12-12"
      },
      "ResponseBody": []
    }
  ],
  "Variables": {
    "DateTimeOffsetNow": "2020-07-08T22:05:03.6121219-07:00",
    "RandomSeed": "1914133495",
    "Storage_TestConfigHierarchicalNamespace": "NamespaceTenant\nstoragedotnetdatalake\nU2FuaXRpemVk\nhttps://storagedotnetdatalake.blob.core.windows.net\nhttps://storagedotnetdatalake.file.core.windows.net\nhttps://storagedotnetdatalake.queue.core.windows.net\nhttps://storagedotnetdatalake.table.core.windows.net\n\n\n\n\nhttps://storagedotnetdatalake-secondary.blob.core.windows.net\nhttps://storagedotnetdatalake-secondary.file.core.windows.net\nhttps://storagedotnetdatalake-secondary.queue.core.windows.net\nhttps://storagedotnetdatalake-secondary.table.core.windows.net\n183fee76-3bc8-488e-866f-b6562a249293\nSanitized\n72f988bf-86f1-41af-91ab-2d7cd011db47\nhttps://login.microsoftonline.com/\nCloud\nBlobEndpoint=https://storagedotnetdatalake.blob.core.windows.net/;QueueEndpoint=https://storagedotnetdatalake.queue.core.windows.net/;FileEndpoint=https://storagedotnetdatalake.file.core.windows.net/;BlobSecondaryEndpoint=https://storagedotnetdatalake-secondary.blob.core.windows.net/;QueueSecondaryEndpoint=https://storagedotnetdatalake-secondary.queue.core.windows.net/;FileSecondaryEndpoint=https://storagedotnetdatalake-secondary.file.core.windows.net/;AccountName=storagedotnetdatalake;AccountKey=Sanitized\n"
  }
}