{
  "Entries": [
    {
      "RequestUri": "https://azsdknet-test-ta.cognitiveservices.azure.com/text/analytics/v3.1-preview.1/languages",
      "RequestMethod": "POST",
      "RequestHeaders": {
        "Content-Length": "101",
        "Content-Type": "application/json",
        "Ocp-Apim-Subscription-Key": "Sanitized",
        "traceparent": "00-3a7b3bf4b98de94a95e51d1d7a68378c-5ada9c0874ec264c-00",
        "User-Agent": [
          "azsdk-net-AI.TextAnalytics/5.1.0-dev.20200804.1",
          "(.NET Core 4.6.28516.03; Microsoft Windows 10.0.18363 )"
        ],
        "x-ms-client-request-id": "c88a9cd7932db60eeffc7f4bf96f3920",
        "x-ms-return-client-request-id": "true"
      },
      "RequestBody": {
        "documents": [
          {
            "id": "0",
            "text": "Este documento est\u00E1 en espa\u00F1ol",
            "countryHint": "COLOMBIA"
          }
        ]
      },
      "StatusCode": 200,
      "ResponseHeaders": {
        "apim-request-id": "26f99a74-8fb4-4d7a-8ed1-21128b790212",
        "Content-Type": "application/json; charset=utf-8",
        "Date": "Tue, 04 Aug 2020 21:29:56 GMT",
        "Strict-Transport-Security": "max-age=31536000; includeSubDomains; preload",
        "Transfer-Encoding": "chunked",
        "X-Content-Type-Options": "nosniff",
        "x-envoy-upstream-service-time": "3"
      },
      "ResponseBody": {
        "documents": [],
        "errors": [
          {
            "id": "0",
            "error": {
              "code": "InvalidArgument",
              "message": "Invalid Country Hint.",
              "innererror": {
                "code": "InvalidCountryHint",
                "message": "Country hint is not valid. Please specify an ISO 3166-1 alpha-2 two letter country code."
              }
            }
          }
        ],
        "modelVersion": "2020-07-01"
      }
    }
  ],
  "Variables": {
    "RandomSeed": "1796471054",
    "TEXT_ANALYTICS_API_KEY": "Sanitized",
    "TEXT_ANALYTICS_ENDPOINT": "https://azsdknet-test-ta.cognitiveservices.azure.com/"
  }
}