{
  "Entries": [
    {
      "RequestUri": "https://azsdknet-test-ta.cognitiveservices.azure.com/text/analytics/v3.1-preview.1/languages",
      "RequestMethod": "POST",
      "RequestHeaders": {
        "Content-Length": "95",
        "Content-Type": "application/json",
        "Ocp-Apim-Subscription-Key": "Sanitized",
        "traceparent": "00-1ea321d24f53da498ae47f7db77c3707-0018fb2aa8cb7e4d-00",
        "User-Agent": [
          "azsdk-net-AI.TextAnalytics/5.1.0-dev.20200804.1",
          "(.NET Core 4.6.28516.03; Microsoft Windows 10.0.18363 )"
        ],
        "x-ms-client-request-id": "deded72e11d65bc2ed4cfb12c9bf877e",
        "x-ms-return-client-request-id": "true"
      },
      "RequestBody": {
        "documents": [
          {
            "id": "0",
            "text": "Este documento est\u00E1 en espa\u00F1ol",
            "countryHint": "CO"
          }
        ]
      },
      "StatusCode": 200,
      "ResponseHeaders": {
        "apim-request-id": "a245854d-85d7-4b2c-912f-dc06c6ba6508",
        "Content-Type": "application/json; charset=utf-8",
        "csp-billing-usage": "CognitiveServices.TextAnalytics.BatchScoring=1",
        "Date": "Tue, 04 Aug 2020 21:29:56 GMT",
        "Strict-Transport-Security": "max-age=31536000; includeSubDomains; preload",
        "Transfer-Encoding": "chunked",
        "X-Content-Type-Options": "nosniff",
        "x-envoy-upstream-service-time": "16"
      },
      "ResponseBody": {
        "documents": [
          {
            "id": "0",
            "detectedLanguage": {
              "name": "Spanish",
              "iso6391Name": "es",
              "confidenceScore": 1.0
            },
            "warnings": []
          }
        ],
        "errors": [],
        "modelVersion": "2020-07-01"
      }
    }
  ],
  "Variables": {
    "RandomSeed": "2031698600",
    "TEXT_ANALYTICS_API_KEY": "Sanitized",
    "TEXT_ANALYTICS_ENDPOINT": "https://azsdknet-test-ta.cognitiveservices.azure.com/"
  }
}