{
  "Entries": [
    {
      "RequestUri": "https://seanmcccanary.blob.core.windows.net/test-container-4ae555d4-de2a-3773-92da-19421e756fa3?restype=container",
      "RequestMethod": "PUT",
      "RequestHeaders": {
        "Authorization": "Sanitized",
        "traceparent": "00-7455af7a0e7f514f84a011c83d6ca622-72cf060ac71df243-00",
        "User-Agent": [
          "azsdk-net-Storage.Blobs/12.5.0-dev.20200402.1",
          "(.NET Core 4.6.28325.01; Microsoft Windows 10.0.18362 )"
        ],
        "x-ms-blob-public-access": "container",
        "x-ms-client-request-id": "ffbf8958-785c-104d-6498-c7fc01b0b3fe",
        "x-ms-date": "Fri, 03 Apr 2020 00:03:29 GMT",
        "x-ms-return-client-request-id": "true",
        "x-ms-version": "2019-12-12"
      },
      "RequestBody": null,
      "StatusCode": 201,
      "ResponseHeaders": {
        "Content-Length": "0",
        "Date": "Fri, 03 Apr 2020 00:03:28 GMT",
        "ETag": "\u00220x8D7D762706AFAD5\u0022",
        "Last-Modified": "Fri, 03 Apr 2020 00:03:28 GMT",
        "Server": [
          "Windows-Azure-Blob/1.0",
          "Microsoft-HTTPAPI/2.0"
        ],
        "x-ms-client-request-id": "ffbf8958-785c-104d-6498-c7fc01b0b3fe",
        "x-ms-request-id": "83a07540-e01e-006c-094b-09a637000000",
        "x-ms-version": "2019-12-12"
      },
      "ResponseBody": []
    },
    {
      "RequestUri": "https://seanmcccanary.blob.core.windows.net/test-container-4ae555d4-de2a-3773-92da-19421e756fa3/test-blob-1734b313-37f6-72d3-4268-697f2afcc215",
      "RequestMethod": "PUT",
      "RequestHeaders": {
        "Authorization": "Sanitized",
        "Content-Length": "0",
        "traceparent": "00-616b8efc2851004ca3def9114a2a7183-99566bcfac12a64f-00",
        "User-Agent": [
          "azsdk-net-Storage.Blobs/12.5.0-dev.20200402.1",
          "(.NET Core 4.6.28325.01; Microsoft Windows 10.0.18362 )"
        ],
        "x-ms-blob-content-length": "4096",
        "x-ms-blob-sequence-number": "0",
        "x-ms-blob-type": "PageBlob",
        "x-ms-client-request-id": "c163b4f7-ca49-2020-b54c-bcf30fcee567",
        "x-ms-date": "Fri, 03 Apr 2020 00:03:29 GMT",
        "x-ms-return-client-request-id": "true",
        "x-ms-version": "2019-12-12"
      },
      "RequestBody": null,
      "StatusCode": 201,
      "ResponseHeaders": {
        "Content-Length": "0",
        "Date": "Fri, 03 Apr 2020 00:03:28 GMT",
        "ETag": "\u00220x8D7D7627077D190\u0022",
        "Last-Modified": "Fri, 03 Apr 2020 00:03:28 GMT",
        "Server": [
          "Windows-Azure-Blob/1.0",
          "Microsoft-HTTPAPI/2.0"
        ],
        "x-ms-client-request-id": "c163b4f7-ca49-2020-b54c-bcf30fcee567",
        "x-ms-request-id": "83a07556-e01e-006c-1c4b-09a637000000",
        "x-ms-request-server-encrypted": "true",
        "x-ms-version": "2019-12-12"
      },
      "ResponseBody": []
    },
    {
      "RequestUri": "https://seanmcccanary.blob.core.windows.net/test-container-4ae555d4-de2a-3773-92da-19421e756fa3/test-blob-1734b313-37f6-72d3-4268-697f2afcc215?comp=pagelist",
      "RequestMethod": "GET",
      "RequestHeaders": {
        "Authorization": "Sanitized",
        "traceparent": "00-73f6dcbd0a79074ba2bd46a7142f5552-d3931fd4c07a1d48-00",
        "User-Agent": [
          "azsdk-net-Storage.Blobs/12.5.0-dev.20200402.1",
          "(.NET Core 4.6.28325.01; Microsoft Windows 10.0.18362 )"
        ],
        "x-ms-client-request-id": "768739ec-0199-2dcc-e1c9-de68b3536a17",
        "x-ms-date": "Fri, 03 Apr 2020 00:03:29 GMT",
        "x-ms-range": "bytes=0-1023",
        "x-ms-return-client-request-id": "true",
        "x-ms-version": "2019-12-12"
      },
      "RequestBody": null,
      "StatusCode": 200,
      "ResponseHeaders": {
        "Content-Type": "application/xml",
        "Date": "Fri, 03 Apr 2020 00:03:28 GMT",
        "ETag": "\u00220x8D7D7627077D190\u0022",
        "Last-Modified": "Fri, 03 Apr 2020 00:03:28 GMT",
        "Server": [
          "Windows-Azure-Blob/1.0",
          "Microsoft-HTTPAPI/2.0"
        ],
        "Transfer-Encoding": "chunked",
        "x-ms-blob-content-length": "4096",
        "x-ms-client-request-id": "768739ec-0199-2dcc-e1c9-de68b3536a17",
        "x-ms-request-id": "83a07579-e01e-006c-3d4b-09a637000000",
        "x-ms-version": "2019-12-12"
      },
      "ResponseBody": "\uFEFF\u003C?xml version=\u00221.0\u0022 encoding=\u0022utf-8\u0022?\u003E\u003CPageList /\u003E"
    },
    {
      "RequestUri": "https://seanmcccanary.blob.core.windows.net/test-container-4ae555d4-de2a-3773-92da-19421e756fa3?restype=container",
      "RequestMethod": "DELETE",
      "RequestHeaders": {
        "Authorization": "Sanitized",
        "traceparent": "00-fbe72d0034db8e408715f822534a9e10-3c81b4591cafc649-00",
        "User-Agent": [
          "azsdk-net-Storage.Blobs/12.5.0-dev.20200402.1",
          "(.NET Core 4.6.28325.01; Microsoft Windows 10.0.18362 )"
        ],
        "x-ms-client-request-id": "d5079173-6f47-d4ce-e5d5-1efc40e1ef18",
        "x-ms-date": "Fri, 03 Apr 2020 00:03:30 GMT",
        "x-ms-return-client-request-id": "true",
        "x-ms-version": "2019-12-12"
      },
      "RequestBody": null,
      "StatusCode": 202,
      "ResponseHeaders": {
        "Content-Length": "0",
        "Date": "Fri, 03 Apr 2020 00:03:28 GMT",
        "Server": [
          "Windows-Azure-Blob/1.0",
          "Microsoft-HTTPAPI/2.0"
        ],
        "x-ms-client-request-id": "d5079173-6f47-d4ce-e5d5-1efc40e1ef18",
        "x-ms-request-id": "83a07590-e01e-006c-534b-09a637000000",
        "x-ms-version": "2019-12-12"
      },
      "ResponseBody": []
    },
    {
      "RequestUri": "https://seanmcccanary.blob.core.windows.net/test-container-20711a4f-f140-7117-cfae-0ad9ac3d9401?restype=container",
      "RequestMethod": "PUT",
      "RequestHeaders": {
        "Authorization": "Sanitized",
        "traceparent": "00-3624c4252cc1cd4491769ac331dc3496-bbfca6eac31de247-00",
        "User-Agent": [
          "azsdk-net-Storage.Blobs/12.5.0-dev.20200402.1",
          "(.NET Core 4.6.28325.01; Microsoft Windows 10.0.18362 )"
        ],
        "x-ms-blob-public-access": "container",
        "x-ms-client-request-id": "7f3f3cd0-886e-82d5-7995-069865f528a7",
        "x-ms-date": "Fri, 03 Apr 2020 00:03:30 GMT",
        "x-ms-return-client-request-id": "true",
        "x-ms-version": "2019-12-12"
      },
      "RequestBody": null,
      "StatusCode": 201,
      "ResponseHeaders": {
        "Content-Length": "0",
        "Date": "Fri, 03 Apr 2020 00:03:28 GMT",
        "ETag": "\u00220x8D7D76270C0CD75\u0022",
        "Last-Modified": "Fri, 03 Apr 2020 00:03:29 GMT",
        "Server": [
          "Windows-Azure-Blob/1.0",
          "Microsoft-HTTPAPI/2.0"
        ],
        "x-ms-client-request-id": "7f3f3cd0-886e-82d5-7995-069865f528a7",
        "x-ms-request-id": "153354a5-e01e-0021-1b4b-0969db000000",
        "x-ms-version": "2019-12-12"
      },
      "ResponseBody": []
    },
    {
      "RequestUri": "https://seanmcccanary.blob.core.windows.net/test-container-20711a4f-f140-7117-cfae-0ad9ac3d9401/test-blob-78dc1c40-cdec-bacc-4a11-97b7eed91362",
      "RequestMethod": "PUT",
      "RequestHeaders": {
        "Authorization": "Sanitized",
        "Content-Length": "0",
        "traceparent": "00-717f025b53a1c14b8fc45463458ee146-527da1c0bb5a7b4c-00",
        "User-Agent": [
          "azsdk-net-Storage.Blobs/12.5.0-dev.20200402.1",
          "(.NET Core 4.6.28325.01; Microsoft Windows 10.0.18362 )"
        ],
        "x-ms-blob-content-length": "4096",
        "x-ms-blob-sequence-number": "0",
        "x-ms-blob-type": "PageBlob",
        "x-ms-client-request-id": "40fc5a60-1e90-029d-6f85-345cf11e939f",
        "x-ms-date": "Fri, 03 Apr 2020 00:03:30 GMT",
        "x-ms-return-client-request-id": "true",
        "x-ms-version": "2019-12-12"
      },
      "RequestBody": null,
      "StatusCode": 201,
      "ResponseHeaders": {
        "Content-Length": "0",
        "Date": "Fri, 03 Apr 2020 00:03:28 GMT",
        "ETag": "\u00220x8D7D76270CD2CF2\u0022",
        "Last-Modified": "Fri, 03 Apr 2020 00:03:29 GMT",
        "Server": [
          "Windows-Azure-Blob/1.0",
          "Microsoft-HTTPAPI/2.0"
        ],
        "x-ms-client-request-id": "40fc5a60-1e90-029d-6f85-345cf11e939f",
        "x-ms-request-id": "153354bb-e01e-0021-2f4b-0969db000000",
        "x-ms-request-server-encrypted": "true",
        "x-ms-version": "2019-12-12"
      },
      "ResponseBody": []
    },
    {
      "RequestUri": "https://seanmcccanary.blob.core.windows.net/test-container-20711a4f-f140-7117-cfae-0ad9ac3d9401/test-blob-78dc1c40-cdec-bacc-4a11-97b7eed91362?comp=pagelist",
      "RequestMethod": "GET",
      "RequestHeaders": {
        "Authorization": "Sanitized",
        "If-Modified-Since": "Thu, 02 Apr 2020 00:03:29 GMT",
        "traceparent": "00-21fe21578c47794abf5ae2e134a1081a-8a82ac5255c32b4e-00",
        "User-Agent": [
          "azsdk-net-Storage.Blobs/12.5.0-dev.20200402.1",
          "(.NET Core 4.6.28325.01; Microsoft Windows 10.0.18362 )"
        ],
        "x-ms-client-request-id": "93560417-d3dd-f7d2-e205-0078e036a5d3",
        "x-ms-date": "Fri, 03 Apr 2020 00:03:30 GMT",
        "x-ms-range": "bytes=0-1023",
        "x-ms-return-client-request-id": "true",
        "x-ms-version": "2019-12-12"
      },
      "RequestBody": null,
      "StatusCode": 200,
      "ResponseHeaders": {
        "Content-Type": "application/xml",
        "Date": "Fri, 03 Apr 2020 00:03:29 GMT",
        "ETag": "\u00220x8D7D76270CD2CF2\u0022",
        "Last-Modified": "Fri, 03 Apr 2020 00:03:29 GMT",
        "Server": [
          "Windows-Azure-Blob/1.0",
          "Microsoft-HTTPAPI/2.0"
        ],
        "Transfer-Encoding": "chunked",
        "x-ms-blob-content-length": "4096",
        "x-ms-client-request-id": "93560417-d3dd-f7d2-e205-0078e036a5d3",
        "x-ms-request-id": "153354d4-e01e-0021-474b-0969db000000",
        "x-ms-version": "2019-12-12"
      },
      "ResponseBody": "\uFEFF\u003C?xml version=\u00221.0\u0022 encoding=\u0022utf-8\u0022?\u003E\u003CPageList /\u003E"
    },
    {
      "RequestUri": "https://seanmcccanary.blob.core.windows.net/test-container-20711a4f-f140-7117-cfae-0ad9ac3d9401?restype=container",
      "RequestMethod": "DELETE",
      "RequestHeaders": {
        "Authorization": "Sanitized",
        "traceparent": "00-edf1e22b1d010b43bc8901e37dea5e4f-b01d6c9aefd94c44-00",
        "User-Agent": [
          "azsdk-net-Storage.Blobs/12.5.0-dev.20200402.1",
          "(.NET Core 4.6.28325.01; Microsoft Windows 10.0.18362 )"
        ],
        "x-ms-client-request-id": "ed45205a-00c8-aec2-d18a-02e7b8314a52",
        "x-ms-date": "Fri, 03 Apr 2020 00:03:30 GMT",
        "x-ms-return-client-request-id": "true",
        "x-ms-version": "2019-12-12"
      },
      "RequestBody": null,
      "StatusCode": 202,
      "ResponseHeaders": {
        "Content-Length": "0",
        "Date": "Fri, 03 Apr 2020 00:03:29 GMT",
        "Server": [
          "Windows-Azure-Blob/1.0",
          "Microsoft-HTTPAPI/2.0"
        ],
        "x-ms-client-request-id": "ed45205a-00c8-aec2-d18a-02e7b8314a52",
        "x-ms-request-id": "153354e7-e01e-0021-5a4b-0969db000000",
        "x-ms-version": "2019-12-12"
      },
      "ResponseBody": []
    },
    {
      "RequestUri": "https://seanmcccanary.blob.core.windows.net/test-container-1c9cb39f-3fe0-015e-5eae-e20b1c865fbf?restype=container",
      "RequestMethod": "PUT",
      "RequestHeaders": {
        "Authorization": "Sanitized",
        "traceparent": "00-e075542dbc23d5438a52f7eb8c474ec2-c099c3334e89ec4a-00",
        "User-Agent": [
          "azsdk-net-Storage.Blobs/12.5.0-dev.20200402.1",
          "(.NET Core 4.6.28325.01; Microsoft Windows 10.0.18362 )"
        ],
        "x-ms-blob-public-access": "container",
        "x-ms-client-request-id": "e4ac6386-c186-1b79-c143-8f1a1db6914a",
        "x-ms-date": "Fri, 03 Apr 2020 00:03:30 GMT",
        "x-ms-return-client-request-id": "true",
        "x-ms-version": "2019-12-12"
      },
      "RequestBody": null,
      "StatusCode": 201,
      "ResponseHeaders": {
        "Content-Length": "0",
        "Date": "Fri, 03 Apr 2020 00:03:29 GMT",
        "ETag": "\u00220x8D7D762711959C2\u0022",
        "Last-Modified": "Fri, 03 Apr 2020 00:03:30 GMT",
        "Server": [
          "Windows-Azure-Blob/1.0",
          "Microsoft-HTTPAPI/2.0"
        ],
        "x-ms-client-request-id": "e4ac6386-c186-1b79-c143-8f1a1db6914a",
        "x-ms-request-id": "b42b164e-d01e-003a-154b-0957d8000000",
        "x-ms-version": "2019-12-12"
      },
      "ResponseBody": []
    },
    {
      "RequestUri": "https://seanmcccanary.blob.core.windows.net/test-container-1c9cb39f-3fe0-015e-5eae-e20b1c865fbf/test-blob-13be432a-8a13-e661-a8be-d6592434ee9f",
      "RequestMethod": "PUT",
      "RequestHeaders": {
        "Authorization": "Sanitized",
        "Content-Length": "0",
        "traceparent": "00-64c46a0edb6a614cba39d828358c2973-eb691450a8de6a4f-00",
        "User-Agent": [
          "azsdk-net-Storage.Blobs/12.5.0-dev.20200402.1",
          "(.NET Core 4.6.28325.01; Microsoft Windows 10.0.18362 )"
        ],
        "x-ms-blob-content-length": "4096",
        "x-ms-blob-sequence-number": "0",
        "x-ms-blob-type": "PageBlob",
        "x-ms-client-request-id": "cf00cff5-dbff-fc6c-02c5-3bc7eb20f68d",
        "x-ms-date": "Fri, 03 Apr 2020 00:03:30 GMT",
        "x-ms-return-client-request-id": "true",
        "x-ms-version": "2019-12-12"
      },
      "RequestBody": null,
      "StatusCode": 201,
      "ResponseHeaders": {
        "Content-Length": "0",
        "Date": "Fri, 03 Apr 2020 00:03:29 GMT",
        "ETag": "\u00220x8D7D7627126CEF2\u0022",
        "Last-Modified": "Fri, 03 Apr 2020 00:03:30 GMT",
        "Server": [
          "Windows-Azure-Blob/1.0",
          "Microsoft-HTTPAPI/2.0"
        ],
        "x-ms-client-request-id": "cf00cff5-dbff-fc6c-02c5-3bc7eb20f68d",
        "x-ms-request-id": "b42b1676-d01e-003a-354b-0957d8000000",
        "x-ms-request-server-encrypted": "true",
        "x-ms-version": "2019-12-12"
      },
      "ResponseBody": []
    },
    {
      "RequestUri": "https://seanmcccanary.blob.core.windows.net/test-container-1c9cb39f-3fe0-015e-5eae-e20b1c865fbf/test-blob-13be432a-8a13-e661-a8be-d6592434ee9f?comp=pagelist",
      "RequestMethod": "GET",
      "RequestHeaders": {
        "Authorization": "Sanitized",
        "If-Unmodified-Since": "Sat, 04 Apr 2020 00:03:29 GMT",
        "traceparent": "00-623cda3a5ca37b459459de2ada9996ad-960b1e7f362eed42-00",
        "User-Agent": [
          "azsdk-net-Storage.Blobs/12.5.0-dev.20200402.1",
          "(.NET Core 4.6.28325.01; Microsoft Windows 10.0.18362 )"
        ],
        "x-ms-client-request-id": "546446fe-1f34-e39f-f588-b71440717b0b",
        "x-ms-date": "Fri, 03 Apr 2020 00:03:31 GMT",
        "x-ms-range": "bytes=0-1023",
        "x-ms-return-client-request-id": "true",
        "x-ms-version": "2019-12-12"
      },
      "RequestBody": null,
      "StatusCode": 200,
      "ResponseHeaders": {
        "Content-Type": "application/xml",
        "Date": "Fri, 03 Apr 2020 00:03:29 GMT",
        "ETag": "\u00220x8D7D7627126CEF2\u0022",
        "Last-Modified": "Fri, 03 Apr 2020 00:03:30 GMT",
        "Server": [
          "Windows-Azure-Blob/1.0",
          "Microsoft-HTTPAPI/2.0"
        ],
        "Transfer-Encoding": "chunked",
        "x-ms-blob-content-length": "4096",
        "x-ms-client-request-id": "546446fe-1f34-e39f-f588-b71440717b0b",
        "x-ms-request-id": "b42b1687-d01e-003a-434b-0957d8000000",
        "x-ms-version": "2019-12-12"
      },
      "ResponseBody": "\uFEFF\u003C?xml version=\u00221.0\u0022 encoding=\u0022utf-8\u0022?\u003E\u003CPageList /\u003E"
    },
    {
      "RequestUri": "https://seanmcccanary.blob.core.windows.net/test-container-1c9cb39f-3fe0-015e-5eae-e20b1c865fbf?restype=container",
      "RequestMethod": "DELETE",
      "RequestHeaders": {
        "Authorization": "Sanitized",
        "traceparent": "00-509c559b5891cc44a9b87b9afb38b624-6ea670ff09e4684e-00",
        "User-Agent": [
          "azsdk-net-Storage.Blobs/12.5.0-dev.20200402.1",
          "(.NET Core 4.6.28325.01; Microsoft Windows 10.0.18362 )"
        ],
        "x-ms-client-request-id": "a4c88207-a1bb-3558-5078-c5a9215b6e98",
        "x-ms-date": "Fri, 03 Apr 2020 00:03:31 GMT",
        "x-ms-return-client-request-id": "true",
        "x-ms-version": "2019-12-12"
      },
      "RequestBody": null,
      "StatusCode": 202,
      "ResponseHeaders": {
        "Content-Length": "0",
        "Date": "Fri, 03 Apr 2020 00:03:29 GMT",
        "Server": [
          "Windows-Azure-Blob/1.0",
          "Microsoft-HTTPAPI/2.0"
        ],
        "x-ms-client-request-id": "a4c88207-a1bb-3558-5078-c5a9215b6e98",
        "x-ms-request-id": "b42b1699-d01e-003a-544b-0957d8000000",
        "x-ms-version": "2019-12-12"
      },
      "ResponseBody": []
    },
    {
      "RequestUri": "https://seanmcccanary.blob.core.windows.net/test-container-1b04dbdc-845a-f923-e946-f5e359f7ee99?restype=container",
      "RequestMethod": "PUT",
      "RequestHeaders": {
        "Authorization": "Sanitized",
        "traceparent": "00-894964403145c64caedbd299d2a2e42e-35755cc18805774e-00",
        "User-Agent": [
          "azsdk-net-Storage.Blobs/12.5.0-dev.20200402.1",
          "(.NET Core 4.6.28325.01; Microsoft Windows 10.0.18362 )"
        ],
        "x-ms-blob-public-access": "container",
        "x-ms-client-request-id": "19ca2ce2-5357-82f3-5ecf-ba75ac75db59",
        "x-ms-date": "Fri, 03 Apr 2020 00:03:31 GMT",
        "x-ms-return-client-request-id": "true",
        "x-ms-version": "2019-12-12"
      },
      "RequestBody": null,
      "StatusCode": 201,
      "ResponseHeaders": {
        "Content-Length": "0",
        "Date": "Fri, 03 Apr 2020 00:03:29 GMT",
        "ETag": "\u00220x8D7D7627174FFE1\u0022",
        "Last-Modified": "Fri, 03 Apr 2020 00:03:30 GMT",
        "Server": [
          "Windows-Azure-Blob/1.0",
          "Microsoft-HTTPAPI/2.0"
        ],
        "x-ms-client-request-id": "19ca2ce2-5357-82f3-5ecf-ba75ac75db59",
        "x-ms-request-id": "d8ac7adc-801e-0018-284b-0992c7000000",
        "x-ms-version": "2019-12-12"
      },
      "ResponseBody": []
    },
    {
      "RequestUri": "https://seanmcccanary.blob.core.windows.net/test-container-1b04dbdc-845a-f923-e946-f5e359f7ee99/test-blob-b88f2c89-b14e-06ef-8b99-04379c07ba35",
      "RequestMethod": "PUT",
      "RequestHeaders": {
        "Authorization": "Sanitized",
        "Content-Length": "0",
        "traceparent": "00-b30b0baf13ff7147bb076890c014fdcd-426aa765db9e444e-00",
        "User-Agent": [
          "azsdk-net-Storage.Blobs/12.5.0-dev.20200402.1",
          "(.NET Core 4.6.28325.01; Microsoft Windows 10.0.18362 )"
        ],
        "x-ms-blob-content-length": "4096",
        "x-ms-blob-sequence-number": "0",
        "x-ms-blob-type": "PageBlob",
        "x-ms-client-request-id": "13928f47-4324-30b4-3dc4-8dbd4fbce657",
        "x-ms-date": "Fri, 03 Apr 2020 00:03:31 GMT",
        "x-ms-return-client-request-id": "true",
        "x-ms-version": "2019-12-12"
      },
      "RequestBody": null,
      "StatusCode": 201,
      "ResponseHeaders": {
        "Content-Length": "0",
        "Date": "Fri, 03 Apr 2020 00:03:30 GMT",
        "ETag": "\u00220x8D7D7627182BB58\u0022",
        "Last-Modified": "Fri, 03 Apr 2020 00:03:30 GMT",
        "Server": [
          "Windows-Azure-Blob/1.0",
          "Microsoft-HTTPAPI/2.0"
        ],
        "x-ms-client-request-id": "13928f47-4324-30b4-3dc4-8dbd4fbce657",
        "x-ms-request-id": "d8ac7ae5-801e-0018-2f4b-0992c7000000",
        "x-ms-request-server-encrypted": "true",
        "x-ms-version": "2019-12-12"
      },
      "ResponseBody": []
    },
    {
      "RequestUri": "https://seanmcccanary.blob.core.windows.net/test-container-1b04dbdc-845a-f923-e946-f5e359f7ee99/test-blob-b88f2c89-b14e-06ef-8b99-04379c07ba35",
      "RequestMethod": "HEAD",
      "RequestHeaders": {
        "Authorization": "Sanitized",
        "traceparent": "00-cd30ce40467e5442b79511400bdbd6f6-119873c2a90f0c4d-00",
        "User-Agent": [
          "azsdk-net-Storage.Blobs/12.5.0-dev.20200402.1",
          "(.NET Core 4.6.28325.01; Microsoft Windows 10.0.18362 )"
        ],
        "x-ms-client-request-id": "0def61db-a774-0610-3cd1-ef68478375b8",
        "x-ms-date": "Fri, 03 Apr 2020 00:03:31 GMT",
        "x-ms-return-client-request-id": "true",
        "x-ms-version": "2019-12-12"
      },
      "RequestBody": null,
      "StatusCode": 200,
      "ResponseHeaders": {
        "Accept-Ranges": "bytes",
        "Content-Length": "4096",
        "Content-Type": "application/octet-stream",
        "Date": "Fri, 03 Apr 2020 00:03:30 GMT",
        "ETag": "\u00220x8D7D7627182BB58\u0022",
        "Last-Modified": "Fri, 03 Apr 2020 00:03:30 GMT",
        "Server": [
          "Windows-Azure-Blob/1.0",
          "Microsoft-HTTPAPI/2.0"
        ],
        "x-ms-blob-sequence-number": "0",
        "x-ms-blob-type": "PageBlob",
        "x-ms-client-request-id": "0def61db-a774-0610-3cd1-ef68478375b8",
        "x-ms-creation-time": "Fri, 03 Apr 2020 00:03:30 GMT",
        "x-ms-lease-state": "available",
        "x-ms-lease-status": "unlocked",
        "x-ms-request-id": "d8ac7af1-801e-0018-3a4b-0992c7000000",
        "x-ms-server-encrypted": "true",
        "x-ms-version": "2019-12-12"
      },
      "ResponseBody": []
    },
    {
      "RequestUri": "https://seanmcccanary.blob.core.windows.net/test-container-1b04dbdc-845a-f923-e946-f5e359f7ee99/test-blob-b88f2c89-b14e-06ef-8b99-04379c07ba35?comp=pagelist",
      "RequestMethod": "GET",
      "RequestHeaders": {
        "Authorization": "Sanitized",
        "If-Match": "\u00220x8D7D7627182BB58\u0022",
        "traceparent": "00-9665268086587347a8146070a2a63eb4-3bd975bceeb6d84c-00",
        "User-Agent": [
          "azsdk-net-Storage.Blobs/12.5.0-dev.20200402.1",
          "(.NET Core 4.6.28325.01; Microsoft Windows 10.0.18362 )"
        ],
        "x-ms-client-request-id": "ede2ddda-d8cc-6de2-7424-7da2bfc46c66",
        "x-ms-date": "Fri, 03 Apr 2020 00:03:31 GMT",
        "x-ms-range": "bytes=0-1023",
        "x-ms-return-client-request-id": "true",
        "x-ms-version": "2019-12-12"
      },
      "RequestBody": null,
      "StatusCode": 200,
      "ResponseHeaders": {
        "Content-Type": "application/xml",
        "Date": "Fri, 03 Apr 2020 00:03:30 GMT",
        "ETag": "\u00220x8D7D7627182BB58\u0022",
        "Last-Modified": "Fri, 03 Apr 2020 00:03:30 GMT",
        "Server": [
          "Windows-Azure-Blob/1.0",
          "Microsoft-HTTPAPI/2.0"
        ],
        "Transfer-Encoding": "chunked",
        "x-ms-blob-content-length": "4096",
        "x-ms-client-request-id": "ede2ddda-d8cc-6de2-7424-7da2bfc46c66",
        "x-ms-request-id": "d8ac7b01-801e-0018-464b-0992c7000000",
        "x-ms-version": "2019-12-12"
      },
      "ResponseBody": "\uFEFF\u003C?xml version=\u00221.0\u0022 encoding=\u0022utf-8\u0022?\u003E\u003CPageList /\u003E"
    },
    {
      "RequestUri": "https://seanmcccanary.blob.core.windows.net/test-container-1b04dbdc-845a-f923-e946-f5e359f7ee99?restype=container",
      "RequestMethod": "DELETE",
      "RequestHeaders": {
        "Authorization": "Sanitized",
        "traceparent": "00-2eb01d827519c04caab34f7f99ff2c7b-e6a40acb88726248-00",
        "User-Agent": [
          "azsdk-net-Storage.Blobs/12.5.0-dev.20200402.1",
          "(.NET Core 4.6.28325.01; Microsoft Windows 10.0.18362 )"
        ],
        "x-ms-client-request-id": "698dc8f3-87a1-cbeb-2458-218c878bd99e",
        "x-ms-date": "Fri, 03 Apr 2020 00:03:31 GMT",
        "x-ms-return-client-request-id": "true",
        "x-ms-version": "2019-12-12"
      },
      "RequestBody": null,
      "StatusCode": 202,
      "ResponseHeaders": {
        "Content-Length": "0",
        "Date": "Fri, 03 Apr 2020 00:03:30 GMT",
        "Server": [
          "Windows-Azure-Blob/1.0",
          "Microsoft-HTTPAPI/2.0"
        ],
        "x-ms-client-request-id": "698dc8f3-87a1-cbeb-2458-218c878bd99e",
        "x-ms-request-id": "d8ac7b0e-801e-0018-4f4b-0992c7000000",
        "x-ms-version": "2019-12-12"
      },
      "ResponseBody": []
    },
    {
      "RequestUri": "https://seanmcccanary.blob.core.windows.net/test-container-7505c272-91cf-86d6-dd0b-ba762d4ceebe?restype=container",
      "RequestMethod": "PUT",
      "RequestHeaders": {
        "Authorization": "Sanitized",
        "traceparent": "00-98d7a4264d601141920cfb7a73cee7da-6e655b5d7f485b44-00",
        "User-Agent": [
          "azsdk-net-Storage.Blobs/12.5.0-dev.20200402.1",
          "(.NET Core 4.6.28325.01; Microsoft Windows 10.0.18362 )"
        ],
        "x-ms-blob-public-access": "container",
        "x-ms-client-request-id": "bb230c7d-90b0-627c-f106-8c95cd759dd7",
        "x-ms-date": "Fri, 03 Apr 2020 00:03:31 GMT",
        "x-ms-return-client-request-id": "true",
        "x-ms-version": "2019-12-12"
      },
      "RequestBody": null,
      "StatusCode": 201,
      "ResponseHeaders": {
        "Content-Length": "0",
        "Date": "Fri, 03 Apr 2020 00:03:30 GMT",
        "ETag": "\u00220x8D7D76271DA3567\u0022",
        "Last-Modified": "Fri, 03 Apr 2020 00:03:31 GMT",
        "Server": [
          "Windows-Azure-Blob/1.0",
          "Microsoft-HTTPAPI/2.0"
        ],
        "x-ms-client-request-id": "bb230c7d-90b0-627c-f106-8c95cd759dd7",
        "x-ms-request-id": "587e00f9-401e-0081-524b-09ed7a000000",
        "x-ms-version": "2019-12-12"
      },
      "ResponseBody": []
    },
    {
      "RequestUri": "https://seanmcccanary.blob.core.windows.net/test-container-7505c272-91cf-86d6-dd0b-ba762d4ceebe/test-blob-566e6369-e3db-6f68-fd39-d67b6ade546a",
      "RequestMethod": "PUT",
      "RequestHeaders": {
        "Authorization": "Sanitized",
        "Content-Length": "0",
        "traceparent": "00-1b1eda5d5958a04a9e0e064799d0c886-d600ec8ef2274043-00",
        "User-Agent": [
          "azsdk-net-Storage.Blobs/12.5.0-dev.20200402.1",
          "(.NET Core 4.6.28325.01; Microsoft Windows 10.0.18362 )"
        ],
        "x-ms-blob-content-length": "4096",
        "x-ms-blob-sequence-number": "0",
        "x-ms-blob-type": "PageBlob",
        "x-ms-client-request-id": "ce8f4fb6-f905-99cc-a3b3-be77b901f713",
        "x-ms-date": "Fri, 03 Apr 2020 00:03:32 GMT",
        "x-ms-return-client-request-id": "true",
        "x-ms-version": "2019-12-12"
      },
      "RequestBody": null,
      "StatusCode": 201,
      "ResponseHeaders": {
        "Content-Length": "0",
        "Date": "Fri, 03 Apr 2020 00:03:31 GMT",
        "ETag": "\u00220x8D7D76271E782FC\u0022",
        "Last-Modified": "Fri, 03 Apr 2020 00:03:31 GMT",
        "Server": [
          "Windows-Azure-Blob/1.0",
          "Microsoft-HTTPAPI/2.0"
        ],
        "x-ms-client-request-id": "ce8f4fb6-f905-99cc-a3b3-be77b901f713",
        "x-ms-request-id": "587e010d-401e-0081-634b-09ed7a000000",
        "x-ms-request-server-encrypted": "true",
        "x-ms-version": "2019-12-12"
      },
      "ResponseBody": []
    },
    {
      "RequestUri": "https://seanmcccanary.blob.core.windows.net/test-container-7505c272-91cf-86d6-dd0b-ba762d4ceebe/test-blob-566e6369-e3db-6f68-fd39-d67b6ade546a?comp=pagelist",
      "RequestMethod": "GET",
      "RequestHeaders": {
        "Authorization": "Sanitized",
        "If-None-Match": "\u0022garbage\u0022",
        "traceparent": "00-f06b0b4b5776614a8a67eaf73e178bec-fde028b842560f45-00",
        "User-Agent": [
          "azsdk-net-Storage.Blobs/12.5.0-dev.20200402.1",
          "(.NET Core 4.6.28325.01; Microsoft Windows 10.0.18362 )"
        ],
        "x-ms-client-request-id": "1ac4ac3a-864e-c265-455f-7d757595d4b2",
        "x-ms-date": "Fri, 03 Apr 2020 00:03:32 GMT",
        "x-ms-range": "bytes=0-1023",
        "x-ms-return-client-request-id": "true",
        "x-ms-version": "2019-12-12"
      },
      "RequestBody": null,
      "StatusCode": 200,
      "ResponseHeaders": {
        "Content-Type": "application/xml",
        "Date": "Fri, 03 Apr 2020 00:03:31 GMT",
        "ETag": "\u00220x8D7D76271E782FC\u0022",
        "Last-Modified": "Fri, 03 Apr 2020 00:03:31 GMT",
        "Server": [
          "Windows-Azure-Blob/1.0",
          "Microsoft-HTTPAPI/2.0"
        ],
        "Transfer-Encoding": "chunked",
        "x-ms-blob-content-length": "4096",
        "x-ms-client-request-id": "1ac4ac3a-864e-c265-455f-7d757595d4b2",
        "x-ms-request-id": "587e012f-401e-0081-7c4b-09ed7a000000",
        "x-ms-version": "2019-12-12"
      },
      "ResponseBody": "\uFEFF\u003C?xml version=\u00221.0\u0022 encoding=\u0022utf-8\u0022?\u003E\u003CPageList /\u003E"
    },
    {
      "RequestUri": "https://seanmcccanary.blob.core.windows.net/test-container-7505c272-91cf-86d6-dd0b-ba762d4ceebe?restype=container",
      "RequestMethod": "DELETE",
      "RequestHeaders": {
        "Authorization": "Sanitized",
        "traceparent": "00-7303cc3e3336ca4492f1f0913d5dba36-f90c36730f9f8542-00",
        "User-Agent": [
          "azsdk-net-Storage.Blobs/12.5.0-dev.20200402.1",
          "(.NET Core 4.6.28325.01; Microsoft Windows 10.0.18362 )"
        ],
        "x-ms-client-request-id": "0c3df1ba-dd3d-2bc5-bc16-761dfe38c0c0",
        "x-ms-date": "Fri, 03 Apr 2020 00:03:32 GMT",
        "x-ms-return-client-request-id": "true",
        "x-ms-version": "2019-12-12"
      },
      "RequestBody": null,
      "StatusCode": 202,
      "ResponseHeaders": {
        "Content-Length": "0",
        "Date": "Fri, 03 Apr 2020 00:03:31 GMT",
        "Server": [
          "Windows-Azure-Blob/1.0",
          "Microsoft-HTTPAPI/2.0"
        ],
        "x-ms-client-request-id": "0c3df1ba-dd3d-2bc5-bc16-761dfe38c0c0",
        "x-ms-request-id": "587e0149-401e-0081-114b-09ed7a000000",
        "x-ms-version": "2019-12-12"
      },
      "ResponseBody": []
    },
    {
      "RequestUri": "https://seanmcccanary.blob.core.windows.net/test-container-ee39ef0c-a4ba-f775-ff89-78f40d406b07?restype=container",
      "RequestMethod": "PUT",
      "RequestHeaders": {
        "Authorization": "Sanitized",
        "traceparent": "00-3240f7e0285431408eb669c6556550a7-c34afa5311c8fa4c-00",
        "User-Agent": [
          "azsdk-net-Storage.Blobs/12.5.0-dev.20200402.1",
          "(.NET Core 4.6.28325.01; Microsoft Windows 10.0.18362 )"
        ],
        "x-ms-blob-public-access": "container",
        "x-ms-client-request-id": "6618b799-cd04-16b1-7b45-0db364d01d7b",
        "x-ms-date": "Fri, 03 Apr 2020 00:03:32 GMT",
        "x-ms-return-client-request-id": "true",
        "x-ms-version": "2019-12-12"
      },
      "RequestBody": null,
      "StatusCode": 201,
      "ResponseHeaders": {
        "Content-Length": "0",
        "Date": "Fri, 03 Apr 2020 00:03:31 GMT",
        "ETag": "\u00220x8D7D762723175FD\u0022",
        "Last-Modified": "Fri, 03 Apr 2020 00:03:31 GMT",
        "Server": [
          "Windows-Azure-Blob/1.0",
          "Microsoft-HTTPAPI/2.0"
        ],
        "x-ms-client-request-id": "6618b799-cd04-16b1-7b45-0db364d01d7b",
        "x-ms-request-id": "122fdc32-601e-0072-064b-094aef000000",
        "x-ms-version": "2019-12-12"
      },
      "ResponseBody": []
    },
    {
      "RequestUri": "https://seanmcccanary.blob.core.windows.net/test-container-ee39ef0c-a4ba-f775-ff89-78f40d406b07/test-blob-ec796faa-3c7e-4469-7ac1-c2670b342b70",
      "RequestMethod": "PUT",
      "RequestHeaders": {
        "Authorization": "Sanitized",
        "Content-Length": "0",
        "traceparent": "00-d4b6065c3aec0647ac4eb7c8c3072d34-ed0678921801db4e-00",
        "User-Agent": [
          "azsdk-net-Storage.Blobs/12.5.0-dev.20200402.1",
          "(.NET Core 4.6.28325.01; Microsoft Windows 10.0.18362 )"
        ],
        "x-ms-blob-content-length": "4096",
        "x-ms-blob-sequence-number": "0",
        "x-ms-blob-type": "PageBlob",
        "x-ms-client-request-id": "5c961c35-4e15-5cea-4ed3-ec430a4a0b46",
        "x-ms-date": "Fri, 03 Apr 2020 00:03:32 GMT",
        "x-ms-return-client-request-id": "true",
        "x-ms-version": "2019-12-12"
      },
      "RequestBody": null,
      "StatusCode": 201,
      "ResponseHeaders": {
        "Content-Length": "0",
        "Date": "Fri, 03 Apr 2020 00:03:31 GMT",
        "ETag": "\u00220x8D7D762723E3E50\u0022",
        "Last-Modified": "Fri, 03 Apr 2020 00:03:31 GMT",
        "Server": [
          "Windows-Azure-Blob/1.0",
          "Microsoft-HTTPAPI/2.0"
        ],
        "x-ms-client-request-id": "5c961c35-4e15-5cea-4ed3-ec430a4a0b46",
        "x-ms-request-id": "122fdc4f-601e-0072-1e4b-094aef000000",
        "x-ms-request-server-encrypted": "true",
        "x-ms-version": "2019-12-12"
      },
      "ResponseBody": []
    },
    {
      "RequestUri": "https://seanmcccanary.blob.core.windows.net/test-container-ee39ef0c-a4ba-f775-ff89-78f40d406b07/test-blob-ec796faa-3c7e-4469-7ac1-c2670b342b70?comp=lease",
      "RequestMethod": "PUT",
      "RequestHeaders": {
        "Authorization": "Sanitized",
        "traceparent": "00-de9ec47384e51b4abe6c51ff09c61257-278aa43f991ad94b-00",
        "User-Agent": [
          "azsdk-net-Storage.Blobs/12.5.0-dev.20200402.1",
          "(.NET Core 4.6.28325.01; Microsoft Windows 10.0.18362 )"
        ],
        "x-ms-client-request-id": "1df7c299-bf5c-6de5-c8f0-f072c21128f7",
        "x-ms-date": "Fri, 03 Apr 2020 00:03:32 GMT",
        "x-ms-lease-action": "acquire",
        "x-ms-lease-duration": "-1",
        "x-ms-proposed-lease-id": "54659c1a-c775-a554-6ca3-8cd934578ab8",
        "x-ms-return-client-request-id": "true",
        "x-ms-version": "2019-12-12"
      },
      "RequestBody": null,
      "StatusCode": 201,
      "ResponseHeaders": {
        "Content-Length": "0",
        "Date": "Fri, 03 Apr 2020 00:03:31 GMT",
        "ETag": "\u00220x8D7D762723E3E50\u0022",
        "Last-Modified": "Fri, 03 Apr 2020 00:03:31 GMT",
        "Server": [
          "Windows-Azure-Blob/1.0",
          "Microsoft-HTTPAPI/2.0"
        ],
        "x-ms-client-request-id": "1df7c299-bf5c-6de5-c8f0-f072c21128f7",
        "x-ms-lease-id": "54659c1a-c775-a554-6ca3-8cd934578ab8",
        "x-ms-request-id": "122fdc67-601e-0072-324b-094aef000000",
        "x-ms-version": "2019-12-12"
      },
      "ResponseBody": []
    },
    {
      "RequestUri": "https://seanmcccanary.blob.core.windows.net/test-container-ee39ef0c-a4ba-f775-ff89-78f40d406b07/test-blob-ec796faa-3c7e-4469-7ac1-c2670b342b70?comp=pagelist",
      "RequestMethod": "GET",
      "RequestHeaders": {
        "Authorization": "Sanitized",
        "traceparent": "00-775a99d35fb32b4585789ff58287c21c-05496d1fe1bc8b4d-00",
        "User-Agent": [
          "azsdk-net-Storage.Blobs/12.5.0-dev.20200402.1",
          "(.NET Core 4.6.28325.01; Microsoft Windows 10.0.18362 )"
        ],
        "x-ms-client-request-id": "714076d7-6d5f-ed5b-82c4-25addfe73d13",
        "x-ms-date": "Fri, 03 Apr 2020 00:03:32 GMT",
        "x-ms-lease-id": "54659c1a-c775-a554-6ca3-8cd934578ab8",
        "x-ms-range": "bytes=0-1023",
        "x-ms-return-client-request-id": "true",
        "x-ms-version": "2019-12-12"
      },
      "RequestBody": null,
      "StatusCode": 200,
      "ResponseHeaders": {
        "Content-Type": "application/xml",
        "Date": "Fri, 03 Apr 2020 00:03:31 GMT",
        "ETag": "\u00220x8D7D762723E3E50\u0022",
        "Last-Modified": "Fri, 03 Apr 2020 00:03:31 GMT",
        "Server": [
          "Windows-Azure-Blob/1.0",
          "Microsoft-HTTPAPI/2.0"
        ],
        "Transfer-Encoding": "chunked",
        "x-ms-blob-content-length": "4096",
        "x-ms-client-request-id": "714076d7-6d5f-ed5b-82c4-25addfe73d13",
        "x-ms-request-id": "122fdc8e-601e-0072-594b-094aef000000",
        "x-ms-version": "2019-12-12"
      },
      "ResponseBody": "\uFEFF\u003C?xml version=\u00221.0\u0022 encoding=\u0022utf-8\u0022?\u003E\u003CPageList /\u003E"
    },
    {
      "RequestUri": "https://seanmcccanary.blob.core.windows.net/test-container-ee39ef0c-a4ba-f775-ff89-78f40d406b07?restype=container",
      "RequestMethod": "DELETE",
      "RequestHeaders": {
        "Authorization": "Sanitized",
        "traceparent": "00-329ec9cde670af498e8c9903c6fef73a-9e8ff073cbb18c4a-00",
        "User-Agent": [
          "azsdk-net-Storage.Blobs/12.5.0-dev.20200402.1",
          "(.NET Core 4.6.28325.01; Microsoft Windows 10.0.18362 )"
        ],
        "x-ms-client-request-id": "4b9b4363-b6d0-db97-d7a8-1f54f6f96b5b",
        "x-ms-date": "Fri, 03 Apr 2020 00:03:33 GMT",
        "x-ms-return-client-request-id": "true",
        "x-ms-version": "2019-12-12"
      },
      "RequestBody": null,
      "StatusCode": 202,
      "ResponseHeaders": {
        "Content-Length": "0",
        "Date": "Fri, 03 Apr 2020 00:03:31 GMT",
        "Server": [
          "Windows-Azure-Blob/1.0",
          "Microsoft-HTTPAPI/2.0"
        ],
        "x-ms-client-request-id": "4b9b4363-b6d0-db97-d7a8-1f54f6f96b5b",
        "x-ms-request-id": "122fdcb1-601e-0072-7c4b-094aef000000",
        "x-ms-version": "2019-12-12"
      },
      "ResponseBody": []
    }
  ],
  "Variables": {
    "DateTimeOffsetNow": "2020-04-02T17:03:29.5290023-07:00",
    "RandomSeed": "272415200",
    "Storage_TestConfigDefault": "ProductionTenant\nseanmcccanary\nU2FuaXRpemVk\nhttps://seanmcccanary.blob.core.windows.net\nhttps://seanmcccanary.file.core.windows.net\nhttps://seanmcccanary.queue.core.windows.net\nhttps://seanmcccanary.table.core.windows.net\n\n\n\n\nhttps://seanmcccanary-secondary.blob.core.windows.net\nhttps://seanmcccanary-secondary.file.core.windows.net\nhttps://seanmcccanary-secondary.queue.core.windows.net\nhttps://seanmcccanary-secondary.table.core.windows.net\n\nSanitized\n\n\nCloud\nBlobEndpoint=https://seanmcccanary.blob.core.windows.net/;QueueEndpoint=https://seanmcccanary.queue.core.windows.net/;FileEndpoint=https://seanmcccanary.file.core.windows.net/;BlobSecondaryEndpoint=https://seanmcccanary-secondary.blob.core.windows.net/;QueueSecondaryEndpoint=https://seanmcccanary-secondary.queue.core.windows.net/;FileSecondaryEndpoint=https://seanmcccanary-secondary.file.core.windows.net/;AccountName=seanmcccanary;AccountKey=Sanitized\nseanscope1"
  }
}