{
  "Entries": [
    {
      "RequestUri": "https://huxcanadac.blob.core.windows.net/test-container-550f5c5b-e3ff-6229-dd7c-c0a268cfa8d1?restype=container",
      "RequestMethod": "PUT",
      "RequestHeaders": {
        "Authorization": "Sanitized",
        "traceparent": "00-2f8c103313af26449b8605ffb6b94bc0-4ebd2280d0ede44c-00",
        "User-Agent": [
          "azsdk-net-Storage.Blobs/12.5.0-dev.20200603.1",
          "(.NET Core 4.6.28619.01; Microsoft Windows 10.0.18362 )"
        ],
        "x-ms-blob-public-access": "container",
        "x-ms-client-request-id": "11e9c835-3168-e773-96dd-87ce70634300",
        "x-ms-date": "Wed, 03 Jun 2020 17:30:27 GMT",
        "x-ms-return-client-request-id": "true",
        "x-ms-version": "2019-12-12"
      },
      "RequestBody": null,
      "StatusCode": 201,
      "ResponseHeaders": {
        "Content-Length": "0",
        "Date": "Wed, 03 Jun 2020 17:30:26 GMT",
        "ETag": "\u00220x8D807E3CE205724\u0022",
        "Last-Modified": "Wed, 03 Jun 2020 17:30:27 GMT",
        "Server": [
          "Windows-Azure-Blob/1.0",
          "Microsoft-HTTPAPI/2.0"
        ],
        "x-ms-client-request-id": "11e9c835-3168-e773-96dd-87ce70634300",
        "x-ms-request-id": "dc4fffc3-201e-0033-39cc-396f8c000000",
        "x-ms-version": "2019-12-12"
      },
      "ResponseBody": []
    },
    {
      "RequestUri": "https://huxcanadac.blob.core.windows.net/test-container-550f5c5b-e3ff-6229-dd7c-c0a268cfa8d1/test-blob-7989d6da-c8dc-2554-6661-c5a1664e3572",
      "RequestMethod": "PUT",
      "RequestHeaders": {
        "Authorization": "Sanitized",
        "Content-Length": "1024",
        "traceparent": "00-2cf9aaba8169354a955a399186d200f5-7e529dfbb1318942-00",
        "User-Agent": [
          "azsdk-net-Storage.Blobs/12.5.0-dev.20200603.1",
          "(.NET Core 4.6.28619.01; Microsoft Windows 10.0.18362 )"
        ],
        "x-ms-blob-type": "BlockBlob",
        "x-ms-client-request-id": "f1f93fb6-3eb0-1719-78dc-a2f3c16d714f",
        "x-ms-date": "Wed, 03 Jun 2020 17:30:27 GMT",
        "x-ms-return-client-request-id": "true",
        "x-ms-version": "2019-12-12"
      },
      "RequestBody": "FIVtn\u002BaXaFTPUQlLric9LRp7AFfi7l5sc8SqB2zSgEenFbrr9aQaQ200qou/CXY\u002BI5eH6k3djyUmACsh7GHn/dDBo5htUTd2Yb3qrUTTrWpObOPUS5b6yoWVxfR4\u002BVYLTay7/WXe0dJgEImQ8\u002BLgUlPA04B\u002BErI5x9kT2ItD/mdm32CXF68FcJoQdDoNadajtHKgtybWjDr6gTaMyvhGHBIhKRSCSDuku2Plbp13LF0CbyMZokZBkFIlnZZ4eaWhyVgn60DCIWw3/PvC8B6cglXYiVrVLXrM35nBXKulK0K\u002BQ6RFUEAdQE634aVKfp80iRpAn\u002B9KzJzdWwymAMXBktG5BK15VjIVu0kMHkvUgWD5jdKQZItSc3cIZ/Q0dj\u002BJ9k/UkXryujLoK\u002BSmPq5QCdqrrXPyMC5FZpE2ce4\u002B4EUKgif8/\u002B/mB9KfpzmnrDXIt14ZiMnLl8UhjyrpvElEqUqfnLyGUwrqxaWgUon0nbpbbbmQJFh7P\u002Bti22/E/UqJW/7uCBB5QmNUL8IjKkQ8LPFwjU6Ps4XxI13QI3iaJshaF/eKBpWq4itVPPWVWBSmJq9\u002BVG/8\u002Bqd4/OWyqB7ruQj6yBJMsSVbxasjOXeQXMtIKv3JHNFYXh1PEgmw9zkMaoLsmo8BWXWJIo7E2MAw6KAaan4gIZ03omr1/Z4cq85xFs70o8E7RtCIQPlDlIZcHypoloy77EnltfglDFzWbXfAUsHxO0Tf3iOtmOGk8w7jmN10sxRBtiqFD\u002B7IFjpzstOCgkHEa\u002BPlibhoDVRnQcHqQXN\u002BYbpifpyXayxWF8fpOuYOIXDMHi36jylc2KjWHc4s3tTH9FAYIAOlLf\u002B3j3Lwf9NtWR9QHiNFhNKQBabzwE1dKTjzIkWV9QFsJvAtQ/\u002B3bFjVaMSu28CxgXB9iBpdsm2xWWU5/V2N2GQe4/cyGEDS2ZlNHViJr014QaDUF2zmD3ODe\u002BqafW/7R5BgkPfIf2kvq6\u002BBD5UVKKkXwLu8uMD3N9SDrpxWOFspUtXHKR5WsMI3pWy9ZQDeblNAgr2zPo7PaFkjRdDM2HJUV7y/Tf\u002BLwRD5hBNTOtHUpEBJFrWddRNG\u002BMDFMmrya8z6aA5DHyFTtMGsurl7ey2HT6CPg8K8tuGoeFQ\u002Bxo6lBxlHWdHDkIUf9WH08btZy3ySPePKYucKPbIsmqbMFO4yB7OgMyFbw74bcI1gyMUmTq3YrIir26QyPRwflvbeU\u002BBzwukHuZdaNnklr/JZqXTsBkv59GhlhywPbfYFPCzIPBys7QbbHpQVfXUOhiuy2JOoMpCq5F54DTu9\u002BEyhVfpMXHLVrLxuEee25HbzVwAAXJViXAmcHVi9NN/LHSZIcyd6wQ==",
      "StatusCode": 201,
      "ResponseHeaders": {
        "Content-Length": "0",
        "Content-MD5": "MPHonGhuNWNRdMlGAx4pEw==",
        "Date": "Wed, 03 Jun 2020 17:30:26 GMT",
        "ETag": "\u00220x8D807E3CE2C4CCA\u0022",
        "Last-Modified": "Wed, 03 Jun 2020 17:30:27 GMT",
        "Server": [
          "Windows-Azure-Blob/1.0",
          "Microsoft-HTTPAPI/2.0"
        ],
        "x-ms-client-request-id": "f1f93fb6-3eb0-1719-78dc-a2f3c16d714f",
        "x-ms-content-crc64": "IP6/RlPbBLA=",
        "x-ms-request-id": "dc500035-201e-0033-1bcc-396f8c000000",
        "x-ms-request-server-encrypted": "true",
        "x-ms-version": "2019-12-12",
        "x-ms-version-id": "2020-06-03T17:30:27.0905546Z"
      },
      "ResponseBody": []
    },
    {
      "RequestUri": "https://huxcanadac.blob.core.windows.net/test-container-550f5c5b-e3ff-6229-dd7c-c0a268cfa8d1/test-blob-7989d6da-c8dc-2554-6661-c5a1664e3572",
      "RequestMethod": "HEAD",
      "RequestHeaders": {
        "Authorization": "Sanitized",
        "traceparent": "00-5aec24d079198b42ab8cbde5945764f2-281f7d194a91114e-00",
        "User-Agent": [
          "azsdk-net-Storage.Blobs/12.5.0-dev.20200603.1",
          "(.NET Core 4.6.28619.01; Microsoft Windows 10.0.18362 )"
        ],
        "x-ms-client-request-id": "34928a60-892e-ea11-a0c4-b3fa972ee785",
        "x-ms-date": "Wed, 03 Jun 2020 17:30:27 GMT",
        "x-ms-if-tags": "\u0022coolTag\u0022 = \u0027true\u0027",
        "x-ms-return-client-request-id": "true",
        "x-ms-version": "2019-12-12"
      },
      "RequestBody": null,
      "StatusCode": 412,
      "ResponseHeaders": {
        "Date": "Wed, 03 Jun 2020 17:30:27 GMT",
        "Server": [
          "Windows-Azure-Blob/1.0",
          "Microsoft-HTTPAPI/2.0"
        ],
        "Transfer-Encoding": "chunked",
        "x-ms-client-request-id": "34928a60-892e-ea11-a0c4-b3fa972ee785",
        "x-ms-error-code": "ConditionNotMet",
        "x-ms-request-id": "dc50007b-201e-0033-59cc-396f8c000000",
        "x-ms-version": "2019-12-12"
      },
      "ResponseBody": []
    },
    {
      "RequestUri": "https://huxcanadac.blob.core.windows.net/test-container-550f5c5b-e3ff-6229-dd7c-c0a268cfa8d1?restype=container",
      "RequestMethod": "DELETE",
      "RequestHeaders": {
        "Authorization": "Sanitized",
        "traceparent": "00-7f26aec040322d43a8cd97a159756838-850a789f24da994f-00",
        "User-Agent": [
          "azsdk-net-Storage.Blobs/12.5.0-dev.20200603.1",
          "(.NET Core 4.6.28619.01; Microsoft Windows 10.0.18362 )"
        ],
        "x-ms-client-request-id": "369311b3-3cdb-ee20-83ed-a6bbb5908bb9",
        "x-ms-date": "Wed, 03 Jun 2020 17:30:27 GMT",
        "x-ms-return-client-request-id": "true",
        "x-ms-version": "2019-12-12"
      },
      "RequestBody": null,
      "StatusCode": 202,
      "ResponseHeaders": {
        "Content-Length": "0",
        "Date": "Wed, 03 Jun 2020 17:30:27 GMT",
        "Server": [
          "Windows-Azure-Blob/1.0",
          "Microsoft-HTTPAPI/2.0"
        ],
        "x-ms-client-request-id": "369311b3-3cdb-ee20-83ed-a6bbb5908bb9",
        "x-ms-request-id": "dc5000bc-201e-0033-0fcc-396f8c000000",
        "x-ms-version": "2019-12-12"
      },
      "ResponseBody": []
    }
  ],
  "Variables": {
    "RandomSeed": "1326668315",
    "Storage_TestConfigDefault": "ProductionTenant\nhuxcanadac\nU2FuaXRpemVk\nhttps://huxcanadac.blob.core.windows.net\nhttps://huxcanadac.file.core.windows.net\nhttps://huxcanadac.queue.core.windows.net\nhttps://huxcanadac.table.core.windows.net\n\n\n\n\nhttps://huxcanadac-secondary.blob.core.windows.net\nhttps://huxcanadac-secondary.file.core.windows.net\nhttps://huxcanadac-secondary.queue.core.windows.net\nhttps://huxcanadac-secondary.table.core.windows.net\n\nSanitized\n\n\nCloud\nBlobEndpoint=https://huxcanadac.blob.core.windows.net/;QueueEndpoint=https://huxcanadac.queue.core.windows.net/;FileEndpoint=https://huxcanadac.file.core.windows.net/;BlobSecondaryEndpoint=https://huxcanadac-secondary.blob.core.windows.net/;QueueSecondaryEndpoint=https://huxcanadac-secondary.queue.core.windows.net/;FileSecondaryEndpoint=https://huxcanadac-secondary.file.core.windows.net/;AccountName=huxcanadac;AccountKey=Sanitized\nseanscope1"
  }
}