{
  "Entries": [
    {
      "RequestUri": "https://allkimprim.table.cosmos.azure.com/Tables?$format=application%2Fjson%3Bodata%3Dfullmetadata",
      "RequestMethod": "POST",
      "RequestHeaders": {
        "Accept": "application/json",
        "Authorization": "Sanitized",
        "Content-Length": "33",
        "Content-Type": "application/json; odata=nometadata",
        "DataServiceVersion": "3.0",
        "traceparent": "00-be7e7e923358df41963ece54892f10f5-4f70ee37423cdf4f-00",
        "User-Agent": [
          "azsdk-net-Data.Tables/1.0.0-dev.20200724.1",
          "(.NET Core 4.6.29017.01; Microsoft Windows 10.0.19041 )"
        ],
        "x-ms-client-request-id": "6ba7b8777e6c87a44b6d807521202ec0",
        "x-ms-date": "Mon, 27 Jul 2020 17:23:16 GMT",
        "x-ms-return-client-request-id": "true",
        "x-ms-version": "2019-02-02"
      },
      "RequestBody": {
        "TableName": "testtablehylzfh6f"
      },
      "StatusCode": 201,
      "ResponseHeaders": {
        "Content-Type": "application/json",
        "Date": "Mon, 27 Jul 2020 17:23:16 GMT",
        "ETag": "W/\u0022datetime\u00272020-07-27T17%3A23%3A16.7885320Z\u0027\u0022",
        "Location": "https://allkimprim.table.cosmos.azure.com/Tables(\u0027testtablehylzfh6f\u0027)",
        "Server": "Microsoft-HTTPAPI/2.0",
        "Transfer-Encoding": "chunked",
        "x-ms-request-id": "6ba7b877-7e6c-87a4-4b6d-807521202ec0"
      },
      "ResponseBody": {
        "TableName": "testtablehylzfh6f",
        "odata.metadata": "https://allkimprim.table.cosmos.azure.com/$metadata#Tables/@Element"
      }
    },
    {
      "RequestUri": "https://allkimprim.table.cosmos.azure.com/testtablehylzfh6f?$format=application%2Fjson%3Bodata%3Dfullmetadata",
      "RequestMethod": "POST",
      "RequestHeaders": {
        "Accept": "application/json",
        "Authorization": "Sanitized",
        "Content-Length": "614",
        "Content-Type": "application/json; odata=nometadata",
        "DataServiceVersion": "3.0",
        "traceparent": "00-bbae3a8bc2ea364aa6eae1b72e6d7f31-9077fc96d6bc054a-00",
        "User-Agent": [
          "azsdk-net-Data.Tables/1.0.0-dev.20200724.1",
          "(.NET Core 4.6.29017.01; Microsoft Windows 10.0.19041 )"
        ],
        "x-ms-client-request-id": "02765996389a2dea0f311453012f8c28",
        "x-ms-date": "Mon, 27 Jul 2020 17:23:17 GMT",
        "x-ms-return-client-request-id": "true",
        "x-ms-version": "2019-02-02"
      },
      "RequestBody": {
        "PartitionKey": "somPartition",
        "RowKey": "01",
        "SomeStringProperty": "This is table entity number 01",
        "SomeDateProperty": "2020-01-01T01:02:00.0000000Z",
        "SomeDateProperty@odata.type": "Edm.DateTime",
        "SomeGuidProperty": "0d391d16-97f1-4b9a-be68-4cc871f90001",
        "SomeGuidProperty@odata.type": "Edm.Guid",
        "SomeBinaryProperty": "AQIDBAU=",
        "SomeBinaryProperty@odata.type": "Edm.Binary",
        "SomeInt64Property": "1",
        "SomeInt64Property@odata.type": "Edm.Int64",
        "SomeDoubleProperty0": 1,
        "SomeDoubleProperty0@odata.type": "Edm.Double",
        "SomeDoubleProperty1": 1.1000000000000001,
        "SomeDoubleProperty1@odata.type": "Edm.Double",
        "SomeIntProperty": 1
      },
      "StatusCode": 201,
      "ResponseHeaders": {
        "Content-Type": "application/json",
        "Date": "Mon, 27 Jul 2020 17:23:16 GMT",
        "ETag": "W/\u0022datetime\u00272020-07-27T17%3A23%3A17.3911560Z\u0027\u0022",
        "Location": "https://allkimprim.table.cosmos.azure.com/testtablehylzfh6f(PartitionKey=\u0027somPartition\u0027,RowKey=\u002701\u0027)",
        "Server": "Microsoft-HTTPAPI/2.0",
        "Transfer-Encoding": "chunked",
        "x-ms-request-id": "02765996-389a-2dea-0f31-1453012f8c28"
      },
      "ResponseBody": {
        "odata.metadata": "https://allkimprim.table.cosmos.azure.com/testtablehylzfh6f/$metadata#testtablehylzfh6f/@Element",
        "odata.etag": "W/\u0022datetime\u00272020-07-27T17%3A23%3A17.3911560Z\u0027\u0022",
        "PartitionKey": "somPartition",
        "RowKey": "01",
        "SomeStringProperty": "This is table entity number 01",
        "SomeDateProperty@odata.type": "Edm.DateTime",
        "SomeDateProperty": "2020-01-01T01:02:00.0000000Z",
        "SomeGuidProperty@odata.type": "Edm.Guid",
        "SomeGuidProperty": "0d391d16-97f1-4b9a-be68-4cc871f90001",
        "SomeBinaryProperty@odata.type": "Edm.Binary",
        "SomeBinaryProperty": "AQIDBAU=",
        "SomeInt64Property@odata.type": "Edm.Int64",
        "SomeInt64Property": "1",
        "SomeDoubleProperty0": 1,
        "SomeDoubleProperty1": 1.1,
        "SomeIntProperty": 1,
        "Timestamp@odata.type": "Edm.DateTime",
        "Timestamp": "2020-07-27T17:23:17.3911560Z"
      }
    },
    {
      "RequestUri": "https://allkimprim.table.cosmos.azure.com/testtablehylzfh6f?$format=application%2Fjson%3Bodata%3Dfullmetadata",
      "RequestMethod": "POST",
      "RequestHeaders": {
        "Accept": "application/json",
        "Authorization": "Sanitized",
        "Content-Length": "614",
        "Content-Type": "application/json; odata=nometadata",
        "DataServiceVersion": "3.0",
        "traceparent": "00-f219b59329466c49b4e77da1e176df54-b30770c196119541-00",
        "User-Agent": [
          "azsdk-net-Data.Tables/1.0.0-dev.20200724.1",
          "(.NET Core 4.6.29017.01; Microsoft Windows 10.0.19041 )"
        ],
        "x-ms-client-request-id": "c65038aa6dea53f8dc2b61936fbf16b9",
        "x-ms-date": "Mon, 27 Jul 2020 17:23:17 GMT",
        "x-ms-return-client-request-id": "true",
        "x-ms-version": "2019-02-02"
      },
      "RequestBody": {
        "PartitionKey": "somPartition",
        "RowKey": "02",
        "SomeStringProperty": "This is table entity number 02",
        "SomeDateProperty": "2020-01-01T01:03:00.0000000Z",
        "SomeDateProperty@odata.type": "Edm.DateTime",
        "SomeGuidProperty": "0d391d16-97f1-4b9a-be68-4cc871f90002",
        "SomeGuidProperty@odata.type": "Edm.Guid",
        "SomeBinaryProperty": "AQIDBAU=",
        "SomeBinaryProperty@odata.type": "Edm.Binary",
        "SomeInt64Property": "2",
        "SomeInt64Property@odata.type": "Edm.Int64",
        "SomeDoubleProperty0": 2,
        "SomeDoubleProperty0@odata.type": "Edm.Double",
        "SomeDoubleProperty1": 2.1000000000000001,
        "SomeDoubleProperty1@odata.type": "Edm.Double",
        "SomeIntProperty": 2
      },
      "StatusCode": 201,
      "ResponseHeaders": {
        "Content-Type": "application/json",
        "Date": "Mon, 27 Jul 2020 17:23:17 GMT",
        "ETag": "W/\u0022datetime\u00272020-07-27T17%3A23%3A17.4480904Z\u0027\u0022",
        "Location": "https://allkimprim.table.cosmos.azure.com/testtablehylzfh6f(PartitionKey=\u0027somPartition\u0027,RowKey=\u002702\u0027)",
        "Server": "Microsoft-HTTPAPI/2.0",
        "Transfer-Encoding": "chunked",
        "x-ms-request-id": "c65038aa-6dea-53f8-dc2b-61936fbf16b9"
      },
      "ResponseBody": {
        "odata.metadata": "https://allkimprim.table.cosmos.azure.com/testtablehylzfh6f/$metadata#testtablehylzfh6f/@Element",
        "odata.etag": "W/\u0022datetime\u00272020-07-27T17%3A23%3A17.4480904Z\u0027\u0022",
        "PartitionKey": "somPartition",
        "RowKey": "02",
        "SomeStringProperty": "This is table entity number 02",
        "SomeDateProperty@odata.type": "Edm.DateTime",
        "SomeDateProperty": "2020-01-01T01:03:00.0000000Z",
        "SomeGuidProperty@odata.type": "Edm.Guid",
        "SomeGuidProperty": "0d391d16-97f1-4b9a-be68-4cc871f90002",
        "SomeBinaryProperty@odata.type": "Edm.Binary",
        "SomeBinaryProperty": "AQIDBAU=",
        "SomeInt64Property@odata.type": "Edm.Int64",
        "SomeInt64Property": "2",
        "SomeDoubleProperty0": 2,
        "SomeDoubleProperty1": 2.1,
        "SomeIntProperty": 2,
        "Timestamp@odata.type": "Edm.DateTime",
        "Timestamp": "2020-07-27T17:23:17.4480904Z"
      }
    },
    {
      "RequestUri": "https://allkimprim.table.cosmos.azure.com/testtablehylzfh6f?$format=application%2Fjson%3Bodata%3Dfullmetadata",
      "RequestMethod": "POST",
      "RequestHeaders": {
        "Accept": "application/json",
        "Authorization": "Sanitized",
        "Content-Length": "614",
        "Content-Type": "application/json; odata=nometadata",
        "DataServiceVersion": "3.0",
        "traceparent": "00-32ea1e788c0d5147af52c8317f54ccc1-abf41b01746b9e47-00",
        "User-Agent": [
          "azsdk-net-Data.Tables/1.0.0-dev.20200724.1",
          "(.NET Core 4.6.29017.01; Microsoft Windows 10.0.19041 )"
        ],
        "x-ms-client-request-id": "90dd7391e4ce3f00cd795c3a6951851c",
        "x-ms-date": "Mon, 27 Jul 2020 17:23:17 GMT",
        "x-ms-return-client-request-id": "true",
        "x-ms-version": "2019-02-02"
      },
      "RequestBody": {
        "PartitionKey": "somPartition",
        "RowKey": "03",
        "SomeStringProperty": "This is table entity number 03",
        "SomeDateProperty": "2020-01-01T01:04:00.0000000Z",
        "SomeDateProperty@odata.type": "Edm.DateTime",
        "SomeGuidProperty": "0d391d16-97f1-4b9a-be68-4cc871f90003",
        "SomeGuidProperty@odata.type": "Edm.Guid",
        "SomeBinaryProperty": "AQIDBAU=",
        "SomeBinaryProperty@odata.type": "Edm.Binary",
        "SomeInt64Property": "3",
        "SomeInt64Property@odata.type": "Edm.Int64",
        "SomeDoubleProperty0": 3,
        "SomeDoubleProperty0@odata.type": "Edm.Double",
        "SomeDoubleProperty1": 3.1000000000000001,
        "SomeDoubleProperty1@odata.type": "Edm.Double",
        "SomeIntProperty": 3
      },
      "StatusCode": 201,
      "ResponseHeaders": {
        "Content-Type": "application/json",
        "Date": "Mon, 27 Jul 2020 17:23:17 GMT",
        "ETag": "W/\u0022datetime\u00272020-07-27T17%3A23%3A17.5134216Z\u0027\u0022",
        "Location": "https://allkimprim.table.cosmos.azure.com/testtablehylzfh6f(PartitionKey=\u0027somPartition\u0027,RowKey=\u002703\u0027)",
        "Server": "Microsoft-HTTPAPI/2.0",
        "Transfer-Encoding": "chunked",
        "x-ms-request-id": "90dd7391-e4ce-3f00-cd79-5c3a6951851c"
      },
      "ResponseBody": {
        "odata.metadata": "https://allkimprim.table.cosmos.azure.com/testtablehylzfh6f/$metadata#testtablehylzfh6f/@Element",
        "odata.etag": "W/\u0022datetime\u00272020-07-27T17%3A23%3A17.5134216Z\u0027\u0022",
        "PartitionKey": "somPartition",
        "RowKey": "03",
        "SomeStringProperty": "This is table entity number 03",
        "SomeDateProperty@odata.type": "Edm.DateTime",
        "SomeDateProperty": "2020-01-01T01:04:00.0000000Z",
        "SomeGuidProperty@odata.type": "Edm.Guid",
        "SomeGuidProperty": "0d391d16-97f1-4b9a-be68-4cc871f90003",
        "SomeBinaryProperty@odata.type": "Edm.Binary",
        "SomeBinaryProperty": "AQIDBAU=",
        "SomeInt64Property@odata.type": "Edm.Int64",
        "SomeInt64Property": "3",
        "SomeDoubleProperty0": 3,
        "SomeDoubleProperty1": 3.1,
        "SomeIntProperty": 3,
        "Timestamp@odata.type": "Edm.DateTime",
        "Timestamp": "2020-07-27T17:23:17.5134216Z"
      }
    },
    {
      "RequestUri": "https://allkimprim.table.cosmos.azure.com/testtablehylzfh6f?$format=application%2Fjson%3Bodata%3Dfullmetadata",
      "RequestMethod": "POST",
      "RequestHeaders": {
        "Accept": "application/json",
        "Authorization": "Sanitized",
        "Content-Length": "614",
        "Content-Type": "application/json; odata=nometadata",
        "DataServiceVersion": "3.0",
        "traceparent": "00-6565fca803ee294cbd3f21d7ddbc4684-9bbe8a6ede8e4c42-00",
        "User-Agent": [
          "azsdk-net-Data.Tables/1.0.0-dev.20200724.1",
          "(.NET Core 4.6.29017.01; Microsoft Windows 10.0.19041 )"
        ],
        "x-ms-client-request-id": "e8ca58e168cf28d66022266ed657bd4f",
        "x-ms-date": "Mon, 27 Jul 2020 17:23:17 GMT",
        "x-ms-return-client-request-id": "true",
        "x-ms-version": "2019-02-02"
      },
      "RequestBody": {
        "PartitionKey": "somPartition",
        "RowKey": "04",
        "SomeStringProperty": "This is table entity number 04",
        "SomeDateProperty": "2020-01-01T01:05:00.0000000Z",
        "SomeDateProperty@odata.type": "Edm.DateTime",
        "SomeGuidProperty": "0d391d16-97f1-4b9a-be68-4cc871f90004",
        "SomeGuidProperty@odata.type": "Edm.Guid",
        "SomeBinaryProperty": "AQIDBAU=",
        "SomeBinaryProperty@odata.type": "Edm.Binary",
        "SomeInt64Property": "4",
        "SomeInt64Property@odata.type": "Edm.Int64",
        "SomeDoubleProperty0": 4,
        "SomeDoubleProperty0@odata.type": "Edm.Double",
        "SomeDoubleProperty1": 4.0999999999999996,
        "SomeDoubleProperty1@odata.type": "Edm.Double",
        "SomeIntProperty": 4
      },
      "StatusCode": 201,
      "ResponseHeaders": {
        "Content-Type": "application/json",
        "Date": "Mon, 27 Jul 2020 17:23:17 GMT",
        "ETag": "W/\u0022datetime\u00272020-07-27T17%3A23%3A17.5701512Z\u0027\u0022",
        "Location": "https://allkimprim.table.cosmos.azure.com/testtablehylzfh6f(PartitionKey=\u0027somPartition\u0027,RowKey=\u002704\u0027)",
        "Server": "Microsoft-HTTPAPI/2.0",
        "Transfer-Encoding": "chunked",
        "x-ms-request-id": "e8ca58e1-68cf-28d6-6022-266ed657bd4f"
      },
      "ResponseBody": {
        "odata.metadata": "https://allkimprim.table.cosmos.azure.com/testtablehylzfh6f/$metadata#testtablehylzfh6f/@Element",
        "odata.etag": "W/\u0022datetime\u00272020-07-27T17%3A23%3A17.5701512Z\u0027\u0022",
        "PartitionKey": "somPartition",
        "RowKey": "04",
        "SomeStringProperty": "This is table entity number 04",
        "SomeDateProperty@odata.type": "Edm.DateTime",
        "SomeDateProperty": "2020-01-01T01:05:00.0000000Z",
        "SomeGuidProperty@odata.type": "Edm.Guid",
        "SomeGuidProperty": "0d391d16-97f1-4b9a-be68-4cc871f90004",
        "SomeBinaryProperty@odata.type": "Edm.Binary",
        "SomeBinaryProperty": "AQIDBAU=",
        "SomeInt64Property@odata.type": "Edm.Int64",
        "SomeInt64Property": "4",
        "SomeDoubleProperty0": 4,
        "SomeDoubleProperty1": 4.1,
        "SomeIntProperty": 4,
        "Timestamp@odata.type": "Edm.DateTime",
        "Timestamp": "2020-07-27T17:23:17.5701512Z"
      }
    },
    {
      "RequestUri": "https://allkimprim.table.cosmos.azure.com/testtablehylzfh6f?$format=application%2Fjson%3Bodata%3Dfullmetadata",
      "RequestMethod": "POST",
      "RequestHeaders": {
        "Accept": "application/json",
        "Authorization": "Sanitized",
        "Content-Length": "614",
        "Content-Type": "application/json; odata=nometadata",
        "DataServiceVersion": "3.0",
        "traceparent": "00-8ca6340546bd724781ea2b6f8145f068-982552b9ec861c46-00",
        "User-Agent": [
          "azsdk-net-Data.Tables/1.0.0-dev.20200724.1",
          "(.NET Core 4.6.29017.01; Microsoft Windows 10.0.19041 )"
        ],
        "x-ms-client-request-id": "8ec25b1afc52c65a3810f87011bdea8a",
        "x-ms-date": "Mon, 27 Jul 2020 17:23:17 GMT",
        "x-ms-return-client-request-id": "true",
        "x-ms-version": "2019-02-02"
      },
      "RequestBody": {
        "PartitionKey": "somPartition",
        "RowKey": "05",
        "SomeStringProperty": "This is table entity number 05",
        "SomeDateProperty": "2020-01-01T01:06:00.0000000Z",
        "SomeDateProperty@odata.type": "Edm.DateTime",
        "SomeGuidProperty": "0d391d16-97f1-4b9a-be68-4cc871f90005",
        "SomeGuidProperty@odata.type": "Edm.Guid",
        "SomeBinaryProperty": "AQIDBAU=",
        "SomeBinaryProperty@odata.type": "Edm.Binary",
        "SomeInt64Property": "5",
        "SomeInt64Property@odata.type": "Edm.Int64",
        "SomeDoubleProperty0": 5,
        "SomeDoubleProperty0@odata.type": "Edm.Double",
        "SomeDoubleProperty1": 5.0999999999999996,
        "SomeDoubleProperty1@odata.type": "Edm.Double",
        "SomeIntProperty": 5
      },
      "StatusCode": 201,
      "ResponseHeaders": {
        "Content-Type": "application/json",
        "Date": "Mon, 27 Jul 2020 17:23:17 GMT",
        "ETag": "W/\u0022datetime\u00272020-07-27T17%3A23%3A17.6228872Z\u0027\u0022",
        "Location": "https://allkimprim.table.cosmos.azure.com/testtablehylzfh6f(PartitionKey=\u0027somPartition\u0027,RowKey=\u002705\u0027)",
        "Server": "Microsoft-HTTPAPI/2.0",
        "Transfer-Encoding": "chunked",
        "x-ms-request-id": "8ec25b1a-fc52-c65a-3810-f87011bdea8a"
      },
      "ResponseBody": {
        "odata.metadata": "https://allkimprim.table.cosmos.azure.com/testtablehylzfh6f/$metadata#testtablehylzfh6f/@Element",
        "odata.etag": "W/\u0022datetime\u00272020-07-27T17%3A23%3A17.6228872Z\u0027\u0022",
        "PartitionKey": "somPartition",
        "RowKey": "05",
        "SomeStringProperty": "This is table entity number 05",
        "SomeDateProperty@odata.type": "Edm.DateTime",
        "SomeDateProperty": "2020-01-01T01:06:00.0000000Z",
        "SomeGuidProperty@odata.type": "Edm.Guid",
        "SomeGuidProperty": "0d391d16-97f1-4b9a-be68-4cc871f90005",
        "SomeBinaryProperty@odata.type": "Edm.Binary",
        "SomeBinaryProperty": "AQIDBAU=",
        "SomeInt64Property@odata.type": "Edm.Int64",
        "SomeInt64Property": "5",
        "SomeDoubleProperty0": 5,
        "SomeDoubleProperty1": 5.1,
        "SomeIntProperty": 5,
        "Timestamp@odata.type": "Edm.DateTime",
        "Timestamp": "2020-07-27T17:23:17.6228872Z"
      }
    },
    {
      "RequestUri": "https://allkimprim.table.cosmos.azure.com/testtablehylzfh6f?$format=application%2Fjson%3Bodata%3Dfullmetadata",
      "RequestMethod": "POST",
      "RequestHeaders": {
        "Accept": "application/json",
        "Authorization": "Sanitized",
        "Content-Length": "614",
        "Content-Type": "application/json; odata=nometadata",
        "DataServiceVersion": "3.0",
        "traceparent": "00-9198107644375c47bb086146d756b460-0f73ed348ab7364f-00",
        "User-Agent": [
          "azsdk-net-Data.Tables/1.0.0-dev.20200724.1",
          "(.NET Core 4.6.29017.01; Microsoft Windows 10.0.19041 )"
        ],
        "x-ms-client-request-id": "17b145a52ef529e99cb430abbd916876",
        "x-ms-date": "Mon, 27 Jul 2020 17:23:17 GMT",
        "x-ms-return-client-request-id": "true",
        "x-ms-version": "2019-02-02"
      },
      "RequestBody": {
        "PartitionKey": "somPartition",
        "RowKey": "06",
        "SomeStringProperty": "This is table entity number 06",
        "SomeDateProperty": "2020-01-01T01:07:00.0000000Z",
        "SomeDateProperty@odata.type": "Edm.DateTime",
        "SomeGuidProperty": "0d391d16-97f1-4b9a-be68-4cc871f90006",
        "SomeGuidProperty@odata.type": "Edm.Guid",
        "SomeBinaryProperty": "AQIDBAU=",
        "SomeBinaryProperty@odata.type": "Edm.Binary",
        "SomeInt64Property": "6",
        "SomeInt64Property@odata.type": "Edm.Int64",
        "SomeDoubleProperty0": 6,
        "SomeDoubleProperty0@odata.type": "Edm.Double",
        "SomeDoubleProperty1": 6.0999999999999996,
        "SomeDoubleProperty1@odata.type": "Edm.Double",
        "SomeIntProperty": 6
      },
      "StatusCode": 201,
      "ResponseHeaders": {
        "Content-Type": "application/json",
        "Date": "Mon, 27 Jul 2020 17:23:17 GMT",
        "ETag": "W/\u0022datetime\u00272020-07-27T17%3A23%3A17.6774664Z\u0027\u0022",
        "Location": "https://allkimprim.table.cosmos.azure.com/testtablehylzfh6f(PartitionKey=\u0027somPartition\u0027,RowKey=\u002706\u0027)",
        "Server": "Microsoft-HTTPAPI/2.0",
        "Transfer-Encoding": "chunked",
        "x-ms-request-id": "17b145a5-2ef5-29e9-9cb4-30abbd916876"
      },
      "ResponseBody": {
        "odata.metadata": "https://allkimprim.table.cosmos.azure.com/testtablehylzfh6f/$metadata#testtablehylzfh6f/@Element",
        "odata.etag": "W/\u0022datetime\u00272020-07-27T17%3A23%3A17.6774664Z\u0027\u0022",
        "PartitionKey": "somPartition",
        "RowKey": "06",
        "SomeStringProperty": "This is table entity number 06",
        "SomeDateProperty@odata.type": "Edm.DateTime",
        "SomeDateProperty": "2020-01-01T01:07:00.0000000Z",
        "SomeGuidProperty@odata.type": "Edm.Guid",
        "SomeGuidProperty": "0d391d16-97f1-4b9a-be68-4cc871f90006",
        "SomeBinaryProperty@odata.type": "Edm.Binary",
        "SomeBinaryProperty": "AQIDBAU=",
        "SomeInt64Property@odata.type": "Edm.Int64",
        "SomeInt64Property": "6",
        "SomeDoubleProperty0": 6,
        "SomeDoubleProperty1": 6.1,
        "SomeIntProperty": 6,
        "Timestamp@odata.type": "Edm.DateTime",
        "Timestamp": "2020-07-27T17:23:17.6774664Z"
      }
    },
    {
      "RequestUri": "https://allkimprim.table.cosmos.azure.com/testtablehylzfh6f?$format=application%2Fjson%3Bodata%3Dfullmetadata",
      "RequestMethod": "POST",
      "RequestHeaders": {
        "Accept": "application/json",
        "Authorization": "Sanitized",
        "Content-Length": "614",
        "Content-Type": "application/json; odata=nometadata",
        "DataServiceVersion": "3.0",
        "traceparent": "00-ebaafabfcb7437478f45fe865eaf059e-b7b5de7ec05a644e-00",
        "User-Agent": [
          "azsdk-net-Data.Tables/1.0.0-dev.20200724.1",
          "(.NET Core 4.6.29017.01; Microsoft Windows 10.0.19041 )"
        ],
        "x-ms-client-request-id": "0d200cbcf68fe5cafe03b0be6f6617a2",
        "x-ms-date": "Mon, 27 Jul 2020 17:23:17 GMT",
        "x-ms-return-client-request-id": "true",
        "x-ms-version": "2019-02-02"
      },
      "RequestBody": {
        "PartitionKey": "somPartition",
        "RowKey": "07",
        "SomeStringProperty": "This is table entity number 07",
        "SomeDateProperty": "2020-01-01T01:08:00.0000000Z",
        "SomeDateProperty@odata.type": "Edm.DateTime",
        "SomeGuidProperty": "0d391d16-97f1-4b9a-be68-4cc871f90007",
        "SomeGuidProperty@odata.type": "Edm.Guid",
        "SomeBinaryProperty": "AQIDBAU=",
        "SomeBinaryProperty@odata.type": "Edm.Binary",
        "SomeInt64Property": "7",
        "SomeInt64Property@odata.type": "Edm.Int64",
        "SomeDoubleProperty0": 7,
        "SomeDoubleProperty0@odata.type": "Edm.Double",
        "SomeDoubleProperty1": 7.0999999999999996,
        "SomeDoubleProperty1@odata.type": "Edm.Double",
        "SomeIntProperty": 7
      },
      "StatusCode": 201,
      "ResponseHeaders": {
        "Content-Type": "application/json",
        "Date": "Mon, 27 Jul 2020 17:23:17 GMT",
        "ETag": "W/\u0022datetime\u00272020-07-27T17%3A23%3A17.7293832Z\u0027\u0022",
        "Location": "https://allkimprim.table.cosmos.azure.com/testtablehylzfh6f(PartitionKey=\u0027somPartition\u0027,RowKey=\u002707\u0027)",
        "Server": "Microsoft-HTTPAPI/2.0",
        "Transfer-Encoding": "chunked",
        "x-ms-request-id": "0d200cbc-f68f-e5ca-fe03-b0be6f6617a2"
      },
      "ResponseBody": {
        "odata.metadata": "https://allkimprim.table.cosmos.azure.com/testtablehylzfh6f/$metadata#testtablehylzfh6f/@Element",
        "odata.etag": "W/\u0022datetime\u00272020-07-27T17%3A23%3A17.7293832Z\u0027\u0022",
        "PartitionKey": "somPartition",
        "RowKey": "07",
        "SomeStringProperty": "This is table entity number 07",
        "SomeDateProperty@odata.type": "Edm.DateTime",
        "SomeDateProperty": "2020-01-01T01:08:00.0000000Z",
        "SomeGuidProperty@odata.type": "Edm.Guid",
        "SomeGuidProperty": "0d391d16-97f1-4b9a-be68-4cc871f90007",
        "SomeBinaryProperty@odata.type": "Edm.Binary",
        "SomeBinaryProperty": "AQIDBAU=",
        "SomeInt64Property@odata.type": "Edm.Int64",
        "SomeInt64Property": "7",
        "SomeDoubleProperty0": 7,
        "SomeDoubleProperty1": 7.1,
        "SomeIntProperty": 7,
        "Timestamp@odata.type": "Edm.DateTime",
        "Timestamp": "2020-07-27T17:23:17.7293832Z"
      }
    },
    {
      "RequestUri": "https://allkimprim.table.cosmos.azure.com/testtablehylzfh6f?$format=application%2Fjson%3Bodata%3Dfullmetadata",
      "RequestMethod": "POST",
      "RequestHeaders": {
        "Accept": "application/json",
        "Authorization": "Sanitized",
        "Content-Length": "614",
        "Content-Type": "application/json; odata=nometadata",
        "DataServiceVersion": "3.0",
        "traceparent": "00-0fcce6cf79a9a5468e1266466a4337e4-c81a498ce3b0e648-00",
        "User-Agent": [
          "azsdk-net-Data.Tables/1.0.0-dev.20200724.1",
          "(.NET Core 4.6.29017.01; Microsoft Windows 10.0.19041 )"
        ],
        "x-ms-client-request-id": "91c99b38a6a5ec5a7299f29dccae08a7",
        "x-ms-date": "Mon, 27 Jul 2020 17:23:17 GMT",
        "x-ms-return-client-request-id": "true",
        "x-ms-version": "2019-02-02"
      },
      "RequestBody": {
        "PartitionKey": "somPartition",
        "RowKey": "08",
        "SomeStringProperty": "This is table entity number 08",
        "SomeDateProperty": "2020-01-01T01:09:00.0000000Z",
        "SomeDateProperty@odata.type": "Edm.DateTime",
        "SomeGuidProperty": "0d391d16-97f1-4b9a-be68-4cc871f90008",
        "SomeGuidProperty@odata.type": "Edm.Guid",
        "SomeBinaryProperty": "AQIDBAU=",
        "SomeBinaryProperty@odata.type": "Edm.Binary",
        "SomeInt64Property": "8",
        "SomeInt64Property@odata.type": "Edm.Int64",
        "SomeDoubleProperty0": 8,
        "SomeDoubleProperty0@odata.type": "Edm.Double",
        "SomeDoubleProperty1": 8.0999999999999996,
        "SomeDoubleProperty1@odata.type": "Edm.Double",
        "SomeIntProperty": 8
      },
      "StatusCode": 201,
      "ResponseHeaders": {
        "Content-Type": "application/json",
        "Date": "Mon, 27 Jul 2020 17:23:17 GMT",
        "ETag": "W/\u0022datetime\u00272020-07-27T17%3A23%3A17.7885704Z\u0027\u0022",
        "Location": "https://allkimprim.table.cosmos.azure.com/testtablehylzfh6f(PartitionKey=\u0027somPartition\u0027,RowKey=\u002708\u0027)",
        "Server": "Microsoft-HTTPAPI/2.0",
        "Transfer-Encoding": "chunked",
        "x-ms-request-id": "91c99b38-a6a5-ec5a-7299-f29dccae08a7"
      },
      "ResponseBody": {
        "odata.metadata": "https://allkimprim.table.cosmos.azure.com/testtablehylzfh6f/$metadata#testtablehylzfh6f/@Element",
        "odata.etag": "W/\u0022datetime\u00272020-07-27T17%3A23%3A17.7885704Z\u0027\u0022",
        "PartitionKey": "somPartition",
        "RowKey": "08",
        "SomeStringProperty": "This is table entity number 08",
        "SomeDateProperty@odata.type": "Edm.DateTime",
        "SomeDateProperty": "2020-01-01T01:09:00.0000000Z",
        "SomeGuidProperty@odata.type": "Edm.Guid",
        "SomeGuidProperty": "0d391d16-97f1-4b9a-be68-4cc871f90008",
        "SomeBinaryProperty@odata.type": "Edm.Binary",
        "SomeBinaryProperty": "AQIDBAU=",
        "SomeInt64Property@odata.type": "Edm.Int64",
        "SomeInt64Property": "8",
        "SomeDoubleProperty0": 8,
        "SomeDoubleProperty1": 8.1,
        "SomeIntProperty": 8,
        "Timestamp@odata.type": "Edm.DateTime",
        "Timestamp": "2020-07-27T17:23:17.7885704Z"
      }
    },
    {
      "RequestUri": "https://allkimprim.table.cosmos.azure.com/testtablehylzfh6f?$format=application%2Fjson%3Bodata%3Dfullmetadata",
      "RequestMethod": "POST",
      "RequestHeaders": {
        "Accept": "application/json",
        "Authorization": "Sanitized",
        "Content-Length": "614",
        "Content-Type": "application/json; odata=nometadata",
        "DataServiceVersion": "3.0",
        "traceparent": "00-5278dd176c6ece458505c83b3aeeda2f-cf2843377654704f-00",
        "User-Agent": [
          "azsdk-net-Data.Tables/1.0.0-dev.20200724.1",
          "(.NET Core 4.6.29017.01; Microsoft Windows 10.0.19041 )"
        ],
        "x-ms-client-request-id": "04b482a8dc9daefb7bcc18f17e2ab936",
        "x-ms-date": "Mon, 27 Jul 2020 17:23:17 GMT",
        "x-ms-return-client-request-id": "true",
        "x-ms-version": "2019-02-02"
      },
      "RequestBody": {
        "PartitionKey": "somPartition",
        "RowKey": "09",
        "SomeStringProperty": "This is table entity number 09",
        "SomeDateProperty": "2020-01-01T01:10:00.0000000Z",
        "SomeDateProperty@odata.type": "Edm.DateTime",
        "SomeGuidProperty": "0d391d16-97f1-4b9a-be68-4cc871f90009",
        "SomeGuidProperty@odata.type": "Edm.Guid",
        "SomeBinaryProperty": "AQIDBAU=",
        "SomeBinaryProperty@odata.type": "Edm.Binary",
        "SomeInt64Property": "9",
        "SomeInt64Property@odata.type": "Edm.Int64",
        "SomeDoubleProperty0": 9,
        "SomeDoubleProperty0@odata.type": "Edm.Double",
        "SomeDoubleProperty1": 9.0999999999999996,
        "SomeDoubleProperty1@odata.type": "Edm.Double",
        "SomeIntProperty": 9
      },
      "StatusCode": 201,
      "ResponseHeaders": {
        "Content-Type": "application/json",
        "Date": "Mon, 27 Jul 2020 17:23:17 GMT",
        "ETag": "W/\u0022datetime\u00272020-07-27T17%3A23%3A17.8440712Z\u0027\u0022",
        "Location": "https://allkimprim.table.cosmos.azure.com/testtablehylzfh6f(PartitionKey=\u0027somPartition\u0027,RowKey=\u002709\u0027)",
        "Server": "Microsoft-HTTPAPI/2.0",
        "Transfer-Encoding": "chunked",
        "x-ms-request-id": "04b482a8-dc9d-aefb-7bcc-18f17e2ab936"
      },
      "ResponseBody": {
        "odata.metadata": "https://allkimprim.table.cosmos.azure.com/testtablehylzfh6f/$metadata#testtablehylzfh6f/@Element",
        "odata.etag": "W/\u0022datetime\u00272020-07-27T17%3A23%3A17.8440712Z\u0027\u0022",
        "PartitionKey": "somPartition",
        "RowKey": "09",
        "SomeStringProperty": "This is table entity number 09",
        "SomeDateProperty@odata.type": "Edm.DateTime",
        "SomeDateProperty": "2020-01-01T01:10:00.0000000Z",
        "SomeGuidProperty@odata.type": "Edm.Guid",
        "SomeGuidProperty": "0d391d16-97f1-4b9a-be68-4cc871f90009",
        "SomeBinaryProperty@odata.type": "Edm.Binary",
        "SomeBinaryProperty": "AQIDBAU=",
        "SomeInt64Property@odata.type": "Edm.Int64",
        "SomeInt64Property": "9",
        "SomeDoubleProperty0": 9,
        "SomeDoubleProperty1": 9.1,
        "SomeIntProperty": 9,
        "Timestamp@odata.type": "Edm.DateTime",
        "Timestamp": "2020-07-27T17:23:17.8440712Z"
      }
    },
    {
      "RequestUri": "https://allkimprim.table.cosmos.azure.com/testtablehylzfh6f?$format=application%2Fjson%3Bodata%3Dfullmetadata",
      "RequestMethod": "POST",
      "RequestHeaders": {
        "Accept": "application/json",
        "Authorization": "Sanitized",
        "Content-Length": "603",
        "Content-Type": "application/json; odata=nometadata",
        "DataServiceVersion": "3.0",
        "traceparent": "00-cfdf9c0d82866d4d96e534600d3b3d85-d3a1518f39964f47-00",
        "User-Agent": [
          "azsdk-net-Data.Tables/1.0.0-dev.20200724.1",
          "(.NET Core 4.6.29017.01; Microsoft Windows 10.0.19041 )"
        ],
        "x-ms-client-request-id": "22738d9cd7c715d0b2349bf6042c194f",
        "x-ms-date": "Mon, 27 Jul 2020 17:23:17 GMT",
        "x-ms-return-client-request-id": "true",
        "x-ms-version": "2019-02-02"
      },
      "RequestBody": {
        "PartitionKey": "somPartition",
        "RowKey": "10",
        "SomeStringProperty": "This is table entity number 10",
        "SomeDateProperty": "2020-01-01T01:11:00.0000000Z",
        "SomeDateProperty@odata.type": "Edm.DateTime",
        "SomeGuidProperty": "0d391d16-97f1-4b9a-be68-4cc871f90010",
        "SomeGuidProperty@odata.type": "Edm.Guid",
        "SomeBinaryProperty": "AQIDBAU=",
        "SomeBinaryProperty@odata.type": "Edm.Binary",
        "SomeInt64Property": "10",
        "SomeInt64Property@odata.type": "Edm.Int64",
        "SomeDoubleProperty0": 10,
        "SomeDoubleProperty0@odata.type": "Edm.Double",
        "SomeDoubleProperty1": 10.1,
        "SomeDoubleProperty1@odata.type": "Edm.Double",
        "SomeIntProperty": 10
      },
      "StatusCode": 201,
      "ResponseHeaders": {
        "Content-Type": "application/json",
        "Date": "Mon, 27 Jul 2020 17:23:17 GMT",
        "ETag": "W/\u0022datetime\u00272020-07-27T17%3A23%3A17.8988552Z\u0027\u0022",
        "Location": "https://allkimprim.table.cosmos.azure.com/testtablehylzfh6f(PartitionKey=\u0027somPartition\u0027,RowKey=\u002710\u0027)",
        "Server": "Microsoft-HTTPAPI/2.0",
        "Transfer-Encoding": "chunked",
        "x-ms-request-id": "22738d9c-d7c7-15d0-b234-9bf6042c194f"
      },
      "ResponseBody": {
        "odata.metadata": "https://allkimprim.table.cosmos.azure.com/testtablehylzfh6f/$metadata#testtablehylzfh6f/@Element",
        "odata.etag": "W/\u0022datetime\u00272020-07-27T17%3A23%3A17.8988552Z\u0027\u0022",
        "PartitionKey": "somPartition",
        "RowKey": "10",
        "SomeStringProperty": "This is table entity number 10",
        "SomeDateProperty@odata.type": "Edm.DateTime",
        "SomeDateProperty": "2020-01-01T01:11:00.0000000Z",
        "SomeGuidProperty@odata.type": "Edm.Guid",
        "SomeGuidProperty": "0d391d16-97f1-4b9a-be68-4cc871f90010",
        "SomeBinaryProperty@odata.type": "Edm.Binary",
        "SomeBinaryProperty": "AQIDBAU=",
        "SomeInt64Property@odata.type": "Edm.Int64",
        "SomeInt64Property": "10",
        "SomeDoubleProperty0": 10,
        "SomeDoubleProperty1": 10.1,
        "SomeIntProperty": 10,
        "Timestamp@odata.type": "Edm.DateTime",
        "Timestamp": "2020-07-27T17:23:17.8988552Z"
      }
    },
    {
      "RequestUri": "https://allkimprim.table.cosmos.azure.com/testtablehylzfh6f?$format=application%2Fjson%3Bodata%3Dfullmetadata",
      "RequestMethod": "POST",
      "RequestHeaders": {
        "Accept": "application/json",
        "Authorization": "Sanitized",
        "Content-Length": "603",
        "Content-Type": "application/json; odata=nometadata",
        "DataServiceVersion": "3.0",
        "traceparent": "00-000bd043f0d9a14ba99e03a1f5fe27a9-38daa26c20130e4a-00",
        "User-Agent": [
          "azsdk-net-Data.Tables/1.0.0-dev.20200724.1",
          "(.NET Core 4.6.29017.01; Microsoft Windows 10.0.19041 )"
        ],
        "x-ms-client-request-id": "ed1608fb13b15b049f1a16d88d686e47",
        "x-ms-date": "Mon, 27 Jul 2020 17:23:17 GMT",
        "x-ms-return-client-request-id": "true",
        "x-ms-version": "2019-02-02"
      },
      "RequestBody": {
        "PartitionKey": "somPartition",
        "RowKey": "11",
        "SomeStringProperty": "This is table entity number 11",
        "SomeDateProperty": "2020-01-01T01:12:00.0000000Z",
        "SomeDateProperty@odata.type": "Edm.DateTime",
        "SomeGuidProperty": "0d391d16-97f1-4b9a-be68-4cc871f90011",
        "SomeGuidProperty@odata.type": "Edm.Guid",
        "SomeBinaryProperty": "AQIDBAU=",
        "SomeBinaryProperty@odata.type": "Edm.Binary",
        "SomeInt64Property": "11",
        "SomeInt64Property@odata.type": "Edm.Int64",
        "SomeDoubleProperty0": 11,
        "SomeDoubleProperty0@odata.type": "Edm.Double",
        "SomeDoubleProperty1": 11.1,
        "SomeDoubleProperty1@odata.type": "Edm.Double",
        "SomeIntProperty": 11
      },
      "StatusCode": 201,
      "ResponseHeaders": {
        "Content-Type": "application/json",
        "Date": "Mon, 27 Jul 2020 17:23:17 GMT",
        "ETag": "W/\u0022datetime\u00272020-07-27T17%3A23%3A17.9566088Z\u0027\u0022",
        "Location": "https://allkimprim.table.cosmos.azure.com/testtablehylzfh6f(PartitionKey=\u0027somPartition\u0027,RowKey=\u002711\u0027)",
        "Server": "Microsoft-HTTPAPI/2.0",
        "Transfer-Encoding": "chunked",
        "x-ms-request-id": "ed1608fb-13b1-5b04-9f1a-16d88d686e47"
      },
      "ResponseBody": {
        "odata.metadata": "https://allkimprim.table.cosmos.azure.com/testtablehylzfh6f/$metadata#testtablehylzfh6f/@Element",
        "odata.etag": "W/\u0022datetime\u00272020-07-27T17%3A23%3A17.9566088Z\u0027\u0022",
        "PartitionKey": "somPartition",
        "RowKey": "11",
        "SomeStringProperty": "This is table entity number 11",
        "SomeDateProperty@odata.type": "Edm.DateTime",
        "SomeDateProperty": "2020-01-01T01:12:00.0000000Z",
        "SomeGuidProperty@odata.type": "Edm.Guid",
        "SomeGuidProperty": "0d391d16-97f1-4b9a-be68-4cc871f90011",
        "SomeBinaryProperty@odata.type": "Edm.Binary",
        "SomeBinaryProperty": "AQIDBAU=",
        "SomeInt64Property@odata.type": "Edm.Int64",
        "SomeInt64Property": "11",
        "SomeDoubleProperty0": 11,
        "SomeDoubleProperty1": 11.1,
        "SomeIntProperty": 11,
        "Timestamp@odata.type": "Edm.DateTime",
        "Timestamp": "2020-07-27T17:23:17.9566088Z"
      }
    },
    {
      "RequestUri": "https://allkimprim.table.cosmos.azure.com/testtablehylzfh6f?$format=application%2Fjson%3Bodata%3Dfullmetadata",
      "RequestMethod": "POST",
      "RequestHeaders": {
        "Accept": "application/json",
        "Authorization": "Sanitized",
        "Content-Length": "603",
        "Content-Type": "application/json; odata=nometadata",
        "DataServiceVersion": "3.0",
        "traceparent": "00-558b50f4afe7e04b92976200805808bb-5c55959ec0f20246-00",
        "User-Agent": [
          "azsdk-net-Data.Tables/1.0.0-dev.20200724.1",
          "(.NET Core 4.6.29017.01; Microsoft Windows 10.0.19041 )"
        ],
        "x-ms-client-request-id": "3e01bbdfe63bd0dfb19e51694105a94f",
        "x-ms-date": "Mon, 27 Jul 2020 17:23:17 GMT",
        "x-ms-return-client-request-id": "true",
        "x-ms-version": "2019-02-02"
      },
      "RequestBody": {
        "PartitionKey": "somPartition",
        "RowKey": "12",
        "SomeStringProperty": "This is table entity number 12",
        "SomeDateProperty": "2020-01-01T01:13:00.0000000Z",
        "SomeDateProperty@odata.type": "Edm.DateTime",
        "SomeGuidProperty": "0d391d16-97f1-4b9a-be68-4cc871f90012",
        "SomeGuidProperty@odata.type": "Edm.Guid",
        "SomeBinaryProperty": "AQIDBAU=",
        "SomeBinaryProperty@odata.type": "Edm.Binary",
        "SomeInt64Property": "12",
        "SomeInt64Property@odata.type": "Edm.Int64",
        "SomeDoubleProperty0": 12,
        "SomeDoubleProperty0@odata.type": "Edm.Double",
        "SomeDoubleProperty1": 12.1,
        "SomeDoubleProperty1@odata.type": "Edm.Double",
        "SomeIntProperty": 12
      },
      "StatusCode": 201,
      "ResponseHeaders": {
        "Content-Type": "application/json",
        "Date": "Mon, 27 Jul 2020 17:23:17 GMT",
        "ETag": "W/\u0022datetime\u00272020-07-27T17%3A23%3A18.0123144Z\u0027\u0022",
        "Location": "https://allkimprim.table.cosmos.azure.com/testtablehylzfh6f(PartitionKey=\u0027somPartition\u0027,RowKey=\u002712\u0027)",
        "Server": "Microsoft-HTTPAPI/2.0",
        "Transfer-Encoding": "chunked",
        "x-ms-request-id": "3e01bbdf-e63b-d0df-b19e-51694105a94f"
      },
      "ResponseBody": {
        "odata.metadata": "https://allkimprim.table.cosmos.azure.com/testtablehylzfh6f/$metadata#testtablehylzfh6f/@Element",
        "odata.etag": "W/\u0022datetime\u00272020-07-27T17%3A23%3A18.0123144Z\u0027\u0022",
        "PartitionKey": "somPartition",
        "RowKey": "12",
        "SomeStringProperty": "This is table entity number 12",
        "SomeDateProperty@odata.type": "Edm.DateTime",
        "SomeDateProperty": "2020-01-01T01:13:00.0000000Z",
        "SomeGuidProperty@odata.type": "Edm.Guid",
        "SomeGuidProperty": "0d391d16-97f1-4b9a-be68-4cc871f90012",
        "SomeBinaryProperty@odata.type": "Edm.Binary",
        "SomeBinaryProperty": "AQIDBAU=",
        "SomeInt64Property@odata.type": "Edm.Int64",
        "SomeInt64Property": "12",
        "SomeDoubleProperty0": 12,
        "SomeDoubleProperty1": 12.1,
        "SomeIntProperty": 12,
        "Timestamp@odata.type": "Edm.DateTime",
        "Timestamp": "2020-07-27T17:23:18.0123144Z"
      }
    },
    {
      "RequestUri": "https://allkimprim.table.cosmos.azure.com/testtablehylzfh6f?$format=application%2Fjson%3Bodata%3Dfullmetadata",
      "RequestMethod": "POST",
      "RequestHeaders": {
        "Accept": "application/json",
        "Authorization": "Sanitized",
        "Content-Length": "603",
        "Content-Type": "application/json; odata=nometadata",
        "DataServiceVersion": "3.0",
        "traceparent": "00-bfcb7bb6b2064448a9e9e98bd0055f6f-260859b4fecde844-00",
        "User-Agent": [
          "azsdk-net-Data.Tables/1.0.0-dev.20200724.1",
          "(.NET Core 4.6.29017.01; Microsoft Windows 10.0.19041 )"
        ],
        "x-ms-client-request-id": "75f6c9b2cc138884881782acc1f7884a",
        "x-ms-date": "Mon, 27 Jul 2020 17:23:18 GMT",
        "x-ms-return-client-request-id": "true",
        "x-ms-version": "2019-02-02"
      },
      "RequestBody": {
        "PartitionKey": "somPartition",
        "RowKey": "13",
        "SomeStringProperty": "This is table entity number 13",
        "SomeDateProperty": "2020-01-01T01:14:00.0000000Z",
        "SomeDateProperty@odata.type": "Edm.DateTime",
        "SomeGuidProperty": "0d391d16-97f1-4b9a-be68-4cc871f90013",
        "SomeGuidProperty@odata.type": "Edm.Guid",
        "SomeBinaryProperty": "AQIDBAU=",
        "SomeBinaryProperty@odata.type": "Edm.Binary",
        "SomeInt64Property": "13",
        "SomeInt64Property@odata.type": "Edm.Int64",
        "SomeDoubleProperty0": 13,
        "SomeDoubleProperty0@odata.type": "Edm.Double",
        "SomeDoubleProperty1": 13.1,
        "SomeDoubleProperty1@odata.type": "Edm.Double",
        "SomeIntProperty": 13
      },
      "StatusCode": 201,
      "ResponseHeaders": {
        "Content-Type": "application/json",
        "Date": "Mon, 27 Jul 2020 17:23:17 GMT",
        "ETag": "W/\u0022datetime\u00272020-07-27T17%3A23%3A18.0654600Z\u0027\u0022",
        "Location": "https://allkimprim.table.cosmos.azure.com/testtablehylzfh6f(PartitionKey=\u0027somPartition\u0027,RowKey=\u002713\u0027)",
        "Server": "Microsoft-HTTPAPI/2.0",
        "Transfer-Encoding": "chunked",
        "x-ms-request-id": "75f6c9b2-cc13-8884-8817-82acc1f7884a"
      },
      "ResponseBody": {
        "odata.metadata": "https://allkimprim.table.cosmos.azure.com/testtablehylzfh6f/$metadata#testtablehylzfh6f/@Element",
        "odata.etag": "W/\u0022datetime\u00272020-07-27T17%3A23%3A18.0654600Z\u0027\u0022",
        "PartitionKey": "somPartition",
        "RowKey": "13",
        "SomeStringProperty": "This is table entity number 13",
        "SomeDateProperty@odata.type": "Edm.DateTime",
        "SomeDateProperty": "2020-01-01T01:14:00.0000000Z",
        "SomeGuidProperty@odata.type": "Edm.Guid",
        "SomeGuidProperty": "0d391d16-97f1-4b9a-be68-4cc871f90013",
        "SomeBinaryProperty@odata.type": "Edm.Binary",
        "SomeBinaryProperty": "AQIDBAU=",
        "SomeInt64Property@odata.type": "Edm.Int64",
        "SomeInt64Property": "13",
        "SomeDoubleProperty0": 13,
        "SomeDoubleProperty1": 13.1,
        "SomeIntProperty": 13,
        "Timestamp@odata.type": "Edm.DateTime",
        "Timestamp": "2020-07-27T17:23:18.0654600Z"
      }
    },
    {
      "RequestUri": "https://allkimprim.table.cosmos.azure.com/testtablehylzfh6f?$format=application%2Fjson%3Bodata%3Dfullmetadata",
      "RequestMethod": "POST",
      "RequestHeaders": {
        "Accept": "application/json",
        "Authorization": "Sanitized",
        "Content-Length": "603",
        "Content-Type": "application/json; odata=nometadata",
        "DataServiceVersion": "3.0",
        "traceparent": "00-7875e337a937e442ad503d0be510bad9-458654ac69361143-00",
        "User-Agent": [
          "azsdk-net-Data.Tables/1.0.0-dev.20200724.1",
          "(.NET Core 4.6.29017.01; Microsoft Windows 10.0.19041 )"
        ],
        "x-ms-client-request-id": "491653c6db2a141428453b13c19b1a9a",
        "x-ms-date": "Mon, 27 Jul 2020 17:23:18 GMT",
        "x-ms-return-client-request-id": "true",
        "x-ms-version": "2019-02-02"
      },
      "RequestBody": {
        "PartitionKey": "somPartition",
        "RowKey": "14",
        "SomeStringProperty": "This is table entity number 14",
        "SomeDateProperty": "2020-01-01T01:15:00.0000000Z",
        "SomeDateProperty@odata.type": "Edm.DateTime",
        "SomeGuidProperty": "0d391d16-97f1-4b9a-be68-4cc871f90014",
        "SomeGuidProperty@odata.type": "Edm.Guid",
        "SomeBinaryProperty": "AQIDBAU=",
        "SomeBinaryProperty@odata.type": "Edm.Binary",
        "SomeInt64Property": "14",
        "SomeInt64Property@odata.type": "Edm.Int64",
        "SomeDoubleProperty0": 14,
        "SomeDoubleProperty0@odata.type": "Edm.Double",
        "SomeDoubleProperty1": 14.1,
        "SomeDoubleProperty1@odata.type": "Edm.Double",
        "SomeIntProperty": 14
      },
      "StatusCode": 201,
      "ResponseHeaders": {
        "Content-Type": "application/json",
        "Date": "Mon, 27 Jul 2020 17:23:17 GMT",
        "ETag": "W/\u0022datetime\u00272020-07-27T17%3A23%3A18.1216776Z\u0027\u0022",
        "Location": "https://allkimprim.table.cosmos.azure.com/testtablehylzfh6f(PartitionKey=\u0027somPartition\u0027,RowKey=\u002714\u0027)",
        "Server": "Microsoft-HTTPAPI/2.0",
        "Transfer-Encoding": "chunked",
        "x-ms-request-id": "491653c6-db2a-1414-2845-3b13c19b1a9a"
      },
      "ResponseBody": {
        "odata.metadata": "https://allkimprim.table.cosmos.azure.com/testtablehylzfh6f/$metadata#testtablehylzfh6f/@Element",
        "odata.etag": "W/\u0022datetime\u00272020-07-27T17%3A23%3A18.1216776Z\u0027\u0022",
        "PartitionKey": "somPartition",
        "RowKey": "14",
        "SomeStringProperty": "This is table entity number 14",
        "SomeDateProperty@odata.type": "Edm.DateTime",
        "SomeDateProperty": "2020-01-01T01:15:00.0000000Z",
        "SomeGuidProperty@odata.type": "Edm.Guid",
        "SomeGuidProperty": "0d391d16-97f1-4b9a-be68-4cc871f90014",
        "SomeBinaryProperty@odata.type": "Edm.Binary",
        "SomeBinaryProperty": "AQIDBAU=",
        "SomeInt64Property@odata.type": "Edm.Int64",
        "SomeInt64Property": "14",
        "SomeDoubleProperty0": 14,
        "SomeDoubleProperty1": 14.1,
        "SomeIntProperty": 14,
        "Timestamp@odata.type": "Edm.DateTime",
        "Timestamp": "2020-07-27T17:23:18.1216776Z"
      }
    },
    {
      "RequestUri": "https://allkimprim.table.cosmos.azure.com/testtablehylzfh6f?$format=application%2Fjson%3Bodata%3Dfullmetadata",
      "RequestMethod": "POST",
      "RequestHeaders": {
        "Accept": "application/json",
        "Authorization": "Sanitized",
        "Content-Length": "603",
        "Content-Type": "application/json; odata=nometadata",
        "DataServiceVersion": "3.0",
        "traceparent": "00-82109b1dc9dd514aa01bd464d4e11468-d014c4136146fd4e-00",
        "User-Agent": [
          "azsdk-net-Data.Tables/1.0.0-dev.20200724.1",
          "(.NET Core 4.6.29017.01; Microsoft Windows 10.0.19041 )"
        ],
        "x-ms-client-request-id": "c425c770f87113343678b52364320fb9",
        "x-ms-date": "Mon, 27 Jul 2020 17:23:18 GMT",
        "x-ms-return-client-request-id": "true",
        "x-ms-version": "2019-02-02"
      },
      "RequestBody": {
        "PartitionKey": "somPartition",
        "RowKey": "15",
        "SomeStringProperty": "This is table entity number 15",
        "SomeDateProperty": "2020-01-01T01:16:00.0000000Z",
        "SomeDateProperty@odata.type": "Edm.DateTime",
        "SomeGuidProperty": "0d391d16-97f1-4b9a-be68-4cc871f90015",
        "SomeGuidProperty@odata.type": "Edm.Guid",
        "SomeBinaryProperty": "AQIDBAU=",
        "SomeBinaryProperty@odata.type": "Edm.Binary",
        "SomeInt64Property": "15",
        "SomeInt64Property@odata.type": "Edm.Int64",
        "SomeDoubleProperty0": 15,
        "SomeDoubleProperty0@odata.type": "Edm.Double",
        "SomeDoubleProperty1": 15.1,
        "SomeDoubleProperty1@odata.type": "Edm.Double",
        "SomeIntProperty": 15
      },
      "StatusCode": 201,
      "ResponseHeaders": {
        "Content-Type": "application/json",
        "Date": "Mon, 27 Jul 2020 17:23:17 GMT",
        "ETag": "W/\u0022datetime\u00272020-07-27T17%3A23%3A18.1808648Z\u0027\u0022",
        "Location": "https://allkimprim.table.cosmos.azure.com/testtablehylzfh6f(PartitionKey=\u0027somPartition\u0027,RowKey=\u002715\u0027)",
        "Server": "Microsoft-HTTPAPI/2.0",
        "Transfer-Encoding": "chunked",
        "x-ms-request-id": "c425c770-f871-1334-3678-b52364320fb9"
      },
      "ResponseBody": {
        "odata.metadata": "https://allkimprim.table.cosmos.azure.com/testtablehylzfh6f/$metadata#testtablehylzfh6f/@Element",
        "odata.etag": "W/\u0022datetime\u00272020-07-27T17%3A23%3A18.1808648Z\u0027\u0022",
        "PartitionKey": "somPartition",
        "RowKey": "15",
        "SomeStringProperty": "This is table entity number 15",
        "SomeDateProperty@odata.type": "Edm.DateTime",
        "SomeDateProperty": "2020-01-01T01:16:00.0000000Z",
        "SomeGuidProperty@odata.type": "Edm.Guid",
        "SomeGuidProperty": "0d391d16-97f1-4b9a-be68-4cc871f90015",
        "SomeBinaryProperty@odata.type": "Edm.Binary",
        "SomeBinaryProperty": "AQIDBAU=",
        "SomeInt64Property@odata.type": "Edm.Int64",
        "SomeInt64Property": "15",
        "SomeDoubleProperty0": 15,
        "SomeDoubleProperty1": 15.1,
        "SomeIntProperty": 15,
        "Timestamp@odata.type": "Edm.DateTime",
        "Timestamp": "2020-07-27T17:23:18.1808648Z"
      }
    },
    {
      "RequestUri": "https://allkimprim.table.cosmos.azure.com/testtablehylzfh6f?$format=application%2Fjson%3Bodata%3Dfullmetadata",
      "RequestMethod": "POST",
      "RequestHeaders": {
        "Accept": "application/json",
        "Authorization": "Sanitized",
        "Content-Length": "617",
        "Content-Type": "application/json; odata=nometadata",
        "DataServiceVersion": "3.0",
        "traceparent": "00-bcfabf80254e0247a524801f847bcb21-c4c1765149b19143-00",
        "User-Agent": [
          "azsdk-net-Data.Tables/1.0.0-dev.20200724.1",
          "(.NET Core 4.6.29017.01; Microsoft Windows 10.0.19041 )"
        ],
        "x-ms-client-request-id": "eea2071660eed724b4e24cce9071c7ed",
        "x-ms-date": "Mon, 27 Jul 2020 17:23:18 GMT",
        "x-ms-return-client-request-id": "true",
        "x-ms-version": "2019-02-02"
      },
      "RequestBody": {
        "PartitionKey": "somPartition",
        "RowKey": "16",
        "SomeStringProperty": "This is table entity number 16",
        "SomeDateProperty": "2020-01-01T01:17:00.0000000Z",
        "SomeDateProperty@odata.type": "Edm.DateTime",
        "SomeGuidProperty": "0d391d16-97f1-4b9a-be68-4cc871f90016",
        "SomeGuidProperty@odata.type": "Edm.Guid",
        "SomeBinaryProperty": "AQIDBAU=",
        "SomeBinaryProperty@odata.type": "Edm.Binary",
        "SomeInt64Property": "16",
        "SomeInt64Property@odata.type": "Edm.Int64",
        "SomeDoubleProperty0": 16,
        "SomeDoubleProperty0@odata.type": "Edm.Double",
        "SomeDoubleProperty1": 16.100000000000001,
        "SomeDoubleProperty1@odata.type": "Edm.Double",
        "SomeIntProperty": 16
      },
      "StatusCode": 201,
      "ResponseHeaders": {
        "Content-Type": "application/json",
        "Date": "Mon, 27 Jul 2020 17:23:17 GMT",
        "ETag": "W/\u0022datetime\u00272020-07-27T17%3A23%3A18.2362632Z\u0027\u0022",
        "Location": "https://allkimprim.table.cosmos.azure.com/testtablehylzfh6f(PartitionKey=\u0027somPartition\u0027,RowKey=\u002716\u0027)",
        "Server": "Microsoft-HTTPAPI/2.0",
        "Transfer-Encoding": "chunked",
        "x-ms-request-id": "eea20716-60ee-d724-b4e2-4cce9071c7ed"
      },
      "ResponseBody": {
        "odata.metadata": "https://allkimprim.table.cosmos.azure.com/testtablehylzfh6f/$metadata#testtablehylzfh6f/@Element",
        "odata.etag": "W/\u0022datetime\u00272020-07-27T17%3A23%3A18.2362632Z\u0027\u0022",
        "PartitionKey": "somPartition",
        "RowKey": "16",
        "SomeStringProperty": "This is table entity number 16",
        "SomeDateProperty@odata.type": "Edm.DateTime",
        "SomeDateProperty": "2020-01-01T01:17:00.0000000Z",
        "SomeGuidProperty@odata.type": "Edm.Guid",
        "SomeGuidProperty": "0d391d16-97f1-4b9a-be68-4cc871f90016",
        "SomeBinaryProperty@odata.type": "Edm.Binary",
        "SomeBinaryProperty": "AQIDBAU=",
        "SomeInt64Property@odata.type": "Edm.Int64",
        "SomeInt64Property": "16",
        "SomeDoubleProperty0": 16,
        "SomeDoubleProperty1": 16.1,
        "SomeIntProperty": 16,
        "Timestamp@odata.type": "Edm.DateTime",
        "Timestamp": "2020-07-27T17:23:18.2362632Z"
      }
    },
    {
      "RequestUri": "https://allkimprim.table.cosmos.azure.com/testtablehylzfh6f?$format=application%2Fjson%3Bodata%3Dfullmetadata",
      "RequestMethod": "POST",
      "RequestHeaders": {
        "Accept": "application/json",
        "Authorization": "Sanitized",
        "Content-Length": "617",
        "Content-Type": "application/json; odata=nometadata",
        "DataServiceVersion": "3.0",
        "traceparent": "00-6d3f0779ca4df145948e929888624ac9-0afc06a6ae4de64e-00",
        "User-Agent": [
          "azsdk-net-Data.Tables/1.0.0-dev.20200724.1",
          "(.NET Core 4.6.29017.01; Microsoft Windows 10.0.19041 )"
        ],
        "x-ms-client-request-id": "f93be7fdc3d1cdd81f0312b125f1b0f5",
        "x-ms-date": "Mon, 27 Jul 2020 17:23:18 GMT",
        "x-ms-return-client-request-id": "true",
        "x-ms-version": "2019-02-02"
      },
      "RequestBody": {
        "PartitionKey": "somPartition",
        "RowKey": "17",
        "SomeStringProperty": "This is table entity number 17",
        "SomeDateProperty": "2020-01-01T01:18:00.0000000Z",
        "SomeDateProperty@odata.type": "Edm.DateTime",
        "SomeGuidProperty": "0d391d16-97f1-4b9a-be68-4cc871f90017",
        "SomeGuidProperty@odata.type": "Edm.Guid",
        "SomeBinaryProperty": "AQIDBAU=",
        "SomeBinaryProperty@odata.type": "Edm.Binary",
        "SomeInt64Property": "17",
        "SomeInt64Property@odata.type": "Edm.Int64",
        "SomeDoubleProperty0": 17,
        "SomeDoubleProperty0@odata.type": "Edm.Double",
        "SomeDoubleProperty1": 17.100000000000001,
        "SomeDoubleProperty1@odata.type": "Edm.Double",
        "SomeIntProperty": 17
      },
      "StatusCode": 201,
      "ResponseHeaders": {
        "Content-Type": "application/json",
        "Date": "Mon, 27 Jul 2020 17:23:17 GMT",
        "ETag": "W/\u0022datetime\u00272020-07-27T17%3A23%3A18.2960648Z\u0027\u0022",
        "Location": "https://allkimprim.table.cosmos.azure.com/testtablehylzfh6f(PartitionKey=\u0027somPartition\u0027,RowKey=\u002717\u0027)",
        "Server": "Microsoft-HTTPAPI/2.0",
        "Transfer-Encoding": "chunked",
        "x-ms-request-id": "f93be7fd-c3d1-cdd8-1f03-12b125f1b0f5"
      },
      "ResponseBody": {
        "odata.metadata": "https://allkimprim.table.cosmos.azure.com/testtablehylzfh6f/$metadata#testtablehylzfh6f/@Element",
        "odata.etag": "W/\u0022datetime\u00272020-07-27T17%3A23%3A18.2960648Z\u0027\u0022",
        "PartitionKey": "somPartition",
        "RowKey": "17",
        "SomeStringProperty": "This is table entity number 17",
        "SomeDateProperty@odata.type": "Edm.DateTime",
        "SomeDateProperty": "2020-01-01T01:18:00.0000000Z",
        "SomeGuidProperty@odata.type": "Edm.Guid",
        "SomeGuidProperty": "0d391d16-97f1-4b9a-be68-4cc871f90017",
        "SomeBinaryProperty@odata.type": "Edm.Binary",
        "SomeBinaryProperty": "AQIDBAU=",
        "SomeInt64Property@odata.type": "Edm.Int64",
        "SomeInt64Property": "17",
        "SomeDoubleProperty0": 17,
        "SomeDoubleProperty1": 17.1,
        "SomeIntProperty": 17,
        "Timestamp@odata.type": "Edm.DateTime",
        "Timestamp": "2020-07-27T17:23:18.2960648Z"
      }
    },
    {
      "RequestUri": "https://allkimprim.table.cosmos.azure.com/testtablehylzfh6f?$format=application%2Fjson%3Bodata%3Dfullmetadata",
      "RequestMethod": "POST",
      "RequestHeaders": {
        "Accept": "application/json",
        "Authorization": "Sanitized",
        "Content-Length": "617",
        "Content-Type": "application/json; odata=nometadata",
        "DataServiceVersion": "3.0",
        "traceparent": "00-caa82b8a65a7ae419b195d7de11d663c-39910174919e5a46-00",
        "User-Agent": [
          "azsdk-net-Data.Tables/1.0.0-dev.20200724.1",
          "(.NET Core 4.6.29017.01; Microsoft Windows 10.0.19041 )"
        ],
        "x-ms-client-request-id": "bafd81352cf80faba24e108fab6582c5",
        "x-ms-date": "Mon, 27 Jul 2020 17:23:18 GMT",
        "x-ms-return-client-request-id": "true",
        "x-ms-version": "2019-02-02"
      },
      "RequestBody": {
        "PartitionKey": "somPartition",
        "RowKey": "18",
        "SomeStringProperty": "This is table entity number 18",
        "SomeDateProperty": "2020-01-01T01:19:00.0000000Z",
        "SomeDateProperty@odata.type": "Edm.DateTime",
        "SomeGuidProperty": "0d391d16-97f1-4b9a-be68-4cc871f90018",
        "SomeGuidProperty@odata.type": "Edm.Guid",
        "SomeBinaryProperty": "AQIDBAU=",
        "SomeBinaryProperty@odata.type": "Edm.Binary",
        "SomeInt64Property": "18",
        "SomeInt64Property@odata.type": "Edm.Int64",
        "SomeDoubleProperty0": 18,
        "SomeDoubleProperty0@odata.type": "Edm.Double",
        "SomeDoubleProperty1": 18.100000000000001,
        "SomeDoubleProperty1@odata.type": "Edm.Double",
        "SomeIntProperty": 18
      },
      "StatusCode": 201,
      "ResponseHeaders": {
        "Content-Type": "application/json",
        "Date": "Mon, 27 Jul 2020 17:23:17 GMT",
        "ETag": "W/\u0022datetime\u00272020-07-27T17%3A23%3A18.3594504Z\u0027\u0022",
        "Location": "https://allkimprim.table.cosmos.azure.com/testtablehylzfh6f(PartitionKey=\u0027somPartition\u0027,RowKey=\u002718\u0027)",
        "Server": "Microsoft-HTTPAPI/2.0",
        "Transfer-Encoding": "chunked",
        "x-ms-request-id": "bafd8135-2cf8-0fab-a24e-108fab6582c5"
      },
      "ResponseBody": {
        "odata.metadata": "https://allkimprim.table.cosmos.azure.com/testtablehylzfh6f/$metadata#testtablehylzfh6f/@Element",
        "odata.etag": "W/\u0022datetime\u00272020-07-27T17%3A23%3A18.3594504Z\u0027\u0022",
        "PartitionKey": "somPartition",
        "RowKey": "18",
        "SomeStringProperty": "This is table entity number 18",
        "SomeDateProperty@odata.type": "Edm.DateTime",
        "SomeDateProperty": "2020-01-01T01:19:00.0000000Z",
        "SomeGuidProperty@odata.type": "Edm.Guid",
        "SomeGuidProperty": "0d391d16-97f1-4b9a-be68-4cc871f90018",
        "SomeBinaryProperty@odata.type": "Edm.Binary",
        "SomeBinaryProperty": "AQIDBAU=",
        "SomeInt64Property@odata.type": "Edm.Int64",
        "SomeInt64Property": "18",
        "SomeDoubleProperty0": 18,
        "SomeDoubleProperty1": 18.1,
        "SomeIntProperty": 18,
        "Timestamp@odata.type": "Edm.DateTime",
        "Timestamp": "2020-07-27T17:23:18.3594504Z"
      }
    },
    {
      "RequestUri": "https://allkimprim.table.cosmos.azure.com/testtablehylzfh6f?$format=application%2Fjson%3Bodata%3Dfullmetadata",
      "RequestMethod": "POST",
      "RequestHeaders": {
        "Accept": "application/json",
        "Authorization": "Sanitized",
        "Content-Length": "617",
        "Content-Type": "application/json; odata=nometadata",
        "DataServiceVersion": "3.0",
        "traceparent": "00-8eefac25757c0f46a739f08f246509a1-f616b05a3ddf4943-00",
        "User-Agent": [
          "azsdk-net-Data.Tables/1.0.0-dev.20200724.1",
          "(.NET Core 4.6.29017.01; Microsoft Windows 10.0.19041 )"
        ],
        "x-ms-client-request-id": "7c26c8b115f752e72ed5ceeb4e73b2c3",
        "x-ms-date": "Mon, 27 Jul 2020 17:23:18 GMT",
        "x-ms-return-client-request-id": "true",
        "x-ms-version": "2019-02-02"
      },
      "RequestBody": {
        "PartitionKey": "somPartition",
        "RowKey": "19",
        "SomeStringProperty": "This is table entity number 19",
        "SomeDateProperty": "2020-01-01T01:20:00.0000000Z",
        "SomeDateProperty@odata.type": "Edm.DateTime",
        "SomeGuidProperty": "0d391d16-97f1-4b9a-be68-4cc871f90019",
        "SomeGuidProperty@odata.type": "Edm.Guid",
        "SomeBinaryProperty": "AQIDBAU=",
        "SomeBinaryProperty@odata.type": "Edm.Binary",
        "SomeInt64Property": "19",
        "SomeInt64Property@odata.type": "Edm.Int64",
        "SomeDoubleProperty0": 19,
        "SomeDoubleProperty0@odata.type": "Edm.Double",
        "SomeDoubleProperty1": 19.100000000000001,
        "SomeDoubleProperty1@odata.type": "Edm.Double",
        "SomeIntProperty": 19
      },
      "StatusCode": 201,
      "ResponseHeaders": {
        "Content-Type": "application/json",
        "Date": "Mon, 27 Jul 2020 17:23:17 GMT",
        "ETag": "W/\u0022datetime\u00272020-07-27T17%3A23%3A18.4208904Z\u0027\u0022",
        "Location": "https://allkimprim.table.cosmos.azure.com/testtablehylzfh6f(PartitionKey=\u0027somPartition\u0027,RowKey=\u002719\u0027)",
        "Server": "Microsoft-HTTPAPI/2.0",
        "Transfer-Encoding": "chunked",
        "x-ms-request-id": "7c26c8b1-15f7-52e7-2ed5-ceeb4e73b2c3"
      },
      "ResponseBody": {
        "odata.metadata": "https://allkimprim.table.cosmos.azure.com/testtablehylzfh6f/$metadata#testtablehylzfh6f/@Element",
        "odata.etag": "W/\u0022datetime\u00272020-07-27T17%3A23%3A18.4208904Z\u0027\u0022",
        "PartitionKey": "somPartition",
        "RowKey": "19",
        "SomeStringProperty": "This is table entity number 19",
        "SomeDateProperty@odata.type": "Edm.DateTime",
        "SomeDateProperty": "2020-01-01T01:20:00.0000000Z",
        "SomeGuidProperty@odata.type": "Edm.Guid",
        "SomeGuidProperty": "0d391d16-97f1-4b9a-be68-4cc871f90019",
        "SomeBinaryProperty@odata.type": "Edm.Binary",
        "SomeBinaryProperty": "AQIDBAU=",
        "SomeInt64Property@odata.type": "Edm.Int64",
        "SomeInt64Property": "19",
        "SomeDoubleProperty0": 19,
        "SomeDoubleProperty1": 19.1,
        "SomeIntProperty": 19,
        "Timestamp@odata.type": "Edm.DateTime",
        "Timestamp": "2020-07-27T17:23:18.4208904Z"
      }
    },
    {
      "RequestUri": "https://allkimprim.table.cosmos.azure.com/testtablehylzfh6f?$format=application%2Fjson%3Bodata%3Dfullmetadata",
      "RequestMethod": "POST",
      "RequestHeaders": {
        "Accept": "application/json",
        "Authorization": "Sanitized",
        "Content-Length": "617",
        "Content-Type": "application/json; odata=nometadata",
        "DataServiceVersion": "3.0",
        "traceparent": "00-4b1ea492b980c54a9fbf67c866d83da0-a43cf6bdc900464b-00",
        "User-Agent": [
          "azsdk-net-Data.Tables/1.0.0-dev.20200724.1",
          "(.NET Core 4.6.29017.01; Microsoft Windows 10.0.19041 )"
        ],
        "x-ms-client-request-id": "0e9857310c73d1f43c2b5783b34922b9",
        "x-ms-date": "Mon, 27 Jul 2020 17:23:18 GMT",
        "x-ms-return-client-request-id": "true",
        "x-ms-version": "2019-02-02"
      },
      "RequestBody": {
        "PartitionKey": "somPartition",
        "RowKey": "20",
        "SomeStringProperty": "This is table entity number 20",
        "SomeDateProperty": "2020-01-01T01:21:00.0000000Z",
        "SomeDateProperty@odata.type": "Edm.DateTime",
        "SomeGuidProperty": "0d391d16-97f1-4b9a-be68-4cc871f90020",
        "SomeGuidProperty@odata.type": "Edm.Guid",
        "SomeBinaryProperty": "AQIDBAU=",
        "SomeBinaryProperty@odata.type": "Edm.Binary",
        "SomeInt64Property": "20",
        "SomeInt64Property@odata.type": "Edm.Int64",
        "SomeDoubleProperty0": 20,
        "SomeDoubleProperty0@odata.type": "Edm.Double",
        "SomeDoubleProperty1": 20.100000000000001,
        "SomeDoubleProperty1@odata.type": "Edm.Double",
        "SomeIntProperty": 20
      },
      "StatusCode": 201,
      "ResponseHeaders": {
        "Content-Type": "application/json",
        "Date": "Mon, 27 Jul 2020 17:23:18 GMT",
        "ETag": "W/\u0022datetime\u00272020-07-27T17%3A23%3A18.4741384Z\u0027\u0022",
        "Location": "https://allkimprim.table.cosmos.azure.com/testtablehylzfh6f(PartitionKey=\u0027somPartition\u0027,RowKey=\u002720\u0027)",
        "Server": "Microsoft-HTTPAPI/2.0",
        "Transfer-Encoding": "chunked",
        "x-ms-request-id": "0e985731-0c73-d1f4-3c2b-5783b34922b9"
      },
      "ResponseBody": {
        "odata.metadata": "https://allkimprim.table.cosmos.azure.com/testtablehylzfh6f/$metadata#testtablehylzfh6f/@Element",
        "odata.etag": "W/\u0022datetime\u00272020-07-27T17%3A23%3A18.4741384Z\u0027\u0022",
        "PartitionKey": "somPartition",
        "RowKey": "20",
        "SomeStringProperty": "This is table entity number 20",
        "SomeDateProperty@odata.type": "Edm.DateTime",
        "SomeDateProperty": "2020-01-01T01:21:00.0000000Z",
        "SomeGuidProperty@odata.type": "Edm.Guid",
        "SomeGuidProperty": "0d391d16-97f1-4b9a-be68-4cc871f90020",
        "SomeBinaryProperty@odata.type": "Edm.Binary",
        "SomeBinaryProperty": "AQIDBAU=",
        "SomeInt64Property@odata.type": "Edm.Int64",
        "SomeInt64Property": "20",
        "SomeDoubleProperty0": 20,
        "SomeDoubleProperty1": 20.1,
        "SomeIntProperty": 20,
        "Timestamp@odata.type": "Edm.DateTime",
        "Timestamp": "2020-07-27T17:23:18.4741384Z"
      }
    },
    {
      "RequestUri": "https://allkimprim.table.cosmos.azure.com/testtablehylzfh6f()?$format=application%2Fjson%3Bodata%3Dfullmetadata",
      "RequestMethod": "GET",
      "RequestHeaders": {
        "Accept": "application/json",
        "Authorization": "Sanitized",
        "DataServiceVersion": "3.0",
        "User-Agent": [
          "azsdk-net-Data.Tables/1.0.0-dev.20200724.1",
          "(.NET Core 4.6.29017.01; Microsoft Windows 10.0.19041 )"
        ],
        "x-ms-client-request-id": "5dff4c8134ca1ffe9aab8c235dc0c12f",
        "x-ms-date": "Mon, 27 Jul 2020 17:23:18 GMT",
        "x-ms-return-client-request-id": "true",
        "x-ms-version": "2019-02-02"
      },
      "RequestBody": null,
      "StatusCode": 200,
      "ResponseHeaders": {
        "Content-Type": "application/json",
        "Date": "Mon, 27 Jul 2020 17:23:18 GMT",
        "Server": "Microsoft-HTTPAPI/2.0",
        "Transfer-Encoding": "chunked",
        "x-ms-request-id": "5dff4c81-34ca-1ffe-9aab-8c235dc0c12f"
      },
      "ResponseBody": {
        "value": [
          {
            "odata.etag": "W/\u0022datetime\u00272020-07-27T17%3A23%3A17.3911560Z\u0027\u0022",
            "PartitionKey": "somPartition",
            "RowKey": "01",
            "SomeStringProperty": "This is table entity number 01",
            "SomeDateProperty@odata.type": "Edm.DateTime",
            "SomeDateProperty": "2020-01-01T01:02:00.0000000Z",
            "SomeGuidProperty@odata.type": "Edm.Guid",
            "SomeGuidProperty": "0d391d16-97f1-4b9a-be68-4cc871f90001",
            "SomeBinaryProperty@odata.type": "Edm.Binary",
            "SomeBinaryProperty": "AQIDBAU=",
            "SomeInt64Property@odata.type": "Edm.Int64",
            "SomeInt64Property": "1",
            "SomeDoubleProperty0": 1,
            "SomeDoubleProperty1": 1.1,
            "SomeIntProperty": 1,
            "Timestamp@odata.type": "Edm.DateTime",
            "Timestamp": "2020-07-27T17:23:17.3911560Z"
          },
          {
            "odata.etag": "W/\u0022datetime\u00272020-07-27T17%3A23%3A17.4480904Z\u0027\u0022",
            "PartitionKey": "somPartition",
            "RowKey": "02",
            "SomeStringProperty": "This is table entity number 02",
            "SomeDateProperty@odata.type": "Edm.DateTime",
            "SomeDateProperty": "2020-01-01T01:03:00.0000000Z",
            "SomeGuidProperty@odata.type": "Edm.Guid",
            "SomeGuidProperty": "0d391d16-97f1-4b9a-be68-4cc871f90002",
            "SomeBinaryProperty@odata.type": "Edm.Binary",
            "SomeBinaryProperty": "AQIDBAU=",
            "SomeInt64Property@odata.type": "Edm.Int64",
            "SomeInt64Property": "2",
            "SomeDoubleProperty0": 2,
            "SomeDoubleProperty1": 2.1,
            "SomeIntProperty": 2,
            "Timestamp@odata.type": "Edm.DateTime",
            "Timestamp": "2020-07-27T17:23:17.4480904Z"
          },
          {
            "odata.etag": "W/\u0022datetime\u00272020-07-27T17%3A23%3A17.5134216Z\u0027\u0022",
            "PartitionKey": "somPartition",
            "RowKey": "03",
            "SomeStringProperty": "This is table entity number 03",
            "SomeDateProperty@odata.type": "Edm.DateTime",
            "SomeDateProperty": "2020-01-01T01:04:00.0000000Z",
            "SomeGuidProperty@odata.type": "Edm.Guid",
            "SomeGuidProperty": "0d391d16-97f1-4b9a-be68-4cc871f90003",
            "SomeBinaryProperty@odata.type": "Edm.Binary",
            "SomeBinaryProperty": "AQIDBAU=",
            "SomeInt64Property@odata.type": "Edm.Int64",
            "SomeInt64Property": "3",
            "SomeDoubleProperty0": 3,
            "SomeDoubleProperty1": 3.1,
            "SomeIntProperty": 3,
            "Timestamp@odata.type": "Edm.DateTime",
            "Timestamp": "2020-07-27T17:23:17.5134216Z"
          },
          {
            "odata.etag": "W/\u0022datetime\u00272020-07-27T17%3A23%3A17.5701512Z\u0027\u0022",
            "PartitionKey": "somPartition",
            "RowKey": "04",
            "SomeStringProperty": "This is table entity number 04",
            "SomeDateProperty@odata.type": "Edm.DateTime",
            "SomeDateProperty": "2020-01-01T01:05:00.0000000Z",
            "SomeGuidProperty@odata.type": "Edm.Guid",
            "SomeGuidProperty": "0d391d16-97f1-4b9a-be68-4cc871f90004",
            "SomeBinaryProperty@odata.type": "Edm.Binary",
            "SomeBinaryProperty": "AQIDBAU=",
            "SomeInt64Property@odata.type": "Edm.Int64",
            "SomeInt64Property": "4",
            "SomeDoubleProperty0": 4,
            "SomeDoubleProperty1": 4.1,
            "SomeIntProperty": 4,
            "Timestamp@odata.type": "Edm.DateTime",
            "Timestamp": "2020-07-27T17:23:17.5701512Z"
          },
          {
            "odata.etag": "W/\u0022datetime\u00272020-07-27T17%3A23%3A17.6228872Z\u0027\u0022",
            "PartitionKey": "somPartition",
            "RowKey": "05",
            "SomeStringProperty": "This is table entity number 05",
            "SomeDateProperty@odata.type": "Edm.DateTime",
            "SomeDateProperty": "2020-01-01T01:06:00.0000000Z",
            "SomeGuidProperty@odata.type": "Edm.Guid",
            "SomeGuidProperty": "0d391d16-97f1-4b9a-be68-4cc871f90005",
            "SomeBinaryProperty@odata.type": "Edm.Binary",
            "SomeBinaryProperty": "AQIDBAU=",
            "SomeInt64Property@odata.type": "Edm.Int64",
            "SomeInt64Property": "5",
            "SomeDoubleProperty0": 5,
            "SomeDoubleProperty1": 5.1,
            "SomeIntProperty": 5,
            "Timestamp@odata.type": "Edm.DateTime",
            "Timestamp": "2020-07-27T17:23:17.6228872Z"
          },
          {
            "odata.etag": "W/\u0022datetime\u00272020-07-27T17%3A23%3A17.6774664Z\u0027\u0022",
            "PartitionKey": "somPartition",
            "RowKey": "06",
            "SomeStringProperty": "This is table entity number 06",
            "SomeDateProperty@odata.type": "Edm.DateTime",
            "SomeDateProperty": "2020-01-01T01:07:00.0000000Z",
            "SomeGuidProperty@odata.type": "Edm.Guid",
            "SomeGuidProperty": "0d391d16-97f1-4b9a-be68-4cc871f90006",
            "SomeBinaryProperty@odata.type": "Edm.Binary",
            "SomeBinaryProperty": "AQIDBAU=",
            "SomeInt64Property@odata.type": "Edm.Int64",
            "SomeInt64Property": "6",
            "SomeDoubleProperty0": 6,
            "SomeDoubleProperty1": 6.1,
            "SomeIntProperty": 6,
            "Timestamp@odata.type": "Edm.DateTime",
            "Timestamp": "2020-07-27T17:23:17.6774664Z"
          },
          {
            "odata.etag": "W/\u0022datetime\u00272020-07-27T17%3A23%3A17.7293832Z\u0027\u0022",
            "PartitionKey": "somPartition",
            "RowKey": "07",
            "SomeStringProperty": "This is table entity number 07",
            "SomeDateProperty@odata.type": "Edm.DateTime",
            "SomeDateProperty": "2020-01-01T01:08:00.0000000Z",
            "SomeGuidProperty@odata.type": "Edm.Guid",
            "SomeGuidProperty": "0d391d16-97f1-4b9a-be68-4cc871f90007",
            "SomeBinaryProperty@odata.type": "Edm.Binary",
            "SomeBinaryProperty": "AQIDBAU=",
            "SomeInt64Property@odata.type": "Edm.Int64",
            "SomeInt64Property": "7",
            "SomeDoubleProperty0": 7,
            "SomeDoubleProperty1": 7.1,
            "SomeIntProperty": 7,
            "Timestamp@odata.type": "Edm.DateTime",
            "Timestamp": "2020-07-27T17:23:17.7293832Z"
          },
          {
            "odata.etag": "W/\u0022datetime\u00272020-07-27T17%3A23%3A17.7885704Z\u0027\u0022",
            "PartitionKey": "somPartition",
            "RowKey": "08",
            "SomeStringProperty": "This is table entity number 08",
            "SomeDateProperty@odata.type": "Edm.DateTime",
            "SomeDateProperty": "2020-01-01T01:09:00.0000000Z",
            "SomeGuidProperty@odata.type": "Edm.Guid",
            "SomeGuidProperty": "0d391d16-97f1-4b9a-be68-4cc871f90008",
            "SomeBinaryProperty@odata.type": "Edm.Binary",
            "SomeBinaryProperty": "AQIDBAU=",
            "SomeInt64Property@odata.type": "Edm.Int64",
            "SomeInt64Property": "8",
            "SomeDoubleProperty0": 8,
            "SomeDoubleProperty1": 8.1,
            "SomeIntProperty": 8,
            "Timestamp@odata.type": "Edm.DateTime",
            "Timestamp": "2020-07-27T17:23:17.7885704Z"
          },
          {
            "odata.etag": "W/\u0022datetime\u00272020-07-27T17%3A23%3A17.8440712Z\u0027\u0022",
            "PartitionKey": "somPartition",
            "RowKey": "09",
            "SomeStringProperty": "This is table entity number 09",
            "SomeDateProperty@odata.type": "Edm.DateTime",
            "SomeDateProperty": "2020-01-01T01:10:00.0000000Z",
            "SomeGuidProperty@odata.type": "Edm.Guid",
            "SomeGuidProperty": "0d391d16-97f1-4b9a-be68-4cc871f90009",
            "SomeBinaryProperty@odata.type": "Edm.Binary",
            "SomeBinaryProperty": "AQIDBAU=",
            "SomeInt64Property@odata.type": "Edm.Int64",
            "SomeInt64Property": "9",
            "SomeDoubleProperty0": 9,
            "SomeDoubleProperty1": 9.1,
            "SomeIntProperty": 9,
            "Timestamp@odata.type": "Edm.DateTime",
            "Timestamp": "2020-07-27T17:23:17.8440712Z"
          },
          {
            "odata.etag": "W/\u0022datetime\u00272020-07-27T17%3A23%3A17.8988552Z\u0027\u0022",
            "PartitionKey": "somPartition",
            "RowKey": "10",
            "SomeStringProperty": "This is table entity number 10",
            "SomeDateProperty@odata.type": "Edm.DateTime",
            "SomeDateProperty": "2020-01-01T01:11:00.0000000Z",
            "SomeGuidProperty@odata.type": "Edm.Guid",
            "SomeGuidProperty": "0d391d16-97f1-4b9a-be68-4cc871f90010",
            "SomeBinaryProperty@odata.type": "Edm.Binary",
            "SomeBinaryProperty": "AQIDBAU=",
            "SomeInt64Property@odata.type": "Edm.Int64",
            "SomeInt64Property": "10",
            "SomeDoubleProperty0": 10,
            "SomeDoubleProperty1": 10.1,
            "SomeIntProperty": 10,
            "Timestamp@odata.type": "Edm.DateTime",
            "Timestamp": "2020-07-27T17:23:17.8988552Z"
          },
          {
            "odata.etag": "W/\u0022datetime\u00272020-07-27T17%3A23%3A17.9566088Z\u0027\u0022",
            "PartitionKey": "somPartition",
            "RowKey": "11",
            "SomeStringProperty": "This is table entity number 11",
            "SomeDateProperty@odata.type": "Edm.DateTime",
            "SomeDateProperty": "2020-01-01T01:12:00.0000000Z",
            "SomeGuidProperty@odata.type": "Edm.Guid",
            "SomeGuidProperty": "0d391d16-97f1-4b9a-be68-4cc871f90011",
            "SomeBinaryProperty@odata.type": "Edm.Binary",
            "SomeBinaryProperty": "AQIDBAU=",
            "SomeInt64Property@odata.type": "Edm.Int64",
            "SomeInt64Property": "11",
            "SomeDoubleProperty0": 11,
            "SomeDoubleProperty1": 11.1,
            "SomeIntProperty": 11,
            "Timestamp@odata.type": "Edm.DateTime",
            "Timestamp": "2020-07-27T17:23:17.9566088Z"
          },
          {
            "odata.etag": "W/\u0022datetime\u00272020-07-27T17%3A23%3A18.0123144Z\u0027\u0022",
            "PartitionKey": "somPartition",
            "RowKey": "12",
            "SomeStringProperty": "This is table entity number 12",
            "SomeDateProperty@odata.type": "Edm.DateTime",
            "SomeDateProperty": "2020-01-01T01:13:00.0000000Z",
            "SomeGuidProperty@odata.type": "Edm.Guid",
            "SomeGuidProperty": "0d391d16-97f1-4b9a-be68-4cc871f90012",
            "SomeBinaryProperty@odata.type": "Edm.Binary",
            "SomeBinaryProperty": "AQIDBAU=",
            "SomeInt64Property@odata.type": "Edm.Int64",
            "SomeInt64Property": "12",
            "SomeDoubleProperty0": 12,
            "SomeDoubleProperty1": 12.1,
            "SomeIntProperty": 12,
            "Timestamp@odata.type": "Edm.DateTime",
            "Timestamp": "2020-07-27T17:23:18.0123144Z"
          },
          {
            "odata.etag": "W/\u0022datetime\u00272020-07-27T17%3A23%3A18.0654600Z\u0027\u0022",
            "PartitionKey": "somPartition",
            "RowKey": "13",
            "SomeStringProperty": "This is table entity number 13",
            "SomeDateProperty@odata.type": "Edm.DateTime",
            "SomeDateProperty": "2020-01-01T01:14:00.0000000Z",
            "SomeGuidProperty@odata.type": "Edm.Guid",
            "SomeGuidProperty": "0d391d16-97f1-4b9a-be68-4cc871f90013",
            "SomeBinaryProperty@odata.type": "Edm.Binary",
            "SomeBinaryProperty": "AQIDBAU=",
            "SomeInt64Property@odata.type": "Edm.Int64",
            "SomeInt64Property": "13",
            "SomeDoubleProperty0": 13,
            "SomeDoubleProperty1": 13.1,
            "SomeIntProperty": 13,
            "Timestamp@odata.type": "Edm.DateTime",
            "Timestamp": "2020-07-27T17:23:18.0654600Z"
          },
          {
            "odata.etag": "W/\u0022datetime\u00272020-07-27T17%3A23%3A18.1216776Z\u0027\u0022",
            "PartitionKey": "somPartition",
            "RowKey": "14",
            "SomeStringProperty": "This is table entity number 14",
            "SomeDateProperty@odata.type": "Edm.DateTime",
            "SomeDateProperty": "2020-01-01T01:15:00.0000000Z",
            "SomeGuidProperty@odata.type": "Edm.Guid",
            "SomeGuidProperty": "0d391d16-97f1-4b9a-be68-4cc871f90014",
            "SomeBinaryProperty@odata.type": "Edm.Binary",
            "SomeBinaryProperty": "AQIDBAU=",
            "SomeInt64Property@odata.type": "Edm.Int64",
            "SomeInt64Property": "14",
            "SomeDoubleProperty0": 14,
            "SomeDoubleProperty1": 14.1,
            "SomeIntProperty": 14,
            "Timestamp@odata.type": "Edm.DateTime",
            "Timestamp": "2020-07-27T17:23:18.1216776Z"
          },
          {
            "odata.etag": "W/\u0022datetime\u00272020-07-27T17%3A23%3A18.1808648Z\u0027\u0022",
            "PartitionKey": "somPartition",
            "RowKey": "15",
            "SomeStringProperty": "This is table entity number 15",
            "SomeDateProperty@odata.type": "Edm.DateTime",
            "SomeDateProperty": "2020-01-01T01:16:00.0000000Z",
            "SomeGuidProperty@odata.type": "Edm.Guid",
            "SomeGuidProperty": "0d391d16-97f1-4b9a-be68-4cc871f90015",
            "SomeBinaryProperty@odata.type": "Edm.Binary",
            "SomeBinaryProperty": "AQIDBAU=",
            "SomeInt64Property@odata.type": "Edm.Int64",
            "SomeInt64Property": "15",
            "SomeDoubleProperty0": 15,
            "SomeDoubleProperty1": 15.1,
            "SomeIntProperty": 15,
            "Timestamp@odata.type": "Edm.DateTime",
            "Timestamp": "2020-07-27T17:23:18.1808648Z"
          },
          {
            "odata.etag": "W/\u0022datetime\u00272020-07-27T17%3A23%3A18.2362632Z\u0027\u0022",
            "PartitionKey": "somPartition",
            "RowKey": "16",
            "SomeStringProperty": "This is table entity number 16",
            "SomeDateProperty@odata.type": "Edm.DateTime",
            "SomeDateProperty": "2020-01-01T01:17:00.0000000Z",
            "SomeGuidProperty@odata.type": "Edm.Guid",
            "SomeGuidProperty": "0d391d16-97f1-4b9a-be68-4cc871f90016",
            "SomeBinaryProperty@odata.type": "Edm.Binary",
            "SomeBinaryProperty": "AQIDBAU=",
            "SomeInt64Property@odata.type": "Edm.Int64",
            "SomeInt64Property": "16",
            "SomeDoubleProperty0": 16,
            "SomeDoubleProperty1": 16.1,
            "SomeIntProperty": 16,
            "Timestamp@odata.type": "Edm.DateTime",
            "Timestamp": "2020-07-27T17:23:18.2362632Z"
          },
          {
            "odata.etag": "W/\u0022datetime\u00272020-07-27T17%3A23%3A18.2960648Z\u0027\u0022",
            "PartitionKey": "somPartition",
            "RowKey": "17",
            "SomeStringProperty": "This is table entity number 17",
            "SomeDateProperty@odata.type": "Edm.DateTime",
            "SomeDateProperty": "2020-01-01T01:18:00.0000000Z",
            "SomeGuidProperty@odata.type": "Edm.Guid",
            "SomeGuidProperty": "0d391d16-97f1-4b9a-be68-4cc871f90017",
            "SomeBinaryProperty@odata.type": "Edm.Binary",
            "SomeBinaryProperty": "AQIDBAU=",
            "SomeInt64Property@odata.type": "Edm.Int64",
            "SomeInt64Property": "17",
            "SomeDoubleProperty0": 17,
            "SomeDoubleProperty1": 17.1,
            "SomeIntProperty": 17,
            "Timestamp@odata.type": "Edm.DateTime",
            "Timestamp": "2020-07-27T17:23:18.2960648Z"
          },
          {
            "odata.etag": "W/\u0022datetime\u00272020-07-27T17%3A23%3A18.3594504Z\u0027\u0022",
            "PartitionKey": "somPartition",
            "RowKey": "18",
            "SomeStringProperty": "This is table entity number 18",
            "SomeDateProperty@odata.type": "Edm.DateTime",
            "SomeDateProperty": "2020-01-01T01:19:00.0000000Z",
            "SomeGuidProperty@odata.type": "Edm.Guid",
            "SomeGuidProperty": "0d391d16-97f1-4b9a-be68-4cc871f90018",
            "SomeBinaryProperty@odata.type": "Edm.Binary",
            "SomeBinaryProperty": "AQIDBAU=",
            "SomeInt64Property@odata.type": "Edm.Int64",
            "SomeInt64Property": "18",
            "SomeDoubleProperty0": 18,
            "SomeDoubleProperty1": 18.1,
            "SomeIntProperty": 18,
            "Timestamp@odata.type": "Edm.DateTime",
            "Timestamp": "2020-07-27T17:23:18.3594504Z"
          },
          {
            "odata.etag": "W/\u0022datetime\u00272020-07-27T17%3A23%3A18.4208904Z\u0027\u0022",
            "PartitionKey": "somPartition",
            "RowKey": "19",
            "SomeStringProperty": "This is table entity number 19",
            "SomeDateProperty@odata.type": "Edm.DateTime",
            "SomeDateProperty": "2020-01-01T01:20:00.0000000Z",
            "SomeGuidProperty@odata.type": "Edm.Guid",
            "SomeGuidProperty": "0d391d16-97f1-4b9a-be68-4cc871f90019",
            "SomeBinaryProperty@odata.type": "Edm.Binary",
            "SomeBinaryProperty": "AQIDBAU=",
            "SomeInt64Property@odata.type": "Edm.Int64",
            "SomeInt64Property": "19",
            "SomeDoubleProperty0": 19,
            "SomeDoubleProperty1": 19.1,
            "SomeIntProperty": 19,
            "Timestamp@odata.type": "Edm.DateTime",
            "Timestamp": "2020-07-27T17:23:18.4208904Z"
          },
          {
            "odata.etag": "W/\u0022datetime\u00272020-07-27T17%3A23%3A18.4741384Z\u0027\u0022",
            "PartitionKey": "somPartition",
            "RowKey": "20",
            "SomeStringProperty": "This is table entity number 20",
            "SomeDateProperty@odata.type": "Edm.DateTime",
            "SomeDateProperty": "2020-01-01T01:21:00.0000000Z",
            "SomeGuidProperty@odata.type": "Edm.Guid",
            "SomeGuidProperty": "0d391d16-97f1-4b9a-be68-4cc871f90020",
            "SomeBinaryProperty@odata.type": "Edm.Binary",
            "SomeBinaryProperty": "AQIDBAU=",
            "SomeInt64Property@odata.type": "Edm.Int64",
            "SomeInt64Property": "20",
            "SomeDoubleProperty0": 20,
            "SomeDoubleProperty1": 20.1,
            "SomeIntProperty": 20,
            "Timestamp@odata.type": "Edm.DateTime",
            "Timestamp": "2020-07-27T17:23:18.4741384Z"
          }
        ]
      }
    },
    {
      "RequestUri": "https://allkimprim.table.cosmos.azure.com/Tables(\u0027testtablehylzfh6f\u0027)",
      "RequestMethod": "DELETE",
      "RequestHeaders": {
        "Accept": "application/json",
        "Authorization": "Sanitized",
        "traceparent": "00-1aaa844f365cd4498f2d91a01d52d205-d6b679228a4ff249-00",
        "User-Agent": [
          "azsdk-net-Data.Tables/1.0.0-dev.20200724.1",
          "(.NET Core 4.6.29017.01; Microsoft Windows 10.0.19041 )"
        ],
        "x-ms-client-request-id": "545e4c9b73cda551d3553fcbbe639ee4",
        "x-ms-date": "Mon, 27 Jul 2020 17:23:18 GMT",
        "x-ms-return-client-request-id": "true",
        "x-ms-version": "2019-02-02"
      },
      "RequestBody": null,
      "StatusCode": 204,
      "ResponseHeaders": {
        "Content-Length": "0",
        "Date": "Mon, 27 Jul 2020 17:23:18 GMT",
        "Server": "Microsoft-HTTPAPI/2.0",
        "x-ms-request-id": "545e4c9b-73cd-a551-d355-3fcbbe639ee4"
      },
      "ResponseBody": []
    }
  ],
  "Variables": {
    "RandomSeed": "114059248",
    "TABLES_COSMOS_ACCOUNT_NAME": "allkimprim",
    "TABLES_PRIMARY_COSMOS_ACCOUNT_KEY": ""
  }
}