{
  "Entries": [
    {
      "RequestUri": "https://chrissprim.table.cosmos.azure.com/Tables?$format=application%2Fjson%3Bodata%3Dfullmetadata",
      "RequestMethod": "POST",
      "RequestHeaders": {
        "Accept": "application/json",
        "Authorization": "Sanitized",
        "Content-Length": "33",
        "Content-Type": "application/json; odata=nometadata",
        "DataServiceVersion": "3.0",
        "traceparent": "00-ea00568e4f70de4cb9389332879dbce7-c108681cba0b754e-00",
        "User-Agent": [
          "azsdk-net-Data.Tables/1.0.0-dev.20200810.1",
          "(.NET Core 4.6.29017.01; Microsoft Windows 10.0.18363 )"
        ],
        "x-ms-client-request-id": "3e3c6e1194e56f0b0e6b2b256158adc2",
        "x-ms-date": "Mon, 10 Aug 2020 22:06:22 GMT",
        "x-ms-return-client-request-id": "true",
        "x-ms-version": "2019-02-02"
      },
      "RequestBody": {
        "TableName": "testtable0e71f32s"
      },
      "StatusCode": 201,
      "ResponseHeaders": {
        "Content-Type": "application/json",
        "Date": "Mon, 10 Aug 2020 22:06:38 GMT",
        "ETag": "W/\u0022datetime\u00272020-08-10T22%3A06%3A38.0705800Z\u0027\u0022",
        "Location": "https://chrissprim.table.cosmos.azure.com/Tables(\u0027testtable0e71f32s\u0027)",
        "Server": "Microsoft-HTTPAPI/2.0",
        "Transfer-Encoding": "chunked",
        "x-ms-request-id": "3e3c6e11-94e5-6f0b-0e6b-2b256158adc2"
      },
      "ResponseBody": {
        "TableName": "testtable0e71f32s",
        "odata.metadata": "https://chrissprim.table.cosmos.azure.com/$metadata#Tables/@Element"
      }
    },
    {
      "RequestUri": "https://chrissprim.table.cosmos.azure.com/Tables?$format=application%2Fjson%3Bodata%3Dfullmetadata",
      "RequestMethod": "POST",
      "RequestHeaders": {
        "Accept": "application/json",
        "Authorization": "Sanitized",
        "Content-Length": "33",
        "Content-Type": "application/json; odata=nometadata",
        "DataServiceVersion": "3.0",
        "traceparent": "00-02b276df137b4a40a78deaec5217eef5-1759a65295cfea40-00",
        "User-Agent": [
          "azsdk-net-Data.Tables/1.0.0-dev.20200810.1",
          "(.NET Core 4.6.29017.01; Microsoft Windows 10.0.18363 )"
        ],
        "x-ms-client-request-id": "fb6610caae8b147ca85727279eb09b61",
        "x-ms-date": "Mon, 10 Aug 2020 22:06:23 GMT",
        "x-ms-return-client-request-id": "true",
        "x-ms-version": "2019-02-02"
      },
      "RequestBody": {
        "TableName": "testtable0e71f32s"
      },
      "StatusCode": 409,
      "ResponseHeaders": {
        "Content-Type": "application/json",
        "Date": "Mon, 10 Aug 2020 22:06:38 GMT",
        "Server": "Microsoft-HTTPAPI/2.0",
        "Transfer-Encoding": "chunked",
        "x-ms-request-id": "fb6610ca-ae8b-147c-a857-27279eb09b61"
      },
      "ResponseBody": [
        "{\u0022odata.error\u0022:{\u0022code\u0022:\u0022TableAlreadyExists\u0022,\u0022message\u0022:{\u0022lang\u0022:\u0022en-us\u0022,\u0022value\u0022:\u0022The specified table already exists.\\nRequestID:fb6610ca-ae8b-147c-a857-27279eb09b61\\n\u0022}}}\r\n"
      ]
    },
    {
      "RequestUri": "https://chrissprim.table.cosmos.azure.com/Tables?$format=application%2Fjson%3Bodata%3Dfullmetadata",
      "RequestMethod": "POST",
      "RequestHeaders": {
        "Accept": "application/json",
        "Authorization": "Sanitized",
        "Content-Length": "33",
        "Content-Type": "application/json; odata=nometadata",
        "DataServiceVersion": "3.0",
        "traceparent": "00-46ae606a14fe27488ca119abb6786a79-8297f297507e2740-00",
        "User-Agent": [
          "azsdk-net-Data.Tables/1.0.0-dev.20200810.1",
          "(.NET Core 4.6.29017.01; Microsoft Windows 10.0.18363 )"
        ],
        "x-ms-client-request-id": "77fd80bcb26dbb29d7271211434ae463",
        "x-ms-date": "Mon, 10 Aug 2020 22:06:24 GMT",
        "x-ms-return-client-request-id": "true",
        "x-ms-version": "2019-02-02"
      },
      "RequestBody": {
        "TableName": "testtablez0ygcv1o"
      },
      "StatusCode": 201,
      "ResponseHeaders": {
        "Content-Type": "application/json",
        "Date": "Mon, 10 Aug 2020 22:06:38 GMT",
        "ETag": "W/\u0022datetime\u00272020-08-10T22%3A06%3A38.7868680Z\u0027\u0022",
        "Location": "https://chrissprim.table.cosmos.azure.com/Tables(\u0027testtablez0ygcv1o\u0027)",
        "Server": "Microsoft-HTTPAPI/2.0",
        "Transfer-Encoding": "chunked",
        "x-ms-request-id": "77fd80bc-b26d-bb29-d727-1211434ae463"
      },
      "ResponseBody": {
        "TableName": "testtablez0ygcv1o",
        "odata.metadata": "https://chrissprim.table.cosmos.azure.com/$metadata#Tables/@Element"
      }
    },
    {
      "RequestUri": "https://chrissprim.table.cosmos.azure.com/Tables(\u0027testtable0e71f32s\u0027)",
      "RequestMethod": "DELETE",
      "RequestHeaders": {
        "Accept": "application/json",
        "Authorization": "Sanitized",
        "traceparent": "00-0cdfd1ca5880b5498e08cf69c71c0679-77b3f2430805994e-00",
        "User-Agent": [
          "azsdk-net-Data.Tables/1.0.0-dev.20200810.1",
          "(.NET Core 4.6.29017.01; Microsoft Windows 10.0.18363 )"
        ],
        "x-ms-client-request-id": "8d9628f2e36c5dd1d0c9044557879670",
        "x-ms-date": "Mon, 10 Aug 2020 22:06:24 GMT",
        "x-ms-return-client-request-id": "true",
        "x-ms-version": "2019-02-02"
      },
      "RequestBody": null,
      "StatusCode": 204,
      "ResponseHeaders": {
        "Content-Length": "0",
        "Date": "Mon, 10 Aug 2020 22:06:38 GMT",
        "Server": "Microsoft-HTTPAPI/2.0",
        "x-ms-request-id": "8d9628f2-e36c-5dd1-d0c9-044557879670"
      },
      "ResponseBody": []
    }
  ],
  "Variables": {
    "RandomSeed": "2019404461",
    "TABLES_COSMOS_ACCOUNT_NAME": "chrissprim",
    "TABLES_PRIMARY_COSMOS_ACCOUNT_KEY": ""
  }
}