{
  "Entries": [
    {
      "RequestUri": "https://allkimprim.table.cosmos.azure.com/Tables?$format=application%2Fjson%3Bodata%3Dfullmetadata",
      "RequestMethod": "POST",
      "RequestHeaders": {
        "Accept": "application/json",
        "Authorization": "Sanitized",
        "Content-Length": "33",
        "Content-Type": "application/json; odata=nometadata",
        "DataServiceVersion": "3.0",
        "traceparent": "00-23dbedd38b503f469df9c4804049fabd-651c211ce5f1cf4a-00",
        "User-Agent": [
          "azsdk-net-Data.Tables/1.0.0-dev.20200724.1",
          "(.NET Core 4.6.29017.01; Microsoft Windows 10.0.19041 )"
        ],
        "x-ms-client-request-id": "d6ba7705190c35e88dae9a4284c6532c",
        "x-ms-date": "Mon, 27 Jul 2020 17:23:05 GMT",
        "x-ms-return-client-request-id": "true",
        "x-ms-version": "2019-02-02"
      },
      "RequestBody": {
        "TableName": "testtableq6v37yiv"
      },
      "StatusCode": 201,
      "ResponseHeaders": {
        "Content-Type": "application/json",
        "Date": "Mon, 27 Jul 2020 17:23:05 GMT",
        "ETag": "W/\u0022datetime\u00272020-07-27T17%3A23%3A05.2770312Z\u0027\u0022",
        "Location": "https://allkimprim.table.cosmos.azure.com/Tables(\u0027testtableq6v37yiv\u0027)",
        "Server": "Microsoft-HTTPAPI/2.0",
        "Transfer-Encoding": "chunked",
        "x-ms-request-id": "d6ba7705-190c-35e8-8dae-9a4284c6532c"
      },
      "ResponseBody": {
        "TableName": "testtableq6v37yiv",
        "odata.metadata": "https://allkimprim.table.cosmos.azure.com/$metadata#Tables/@Element"
      }
    },
    {
      "RequestUri": "https://allkimprim.table.cosmos.azure.com/Tables(\u0027testtableq6v37yiv\u0027)",
      "RequestMethod": "DELETE",
      "RequestHeaders": {
        "Accept": "application/json",
        "Authorization": "Sanitized",
        "traceparent": "00-4dc73620dab85f47adabfa72a4c0b850-2b9fd86213f5334a-00",
        "User-Agent": [
          "azsdk-net-Data.Tables/1.0.0-dev.20200724.1",
          "(.NET Core 4.6.29017.01; Microsoft Windows 10.0.19041 )"
        ],
        "x-ms-client-request-id": "6b47853df2c23cfd47ff10ce40799ecf",
        "x-ms-date": "Mon, 27 Jul 2020 17:23:05 GMT",
        "x-ms-return-client-request-id": "true",
        "x-ms-version": "2019-02-02"
      },
      "RequestBody": null,
      "StatusCode": 204,
      "ResponseHeaders": {
        "Content-Length": "0",
        "Date": "Mon, 27 Jul 2020 17:23:05 GMT",
        "Server": "Microsoft-HTTPAPI/2.0",
        "x-ms-request-id": "6b47853d-f2c2-3cfd-47ff-10ce40799ecf"
      },
      "ResponseBody": []
    }
  ],
  "Variables": {
    "RandomSeed": "1024462870",
    "TABLES_COSMOS_ACCOUNT_NAME": "allkimprim",
    "TABLES_PRIMARY_COSMOS_ACCOUNT_KEY": ""
  }
}