{
  "Entries": [
    {
      "RequestUri": "https://mariari-westus2-formrecognizer.cognitiveservices.azure.com/formrecognizer/v2.0/custom/models",
      "RequestMethod": "POST",
      "RequestHeaders": {
        "Content-Length": "42",
        "Content-Type": "application/json",
        "Ocp-Apim-Subscription-Key": "Sanitized",
        "traceparent": "00-72b56d4f81a9c4408a25bbed363d1cee-9929ba8d50a1a54d-00",
        "User-Agent": [
          "azsdk-net-AI.FormRecognizer/3.0.0-dev.20200806.1",
          "(.NET Core 4.6.28516.03; Microsoft Windows 10.0.18363 )"
        ],
        "x-ms-client-request-id": "12faa51678b40df9a0206dafb46c701d",
        "x-ms-return-client-request-id": "true"
      },
      "RequestBody": {
        "source": "Sanitized",
        "useLabelFile": true
      },
      "StatusCode": 201,
      "ResponseHeaders": {
        "apim-request-id": "2d59c91f-8b64-45a7-9a1f-2868b5ca0cb3",
        "Content-Length": "0",
        "Date": "Fri, 07 Aug 2020 02:26:22 GMT",
        "Location": "https://mariari-westus2-formrecognizer.cognitiveservices.azure.com/formrecognizer/v2.0/custom/models/b8106df0-8841-4348-802f-cc433d7e1472",
        "Strict-Transport-Security": "max-age=31536000; includeSubDomains; preload",
        "X-Content-Type-Options": "nosniff",
        "x-envoy-upstream-service-time": "5097"
      },
      "ResponseBody": []
    },
    {
      "RequestUri": "https://mariari-westus2-formrecognizer.cognitiveservices.azure.com/formrecognizer/v2.0/custom/models/b8106df0-8841-4348-802f-cc433d7e1472?includeKeys=true",
      "RequestMethod": "GET",
      "RequestHeaders": {
        "Ocp-Apim-Subscription-Key": "Sanitized",
        "User-Agent": [
          "azsdk-net-AI.FormRecognizer/3.0.0-dev.20200806.1",
          "(.NET Core 4.6.28516.03; Microsoft Windows 10.0.18363 )"
        ],
        "x-ms-client-request-id": "ab1c422cd0bb94c67b8586be93f0fb91",
        "x-ms-return-client-request-id": "true"
      },
      "RequestBody": null,
      "StatusCode": 200,
      "ResponseHeaders": {
        "apim-request-id": "839d4e60-353a-499d-8c8c-2c51f06b8833",
        "Content-Type": "application/json; charset=utf-8",
        "Date": "Fri, 07 Aug 2020 02:26:22 GMT",
        "Strict-Transport-Security": "max-age=31536000; includeSubDomains; preload",
        "Transfer-Encoding": "chunked",
        "X-Content-Type-Options": "nosniff",
        "x-envoy-upstream-service-time": "25"
      },
      "ResponseBody": {
        "modelInfo": {
          "modelId": "b8106df0-8841-4348-802f-cc433d7e1472",
          "status": "creating",
          "createdDateTime": "2020-08-07T02:26:17Z",
          "lastUpdatedDateTime": "2020-08-07T02:26:17Z"
        }
      }
    },
    {
      "RequestUri": "https://mariari-westus2-formrecognizer.cognitiveservices.azure.com/formrecognizer/v2.0/custom/models/b8106df0-8841-4348-802f-cc433d7e1472?includeKeys=true",
      "RequestMethod": "GET",
      "RequestHeaders": {
        "Ocp-Apim-Subscription-Key": "Sanitized",
        "User-Agent": [
          "azsdk-net-AI.FormRecognizer/3.0.0-dev.20200806.1",
          "(.NET Core 4.6.28516.03; Microsoft Windows 10.0.18363 )"
        ],
        "x-ms-client-request-id": "afb9ce18cda10033c7cae9819a7af6b4",
        "x-ms-return-client-request-id": "true"
      },
      "RequestBody": null,
      "StatusCode": 200,
      "ResponseHeaders": {
        "apim-request-id": "89b5e5e8-83b0-4547-b6de-afa493cd68b4",
        "Content-Type": "application/json; charset=utf-8",
        "Date": "Fri, 07 Aug 2020 02:26:23 GMT",
        "Strict-Transport-Security": "max-age=31536000; includeSubDomains; preload",
        "Transfer-Encoding": "chunked",
        "X-Content-Type-Options": "nosniff",
        "x-envoy-upstream-service-time": "22"
      },
      "ResponseBody": {
        "modelInfo": {
          "modelId": "b8106df0-8841-4348-802f-cc433d7e1472",
          "status": "creating",
          "createdDateTime": "2020-08-07T02:26:17Z",
          "lastUpdatedDateTime": "2020-08-07T02:26:17Z"
        }
      }
    },
    {
      "RequestUri": "https://mariari-westus2-formrecognizer.cognitiveservices.azure.com/formrecognizer/v2.0/custom/models/b8106df0-8841-4348-802f-cc433d7e1472?includeKeys=true",
      "RequestMethod": "GET",
      "RequestHeaders": {
        "Ocp-Apim-Subscription-Key": "Sanitized",
        "User-Agent": [
          "azsdk-net-AI.FormRecognizer/3.0.0-dev.20200806.1",
          "(.NET Core 4.6.28516.03; Microsoft Windows 10.0.18363 )"
        ],
        "x-ms-client-request-id": "9918a59ac8b3463ede66972ef13b79b0",
        "x-ms-return-client-request-id": "true"
      },
      "RequestBody": null,
      "StatusCode": 200,
      "ResponseHeaders": {
        "apim-request-id": "33e35a03-3f0f-4b26-b53f-63f7d6ecb759",
        "Content-Type": "application/json; charset=utf-8",
        "Date": "Fri, 07 Aug 2020 02:26:24 GMT",
        "Strict-Transport-Security": "max-age=31536000; includeSubDomains; preload",
        "Transfer-Encoding": "chunked",
        "X-Content-Type-Options": "nosniff",
        "x-envoy-upstream-service-time": "20"
      },
      "ResponseBody": {
        "modelInfo": {
          "modelId": "b8106df0-8841-4348-802f-cc433d7e1472",
          "status": "creating",
          "createdDateTime": "2020-08-07T02:26:17Z",
          "lastUpdatedDateTime": "2020-08-07T02:26:17Z"
        }
      }
    },
    {
      "RequestUri": "https://mariari-westus2-formrecognizer.cognitiveservices.azure.com/formrecognizer/v2.0/custom/models/b8106df0-8841-4348-802f-cc433d7e1472?includeKeys=true",
      "RequestMethod": "GET",
      "RequestHeaders": {
        "Ocp-Apim-Subscription-Key": "Sanitized",
        "User-Agent": [
          "azsdk-net-AI.FormRecognizer/3.0.0-dev.20200806.1",
          "(.NET Core 4.6.28516.03; Microsoft Windows 10.0.18363 )"
        ],
        "x-ms-client-request-id": "e597db25c0b35e7c0e1be4f1e645f900",
        "x-ms-return-client-request-id": "true"
      },
      "RequestBody": null,
      "StatusCode": 200,
      "ResponseHeaders": {
        "apim-request-id": "852613e4-1786-47e2-b7b7-2e7a09ecec88",
        "Content-Type": "application/json; charset=utf-8",
        "Date": "Fri, 07 Aug 2020 02:26:26 GMT",
        "Strict-Transport-Security": "max-age=31536000; includeSubDomains; preload",
        "Transfer-Encoding": "chunked",
        "X-Content-Type-Options": "nosniff",
        "x-envoy-upstream-service-time": "21"
      },
      "ResponseBody": {
        "modelInfo": {
          "modelId": "b8106df0-8841-4348-802f-cc433d7e1472",
          "status": "ready",
          "createdDateTime": "2020-08-07T02:26:17Z",
          "lastUpdatedDateTime": "2020-08-07T02:26:26Z"
        },
        "trainResult": {
          "averageModelAccuracy": 0.973,
          "trainingDocuments": [
            {
              "documentName": "Form_1.jpg",
              "pages": 1,
              "status": "succeeded"
            },
            {
              "documentName": "Form_2.jpg",
              "pages": 1,
              "status": "succeeded"
            },
            {
              "documentName": "Form_3.jpg",
              "pages": 1,
              "status": "succeeded"
            },
            {
              "documentName": "Form_4.jpg",
              "pages": 1,
              "status": "succeeded"
            },
            {
              "documentName": "Form_5.jpg",
              "pages": 1,
              "status": "succeeded"
            }
          ],
          "fields": [
            {
              "fieldName": "CompanyAddress",
              "accuracy": 0.8
            },
            {
              "fieldName": "CompanyName",
              "accuracy": 1.0
            },
            {
              "fieldName": "CompanyPhoneNumber",
              "accuracy": 1.0
            },
            {
              "fieldName": "DatedAs",
              "accuracy": 1.0
            },
            {
              "fieldName": "Email",
              "accuracy": 0.8
            },
            {
              "fieldName": "Merchant",
              "accuracy": 1.0
            },
            {
              "fieldName": "PhoneNumber",
              "accuracy": 1.0
            },
            {
              "fieldName": "PurchaseOrderNumber",
              "accuracy": 1.0
            },
            {
              "fieldName": "Quantity",
              "accuracy": 1.0
            },
            {
              "fieldName": "Signature",
              "accuracy": 1.0
            },
            {
              "fieldName": "Subtotal",
              "accuracy": 1.0
            },
            {
              "fieldName": "Tax",
              "accuracy": 1.0
            },
            {
              "fieldName": "Total",
              "accuracy": 1.0
            },
            {
              "fieldName": "VendorName",
              "accuracy": 1.0
            },
            {
              "fieldName": "Website",
              "accuracy": 1.0
            }
          ],
          "errors": []
        }
      }
    },
    {
      "RequestUri": "https://mariari-westus2-formrecognizer.cognitiveservices.azure.com/formrecognizer/v2.0/custom/models/b8106df0-8841-4348-802f-cc433d7e1472/analyze?includeTextDetails=false",
      "RequestMethod": "POST",
      "RequestHeaders": {
        "Content-Length": "22",
        "Content-Type": "application/json",
        "Ocp-Apim-Subscription-Key": "Sanitized",
        "traceparent": "00-486134b91b61634f97caf773a32dc3db-44aad227ca41bd4a-00",
        "User-Agent": [
          "azsdk-net-AI.FormRecognizer/3.0.0-dev.20200806.1",
          "(.NET Core 4.6.28516.03; Microsoft Windows 10.0.18363 )"
        ],
        "x-ms-client-request-id": "ee24d28e62d74fde9072d03a35040f8b",
        "x-ms-return-client-request-id": "true"
      },
      "RequestBody": {
        "source": "Sanitized"
      },
      "StatusCode": 202,
      "ResponseHeaders": {
        "apim-request-id": "b2e89aa9-03f2-4cfc-8fd4-f0a660bc3eaf",
        "Content-Length": "0",
        "Date": "Fri, 07 Aug 2020 02:26:30 GMT",
        "Operation-Location": "https://mariari-westus2-formrecognizer.cognitiveservices.azure.com/formrecognizer/v2.0/custom/models/b8106df0-8841-4348-802f-cc433d7e1472/analyzeresults/ee7393d2-264c-4874-9f95-93807f56ce82",
        "Strict-Transport-Security": "max-age=31536000; includeSubDomains; preload",
        "X-Content-Type-Options": "nosniff",
        "x-envoy-upstream-service-time": "5100"
      },
      "ResponseBody": []
    },
    {
      "RequestUri": "https://mariari-westus2-formrecognizer.cognitiveservices.azure.com/formrecognizer/v2.0/custom/models/b8106df0-8841-4348-802f-cc433d7e1472/analyzeResults/ee7393d2-264c-4874-9f95-93807f56ce82",
      "RequestMethod": "GET",
      "RequestHeaders": {
        "Ocp-Apim-Subscription-Key": "Sanitized",
        "User-Agent": [
          "azsdk-net-AI.FormRecognizer/3.0.0-dev.20200806.1",
          "(.NET Core 4.6.28516.03; Microsoft Windows 10.0.18363 )"
        ],
        "x-ms-client-request-id": "be5b395010e2d90028ba8a98e44d5f99",
        "x-ms-return-client-request-id": "true"
      },
      "RequestBody": null,
      "StatusCode": 200,
      "ResponseHeaders": {
        "apim-request-id": "f22ddb30-a1e8-4c8b-ab5d-9d51689107b8",
        "Content-Length": "109",
        "Content-Type": "application/json; charset=utf-8",
        "Date": "Fri, 07 Aug 2020 02:26:30 GMT",
        "Strict-Transport-Security": "max-age=31536000; includeSubDomains; preload",
        "X-Content-Type-Options": "nosniff",
        "x-envoy-upstream-service-time": "46"
      },
      "ResponseBody": {
        "status": "notStarted",
        "createdDateTime": "2020-08-07T02:26:26Z",
        "lastUpdatedDateTime": "2020-08-07T02:26:26Z"
      }
    },
    {
      "RequestUri": "https://mariari-westus2-formrecognizer.cognitiveservices.azure.com/formrecognizer/v2.0/custom/models/b8106df0-8841-4348-802f-cc433d7e1472/analyzeResults/ee7393d2-264c-4874-9f95-93807f56ce82",
      "RequestMethod": "GET",
      "RequestHeaders": {
        "Ocp-Apim-Subscription-Key": "Sanitized",
        "User-Agent": [
          "azsdk-net-AI.FormRecognizer/3.0.0-dev.20200806.1",
          "(.NET Core 4.6.28516.03; Microsoft Windows 10.0.18363 )"
        ],
        "x-ms-client-request-id": "1ea0966d8b17c3d8fd475540f0422809",
        "x-ms-return-client-request-id": "true"
      },
      "RequestBody": null,
      "StatusCode": 200,
      "ResponseHeaders": {
        "apim-request-id": "7d8cb90f-83d9-4a75-95ce-9c90a4b11cd1",
        "Content-Length": "109",
        "Content-Type": "application/json; charset=utf-8",
        "Date": "Fri, 07 Aug 2020 02:26:31 GMT",
        "Strict-Transport-Security": "max-age=31536000; includeSubDomains; preload",
        "X-Content-Type-Options": "nosniff",
        "x-envoy-upstream-service-time": "18"
      },
      "ResponseBody": {
        "status": "notStarted",
        "createdDateTime": "2020-08-07T02:26:26Z",
        "lastUpdatedDateTime": "2020-08-07T02:26:26Z"
      }
    },
    {
      "RequestUri": "https://mariari-westus2-formrecognizer.cognitiveservices.azure.com/formrecognizer/v2.0/custom/models/b8106df0-8841-4348-802f-cc433d7e1472/analyzeResults/ee7393d2-264c-4874-9f95-93807f56ce82",
      "RequestMethod": "GET",
      "RequestHeaders": {
        "Ocp-Apim-Subscription-Key": "Sanitized",
        "User-Agent": [
          "azsdk-net-AI.FormRecognizer/3.0.0-dev.20200806.1",
          "(.NET Core 4.6.28516.03; Microsoft Windows 10.0.18363 )"
        ],
        "x-ms-client-request-id": "ada1580b3ae97e1ed14ac51dd7456b42",
        "x-ms-return-client-request-id": "true"
      },
      "RequestBody": null,
      "StatusCode": 200,
      "ResponseHeaders": {
        "apim-request-id": "29f8834e-60a5-48ad-aed0-0f05b9ad4612",
        "Content-Length": "109",
        "Content-Type": "application/json; charset=utf-8",
        "Date": "Fri, 07 Aug 2020 02:26:32 GMT",
        "Strict-Transport-Security": "max-age=31536000; includeSubDomains; preload",
        "X-Content-Type-Options": "nosniff",
        "x-envoy-upstream-service-time": "21"
      },
      "ResponseBody": {
        "status": "notStarted",
        "createdDateTime": "2020-08-07T02:26:26Z",
        "lastUpdatedDateTime": "2020-08-07T02:26:26Z"
      }
    },
    {
      "RequestUri": "https://mariari-westus2-formrecognizer.cognitiveservices.azure.com/formrecognizer/v2.0/custom/models/b8106df0-8841-4348-802f-cc433d7e1472/analyzeResults/ee7393d2-264c-4874-9f95-93807f56ce82",
      "RequestMethod": "GET",
      "RequestHeaders": {
        "Ocp-Apim-Subscription-Key": "Sanitized",
        "User-Agent": [
          "azsdk-net-AI.FormRecognizer/3.0.0-dev.20200806.1",
          "(.NET Core 4.6.28516.03; Microsoft Windows 10.0.18363 )"
        ],
        "x-ms-client-request-id": "9fcd3712f064c4746097c19abac0e9e6",
        "x-ms-return-client-request-id": "true"
      },
      "RequestBody": null,
      "StatusCode": 200,
      "ResponseHeaders": {
        "apim-request-id": "666f22cf-5298-402f-a1cb-accb0b0dfd8e",
        "Content-Length": "109",
        "Content-Type": "application/json; charset=utf-8",
        "Date": "Fri, 07 Aug 2020 02:26:33 GMT",
        "Strict-Transport-Security": "max-age=31536000; includeSubDomains; preload",
        "X-Content-Type-Options": "nosniff",
        "x-envoy-upstream-service-time": "112"
      },
      "ResponseBody": {
        "status": "notStarted",
        "createdDateTime": "2020-08-07T02:26:26Z",
        "lastUpdatedDateTime": "2020-08-07T02:26:26Z"
      }
    },
    {
      "RequestUri": "https://mariari-westus2-formrecognizer.cognitiveservices.azure.com/formrecognizer/v2.0/custom/models/b8106df0-8841-4348-802f-cc433d7e1472/analyzeResults/ee7393d2-264c-4874-9f95-93807f56ce82",
      "RequestMethod": "GET",
      "RequestHeaders": {
        "Ocp-Apim-Subscription-Key": "Sanitized",
        "User-Agent": [
          "azsdk-net-AI.FormRecognizer/3.0.0-dev.20200806.1",
          "(.NET Core 4.6.28516.03; Microsoft Windows 10.0.18363 )"
        ],
        "x-ms-client-request-id": "8c8c8191b2ac32af78224dccc6bbecb7",
        "x-ms-return-client-request-id": "true"
      },
      "RequestBody": null,
      "StatusCode": 200,
      "ResponseHeaders": {
        "apim-request-id": "917f9649-be7f-4ccf-b5a5-19f0b46f78c6",
        "Content-Length": "109",
        "Content-Type": "application/json; charset=utf-8",
        "Date": "Fri, 07 Aug 2020 02:26:34 GMT",
        "Strict-Transport-Security": "max-age=31536000; includeSubDomains; preload",
        "X-Content-Type-Options": "nosniff",
        "x-envoy-upstream-service-time": "26"
      },
      "ResponseBody": {
        "status": "notStarted",
        "createdDateTime": "2020-08-07T02:26:26Z",
        "lastUpdatedDateTime": "2020-08-07T02:26:26Z"
      }
    },
    {
      "RequestUri": "https://mariari-westus2-formrecognizer.cognitiveservices.azure.com/formrecognizer/v2.0/custom/models/b8106df0-8841-4348-802f-cc433d7e1472/analyzeResults/ee7393d2-264c-4874-9f95-93807f56ce82",
      "RequestMethod": "GET",
      "RequestHeaders": {
        "Ocp-Apim-Subscription-Key": "Sanitized",
        "User-Agent": [
          "azsdk-net-AI.FormRecognizer/3.0.0-dev.20200806.1",
          "(.NET Core 4.6.28516.03; Microsoft Windows 10.0.18363 )"
        ],
        "x-ms-client-request-id": "b92d12dc89741ba4e3dc4d527983c311",
        "x-ms-return-client-request-id": "true"
      },
      "RequestBody": null,
      "StatusCode": 200,
      "ResponseHeaders": {
        "apim-request-id": "7d9a2e35-ecbe-4a75-9d20-227d28154871",
        "Content-Length": "109",
        "Content-Type": "application/json; charset=utf-8",
        "Date": "Fri, 07 Aug 2020 02:26:35 GMT",
        "Strict-Transport-Security": "max-age=31536000; includeSubDomains; preload",
        "X-Content-Type-Options": "nosniff",
        "x-envoy-upstream-service-time": "23"
      },
      "ResponseBody": {
        "status": "notStarted",
        "createdDateTime": "2020-08-07T02:26:26Z",
        "lastUpdatedDateTime": "2020-08-07T02:26:36Z"
      }
    },
    {
      "RequestUri": "https://mariari-westus2-formrecognizer.cognitiveservices.azure.com/formrecognizer/v2.0/custom/models/b8106df0-8841-4348-802f-cc433d7e1472/analyzeResults/ee7393d2-264c-4874-9f95-93807f56ce82",
      "RequestMethod": "GET",
      "RequestHeaders": {
        "Ocp-Apim-Subscription-Key": "Sanitized",
        "User-Agent": [
          "azsdk-net-AI.FormRecognizer/3.0.0-dev.20200806.1",
          "(.NET Core 4.6.28516.03; Microsoft Windows 10.0.18363 )"
        ],
        "x-ms-client-request-id": "568cde61dfb96096879a2642a3a7fea5",
        "x-ms-return-client-request-id": "true"
      },
      "RequestBody": null,
      "StatusCode": 200,
      "ResponseHeaders": {
        "apim-request-id": "a61037ab-8830-4916-a0a8-deb529ba7def",
        "Content-Length": "109",
        "Content-Type": "application/json; charset=utf-8",
        "Date": "Fri, 07 Aug 2020 02:26:36 GMT",
        "Strict-Transport-Security": "max-age=31536000; includeSubDomains; preload",
        "X-Content-Type-Options": "nosniff",
        "x-envoy-upstream-service-time": "20"
      },
      "ResponseBody": {
        "status": "notStarted",
        "createdDateTime": "2020-08-07T02:26:26Z",
        "lastUpdatedDateTime": "2020-08-07T02:26:36Z"
      }
    },
    {
      "RequestUri": "https://mariari-westus2-formrecognizer.cognitiveservices.azure.com/formrecognizer/v2.0/custom/models/b8106df0-8841-4348-802f-cc433d7e1472/analyzeResults/ee7393d2-264c-4874-9f95-93807f56ce82",
      "RequestMethod": "GET",
      "RequestHeaders": {
        "Ocp-Apim-Subscription-Key": "Sanitized",
        "User-Agent": [
          "azsdk-net-AI.FormRecognizer/3.0.0-dev.20200806.1",
          "(.NET Core 4.6.28516.03; Microsoft Windows 10.0.18363 )"
        ],
        "x-ms-client-request-id": "a7be09ab30920771dc71a8cf645db9f5",
        "x-ms-return-client-request-id": "true"
      },
      "RequestBody": null,
      "StatusCode": 200,
      "ResponseHeaders": {
        "apim-request-id": "bc0bbc3a-bbef-4280-ae84-89dff0b96480",
        "Content-Length": "109",
        "Content-Type": "application/json; charset=utf-8",
        "Date": "Fri, 07 Aug 2020 02:26:37 GMT",
        "Strict-Transport-Security": "max-age=31536000; includeSubDomains; preload",
        "X-Content-Type-Options": "nosniff",
        "x-envoy-upstream-service-time": "24"
      },
      "ResponseBody": {
        "status": "notStarted",
        "createdDateTime": "2020-08-07T02:26:26Z",
        "lastUpdatedDateTime": "2020-08-07T02:26:36Z"
      }
    },
    {
      "RequestUri": "https://mariari-westus2-formrecognizer.cognitiveservices.azure.com/formrecognizer/v2.0/custom/models/b8106df0-8841-4348-802f-cc433d7e1472/analyzeResults/ee7393d2-264c-4874-9f95-93807f56ce82",
      "RequestMethod": "GET",
      "RequestHeaders": {
        "Ocp-Apim-Subscription-Key": "Sanitized",
        "User-Agent": [
          "azsdk-net-AI.FormRecognizer/3.0.0-dev.20200806.1",
          "(.NET Core 4.6.28516.03; Microsoft Windows 10.0.18363 )"
        ],
        "x-ms-client-request-id": "e76b3b5e962efcfe7ccd32da6361773b",
        "x-ms-return-client-request-id": "true"
      },
      "RequestBody": null,
      "StatusCode": 200,
      "ResponseHeaders": {
        "apim-request-id": "bf093679-77a3-4917-8881-b28122397c69",
        "Content-Length": "5839",
        "Content-Type": "application/json; charset=utf-8",
        "Date": "Fri, 07 Aug 2020 02:26:40 GMT",
        "Strict-Transport-Security": "max-age=31536000; includeSubDomains; preload",
        "X-Content-Type-Options": "nosniff",
        "x-envoy-upstream-service-time": "28"
      },
      "ResponseBody": {
        "status": "succeeded",
        "createdDateTime": "2020-08-07T02:26:26Z",
        "lastUpdatedDateTime": "2020-08-07T02:26:39Z",
        "analyzeResult": {
          "version": "2.0.0",
          "readResults": [
            {
              "page": 1,
              "language": "en",
              "angle": 0,
              "width": 1700,
              "height": 2200,
              "unit": "pixel"
            }
          ],
          "pageResults": [
            {
              "page": 1,
              "tables": [
                {
                  "rows": 4,
                  "columns": 3,
                  "cells": [
                    {
                      "rowIndex": 1,
                      "columnIndex": 1,
                      "text": "SUBTOTAL",
                      "boundingBox": [
                        1072,
                        1566,
                        1309,
                        1566,
                        1309,
                        1610,
                        1072,
                        1610
                      ]
                    },
                    {
                      "rowIndex": 1,
                      "columnIndex": 2,
                      "text": "$140.00",
                      "boundingBox": [
                        1309,
                        1566,
                        1544,
                        1566,
                        1544,
                        1610,
                        1309,
                        1610
                      ]
                    },
                    {
                      "rowIndex": 2,
                      "columnIndex": 1,
                      "text": "TAX",
                      "boundingBox": [
                        1072,
                        1610,
                        1309,
                        1610,
                        1309,
                        1658,
                        1072,
                        1658
                      ]
                    },
                    {
                      "rowIndex": 2,
                      "columnIndex": 2,
                      "text": "$4.00",
                      "boundingBox": [
                        1309,
                        1610,
                        1544,
                        1610,
                        1544,
                        1658,
                        1309,
                        1658
                      ]
                    },
                    {
                      "rowIndex": 3,
                      "columnIndex": 0,
                      "text": "Bernie Sanders",
                      "boundingBox": [
                        482,
                        1658,
                        1072,
                        1658,
                        1072,
                        1708,
                        482,
                        1708
                      ]
                    },
                    {
                      "rowIndex": 3,
                      "columnIndex": 1,
                      "text": "TOTAL",
                      "boundingBox": [
                        1072,
                        1658,
                        1309,
                        1658,
                        1309,
                        1708,
                        1072,
                        1708
                      ]
                    },
                    {
                      "rowIndex": 3,
                      "columnIndex": 2,
                      "text": "$144.00",
                      "boundingBox": [
                        1309,
                        1658,
                        1544,
                        1658,
                        1544,
                        1708,
                        1309,
                        1708
                      ]
                    }
                  ]
                },
                {
                  "rows": 6,
                  "columns": 4,
                  "cells": [
                    {
                      "rowIndex": 0,
                      "columnIndex": 0,
                      "text": "Details",
                      "boundingBox": [
                        156,
                        1038,
                        847,
                        1038,
                        847,
                        1087,
                        156,
                        1087
                      ]
                    },
                    {
                      "rowIndex": 0,
                      "columnIndex": 1,
                      "text": "Quantity",
                      "boundingBox": [
                        847,
                        1038,
                        1072,
                        1038,
                        1072,
                        1087,
                        847,
                        1087
                      ]
                    },
                    {
                      "rowIndex": 0,
                      "columnIndex": 2,
                      "text": "Unit Price",
                      "boundingBox": [
                        1072,
                        1038,
                        1309,
                        1038,
                        1309,
                        1087,
                        1072,
                        1087
                      ]
                    },
                    {
                      "rowIndex": 0,
                      "columnIndex": 3,
                      "text": "Total",
                      "boundingBox": [
                        1309,
                        1038,
                        1544,
                        1038,
                        1544,
                        1087,
                        1309,
                        1087
                      ]
                    },
                    {
                      "rowIndex": 1,
                      "columnIndex": 0,
                      "text": "Bindings",
                      "boundingBox": [
                        156,
                        1087,
                        847,
                        1087,
                        847,
                        1128,
                        156,
                        1128
                      ]
                    },
                    {
                      "rowIndex": 1,
                      "columnIndex": 1,
                      "text": "20",
                      "boundingBox": [
                        847,
                        1087,
                        1072,
                        1087,
                        1072,
                        1128,
                        847,
                        1128
                      ]
                    },
                    {
                      "rowIndex": 1,
                      "columnIndex": 2,
                      "text": "1.00",
                      "boundingBox": [
                        1072,
                        1087,
                        1309,
                        1087,
                        1309,
                        1128,
                        1072,
                        1128
                      ]
                    },
                    {
                      "rowIndex": 1,
                      "columnIndex": 3,
                      "text": "20.00",
                      "boundingBox": [
                        1309,
                        1087,
                        1544,
                        1087,
                        1544,
                        1128,
                        1309,
                        1128
                      ]
                    },
                    {
                      "rowIndex": 2,
                      "columnIndex": 0,
                      "text": "Covers Small",
                      "boundingBox": [
                        156,
                        1128,
                        847,
                        1128,
                        847,
                        1172,
                        156,
                        1172
                      ]
                    },
                    {
                      "rowIndex": 2,
                      "columnIndex": 1,
                      "text": "20",
                      "boundingBox": [
                        847,
                        1128,
                        1072,
                        1128,
                        1072,
                        1172,
                        847,
                        1172
                      ]
                    },
                    {
                      "rowIndex": 2,
                      "columnIndex": 2,
                      "text": "1.00",
                      "boundingBox": [
                        1072,
                        1128,
                        1309,
                        1128,
                        1309,
                        1172,
                        1072,
                        1172
                      ]
                    },
                    {
                      "rowIndex": 2,
                      "columnIndex": 3,
                      "text": "20.00",
                      "boundingBox": [
                        1309,
                        1128,
                        1544,
                        1128,
                        1544,
                        1172,
                        1309,
                        1172
                      ]
                    },
                    {
                      "rowIndex": 3,
                      "columnIndex": 0,
                      "text": "Feather Bookmark",
                      "boundingBox": [
                        156,
                        1172,
                        847,
                        1172,
                        847,
                        1216,
                        156,
                        1216
                      ]
                    },
                    {
                      "rowIndex": 3,
                      "columnIndex": 1,
                      "text": "20",
                      "boundingBox": [
                        847,
                        1172,
                        1072,
                        1172,
                        1072,
                        1216,
                        847,
                        1216
                      ]
                    },
                    {
                      "rowIndex": 3,
                      "columnIndex": 2,
                      "text": "5,00",
                      "boundingBox": [
                        1072,
                        1172,
                        1309,
                        1172,
                        1309,
                        1216,
                        1072,
                        1216
                      ]
                    },
                    {
                      "rowIndex": 3,
                      "columnIndex": 3,
                      "text": "100.00",
                      "boundingBox": [
                        1309,
                        1172,
                        1544,
                        1172,
                        1544,
                        1216,
                        1309,
                        1216
                      ]
                    },
                    {
                      "rowIndex": 4,
                      "columnIndex": 0,
                      "text": "Copper Swirl Marker",
                      "boundingBox": [
                        156,
                        1216,
                        847,
                        1216,
                        847,
                        1260,
                        156,
                        1260
                      ]
                    },
                    {
                      "rowIndex": 4,
                      "columnIndex": 1,
                      "text": "20",
                      "boundingBox": [
                        847,
                        1216,
                        1072,
                        1216,
                        1072,
                        1260,
                        847,
                        1260
                      ]
                    },
                    {
                      "rowIndex": 4,
                      "columnIndex": 2,
                      "text": "5,00",
                      "boundingBox": [
                        1072,
                        1216,
                        1309,
                        1216,
                        1309,
                        1260,
                        1072,
                        1260
                      ]
                    },
                    {
                      "rowIndex": 4,
                      "columnIndex": 3,
                      "text": "100.00",
                      "boundingBox": [
                        1309,
                        1216,
                        1544,
                        1216,
                        1544,
                        1260,
                        1309,
                        1260
                      ]
                    }
                  ]
                }
              ]
            }
          ],
          "documentResults": [
            {
              "docType": "custom:form",
              "pageRange": [
                1,
                1
              ],
              "fields": {
                "Tax": {
                  "type": "string",
                  "valueString": "$4.00",
                  "text": "$4.00",
                  "page": 1,
                  "boundingBox": [
                    1461.0,
                    1614.0,
                    1530.0,
                    1614.0,
                    1530.0,
                    1642.0,
                    1461.0,
                    1642.0
                  ],
                  "confidence": 1.0
                },
                "Total": {
                  "type": "string",
                  "valueString": "$144.00",
                  "text": "$144.00",
                  "page": 1,
                  "boundingBox": [
                    1429.0,
                    1669.0,
                    1530.0,
                    1669.0,
                    1530.0,
                    1697.0,
                    1429.0,
                    1697.0
                  ],
                  "confidence": 1.0
                },
                "PurchaseOrderNumber": {
                  "type": "string",
                  "valueString": "948284",
                  "text": "948284",
                  "page": 1,
                  "boundingBox": [
                    1282.0,
                    461.0,
                    1377.0,
                    461.0,
                    1377.0,
                    489.0,
                    1282.0,
                    489.0
                  ],
                  "confidence": 1.0
                },
                "PhoneNumber": {
                  "type": "string",
                  "valueString": "555-348-6512",
                  "text": "555-348-6512",
                  "page": 1,
                  "boundingBox": [
                    367.0,
                    351.0,
                    529.0,
                    351.0,
                    529.0,
                    378.0,
                    367.0,
                    378.0
                  ],
                  "confidence": 1.0
                },
                "CompanyPhoneNumber": {
                  "type": "string",
                  "valueString": "938-294-2949",
                  "text": "938-294-2949",
                  "page": 1,
                  "boundingBox": [
                    713.0,
                    722.0,
                    884.0,
                    722.0,
                    884.0,
                    750.0,
                    713.0,
                    750.0
                  ],
                  "confidence": 1.0
                },
                "Email": {
                  "type": "string",
                  "valueString": "accounts@herolimited.com",
                  "text": "accounts@herolimited.com",
                  "page": 1,
                  "boundingBox": [
                    166.0,
                    480.0,
                    475.0,
                    480.0,
                    475.0,
                    503.0,
                    166.0,
                    503.0
                  ],
                  "confidence": 1.0
                },
                "Subtotal": {
                  "type": "string",
                  "valueString": "$140.00",
                  "text": "$140.00",
                  "page": 1,
                  "boundingBox": [
                    1429.0,
                    1570.0,
                    1530.0,
                    1570.0,
                    1530.0,
                    1599.0,
                    1429.0,
                    1599.0
                  ],
                  "confidence": 1.0
                },
                "CompanyAddress": {
                  "type": "string",
                  "valueString": "938 NE Burner Road Boulder City, CO 92848",
                  "text": "938 NE Burner Road Boulder City, CO 92848",
                  "page": 1,
                  "boundingBox": [
                    277.0,
                    685.0,
                    568.0,
                    685.0,
                    568.0,
                    754.0,
                    277.0,
                    754.0
                  ],
                  "confidence": 1.0
                },
                "Signature": {
                  "type": "string",
                  "valueString": "Bernie Sanders",
                  "text": "Bernie Sanders",
                  "page": 1,
                  "boundingBox": [
                    482.0,
                    1670.0,
                    764.0,
                    1670.0,
                    764.0,
                    1709.0,
                    482.0,
                    1709.0
                  ],
                  "confidence": 1.0
                },
                "VendorName": {
                  "type": "string",
                  "valueString": "Hillary Swank",
                  "text": "Hillary Swank",
                  "page": 1,
                  "boundingBox": [
                    351.0,
                    609.0,
                    518.0,
                    609.0,
                    518.0,
                    641.0,
                    351.0,
                    641.0
                  ],
                  "confidence": 1.0
                },
                "Merchant": {
                  "type": "string",
                  "valueString": "Hero Limited",
                  "text": "Hero Limited",
                  "page": 1,
                  "boundingBox": [
                    621.0,
                    202.0,
                    1075.0,
                    202.0,
                    1075.0,
                    266.0,
                    621.0,
                    266.0
                  ],
                  "confidence": 1.0
                },
                "CompanyName": {
                  "type": "string",
                  "valueString": "Higgly Wiggly Books",
                  "text": "Higgly Wiggly Books",
                  "page": 1,
                  "boundingBox": [
                    378.0,
                    646.0,
                    629.0,
                    646.0,
                    629.0,
                    682.0,
                    378.0,
                    682.0
                  ],
                  "confidence": 1.0
                },
                "DatedAs": {
                  "type": "string",
                  "valueString": "12/20/2020",
                  "text": "12/20/2020",
                  "page": 1,
                  "boundingBox": [
                    1168.0,
                    420.0,
                    1317.0,
                    420.0,
                    1317.0,
                    450.0,
                    1168.0,
                    450.0
                  ],
                  "confidence": 1.0
                },
                "Website": {
                  "type": "string",
                  "valueString": "www.herolimited.com",
                  "text": "www.herolimited.com",
                  "page": 1,
                  "boundingBox": [
                    274.0,
                    393.0,
                    529.0,
                    393.0,
                    529.0,
                    419.0,
                    274.0,
                    419.0
                  ],
                  "confidence": 1.0
                },
                "Quantity": {
                  "type": "number",
                  "text": "20",
                  "page": 1,
                  "boundingBox": [
                    861.0,
                    1089.0,
                    895.0,
                    1089.0,
                    895.0,
                    1120.0,
                    861.0,
                    1120.0
                  ],
                  "confidence": 1.0
                }
              }
            }
          ],
          "errors": []
        }
      }
    },
    {
      "RequestUri": "https://mariari-westus2-formrecognizer.cognitiveservices.azure.com/formrecognizer/v2.0/custom/models/b8106df0-8841-4348-802f-cc433d7e1472",
      "RequestMethod": "DELETE",
      "RequestHeaders": {
        "Ocp-Apim-Subscription-Key": "Sanitized",
        "traceparent": "00-d21184973f562e408395e0548c807beb-077180b09b9fc745-00",
        "User-Agent": [
          "azsdk-net-AI.FormRecognizer/3.0.0-dev.20200806.1",
          "(.NET Core 4.6.28516.03; Microsoft Windows 10.0.18363 )"
        ],
        "x-ms-client-request-id": "6fa6a7dd1bc4307f6d84794737c6fb29",
        "x-ms-return-client-request-id": "true"
      },
      "RequestBody": null,
      "StatusCode": 204,
      "ResponseHeaders": {
        "apim-request-id": "99e101c7-b3b9-4df7-b74c-2bafd5ef6b71",
        "Content-Length": "0",
        "Date": "Fri, 07 Aug 2020 02:26:40 GMT",
        "Strict-Transport-Security": "max-age=31536000; includeSubDomains; preload",
        "X-Content-Type-Options": "nosniff",
        "x-envoy-upstream-service-time": "22"
      },
      "ResponseBody": []
    }
  ],
  "Variables": {
    "FORM_RECOGNIZER_API_KEY": "Sanitized",
    "FORM_RECOGNIZER_BLOB_CONTAINER_SAS_URL": "https://sanitized.blob.core.windows.net",
    "FORM_RECOGNIZER_ENDPOINT": "https://mariari-westus2-formrecognizer.cognitiveservices.azure.com/",
    "RandomSeed": "2074718802"
  }
}