{
  "Entries": [
    {
      "RequestUri": "https://allkimprim.table.core.windows.net/Tables?$format=application%2Fjson%3Bodata%3Dfullmetadata",
      "RequestMethod": "POST",
      "RequestHeaders": {
        "Accept": "application/json",
        "Authorization": "Sanitized",
        "Content-Length": "33",
        "Content-Type": "application/json; odata=nometadata",
        "DataServiceVersion": "3.0",
        "traceparent": "00-a7a9a383df280a44bf1f0ea694f469a7-5c9625705e28a543-00",
        "User-Agent": [
          "azsdk-net-Data.Tables/1.0.0-dev.20200724.1",
          "(.NET Core 4.6.29017.01; Microsoft Windows 10.0.19041 )"
        ],
        "x-ms-client-request-id": "d60b6ab4ff108165c0befec495bcbd9b",
        "x-ms-date": "Sat, 25 Jul 2020 01:24:23 GMT",
        "x-ms-return-client-request-id": "true",
        "x-ms-version": "2019-02-02"
      },
      "RequestBody": {
        "TableName": "testtablega8aoaum"
      },
      "StatusCode": 201,
      "ResponseHeaders": {
        "Cache-Control": "no-cache",
        "Content-Type": "application/json; odata=fullmetadata; streaming=true; charset=utf-8",
        "Date": "Sat, 25 Jul 2020 01:24:18 GMT",
        "Location": "https://allkimprim.table.core.windows.net/Tables(\u0027testtablega8aoaum\u0027)",
        "Server": [
          "Windows-Azure-Table/1.0",
          "Microsoft-HTTPAPI/2.0"
        ],
        "Transfer-Encoding": "chunked",
        "X-Content-Type-Options": "nosniff",
        "x-ms-client-request-id": "d60b6ab4ff108165c0befec495bcbd9b",
        "x-ms-request-id": "4c83fdfd-d002-007e-4822-620faa000000",
        "x-ms-version": "2019-02-02"
      },
      "ResponseBody": {
        "odata.metadata": "https://allkimprim.table.core.windows.net/$metadata#Tables/@Element",
        "odata.type": "allkimprim.Tables",
        "odata.id": "https://allkimprim.table.core.windows.net/Tables(\u0027testtablega8aoaum\u0027)",
        "odata.editLink": "Tables(\u0027testtablega8aoaum\u0027)",
        "TableName": "testtablega8aoaum"
      }
    },
    {
      "RequestUri": "https://allkimprim.table.core.windows.net/testtablega8aoaum?$format=application%2Fjson%3Bodata%3Dfullmetadata",
      "RequestMethod": "POST",
      "RequestHeaders": {
        "Accept": "application/json",
        "Authorization": "Sanitized",
        "Content-Length": "1675",
        "Content-Type": "application/json; odata=nometadata",
        "DataServiceVersion": "3.0",
        "traceparent": "00-e7eaf6d5951bfe448b38576dd264b1ad-db1f94c7237de145-00",
        "User-Agent": [
          "azsdk-net-Data.Tables/1.0.0-dev.20200724.1",
          "(.NET Core 4.6.29017.01; Microsoft Windows 10.0.19041 )"
        ],
        "x-ms-client-request-id": "593a9fecac8f45829df8fd57c1986957",
        "x-ms-date": "Sat, 25 Jul 2020 01:24:23 GMT",
        "x-ms-return-client-request-id": "true",
        "x-ms-version": "2019-02-02"
      },
      "RequestBody": {
        "DateTimeOffsetNull": null,
        "DateTimeOffsetN": "2020-01-01T01:02:00.0000000Z",
        "DateTimeOffsetN@odata.type": "Edm.DateTime",
        "DateTimeOffset": "2020-01-01T01:02:00.0000000Z",
        "DateTimeOffset@odata.type": "Edm.DateTime",
        "DateTimeNull": null,
        "DateTimeN": "2020-01-01T01:02:00.0000000Z",
        "DateTimeN@odata.type": "Edm.DateTime",
        "DateTime": "2020-01-01T01:02:00.0000000Z",
        "DateTime@odata.type": "Edm.DateTime",
        "DateTimeAsString": "2020-01-01T01:02:00.0000000Z",
        "BoolNull": null,
        "BoolN": false,
        "Bool": false,
        "BoolPrimitiveNull": null,
        "BoolPrimitiveN": false,
        "BoolPrimitive": false,
        "Binary": "AQIB",
        "Binary@odata.type": "Edm.Binary",
        "BinaryNull": null,
        "BinaryPrimitive": "AQIB",
        "BinaryPrimitive@odata.type": "Edm.Binary",
        "DoublePrimitiveNull": null,
        "DoublePrimitiveN": 1.01,
        "DoublePrimitiveN@odata.type": "Edm.Double",
        "DoublePrimitive": 1.01,
        "DoublePrimitive@odata.type": "Edm.Double",
        "DoubleNull": null,
        "DoubleN": 1.01,
        "DoubleN@odata.type": "Edm.Double",
        "Double": 1.01,
        "Double@odata.type": "Edm.Double",
        "DoubleInteger": 1,
        "DoubleInteger@odata.type": "Edm.Double",
        "GuidNull": null,
        "GuidN": "0d391d16-97f1-4b9a-be68-4cc871f90001",
        "GuidN@odata.type": "Edm.Guid",
        "Guid": "0d391d16-97f1-4b9a-be68-4cc871f90001",
        "Guid@odata.type": "Edm.Guid",
        "IntegerPrimitiveNull": null,
        "IntegerPrimitiveN": 1,
        "IntegerPrimitive": 1,
        "Int32Null": null,
        "Int32N": 1,
        "Int32": 1,
        "LongPrimitiveNull": null,
        "LongPrimitiveN": "2147483648",
        "LongPrimitiveN@odata.type": "Edm.Int64",
        "LongPrimitive": "2147483648",
        "LongPrimitive@odata.type": "Edm.Int64",
        "Int64Null": null,
        "Int64N": "123456789012",
        "Int64N@odata.type": "Edm.Int64",
        "Int64": "2147483648",
        "Int64@odata.type": "Edm.Int64",
        "String": "0001",
        "PartitionKey": "somPartition",
        "RowKey": "0001",
        "Timestamp": null,
        "ETag": null
      },
      "StatusCode": 201,
      "ResponseHeaders": {
        "Cache-Control": "no-cache",
        "Content-Type": "application/json; odata=fullmetadata; streaming=true; charset=utf-8",
        "Date": "Sat, 25 Jul 2020 01:24:18 GMT",
        "ETag": "W/\u0022datetime\u00272020-07-25T01%3A24%3A19.397235Z\u0027\u0022",
        "Location": "https://allkimprim.table.core.windows.net/testtablega8aoaum(PartitionKey=\u0027somPartition\u0027,RowKey=\u00270001\u0027)",
        "Server": [
          "Windows-Azure-Table/1.0",
          "Microsoft-HTTPAPI/2.0"
        ],
        "Transfer-Encoding": "chunked",
        "X-Content-Type-Options": "nosniff",
        "x-ms-client-request-id": "593a9fecac8f45829df8fd57c1986957",
        "x-ms-request-id": "4c83fe00-d002-007e-4a22-620faa000000",
        "x-ms-version": "2019-02-02"
      },
      "ResponseBody": {
        "odata.metadata": "https://allkimprim.table.core.windows.net/$metadata#testtablega8aoaum/@Element",
        "odata.type": "allkimprim.testtablega8aoaum",
        "odata.id": "https://allkimprim.table.core.windows.net/testtablega8aoaum(PartitionKey=\u0027somPartition\u0027,RowKey=\u00270001\u0027)",
        "odata.etag": "W/\u0022datetime\u00272020-07-25T01%3A24%3A19.397235Z\u0027\u0022",
        "odata.editLink": "testtablega8aoaum(PartitionKey=\u0027somPartition\u0027,RowKey=\u00270001\u0027)",
        "PartitionKey": "somPartition",
        "RowKey": "0001",
        "Timestamp@odata.type": "Edm.DateTime",
        "Timestamp": "2020-07-25T01:24:19.397235Z",
        "DateTimeOffsetN@odata.type": "Edm.DateTime",
        "DateTimeOffsetN": "2020-01-01T01:02:00Z",
        "DateTimeOffset@odata.type": "Edm.DateTime",
        "DateTimeOffset": "2020-01-01T01:02:00Z",
        "DateTimeN@odata.type": "Edm.DateTime",
        "DateTimeN": "2020-01-01T01:02:00Z",
        "DateTime@odata.type": "Edm.DateTime",
        "DateTime": "2020-01-01T01:02:00Z",
        "DateTimeAsString": "2020-01-01T01:02:00.0000000Z",
        "BoolN": false,
        "Bool": false,
        "BoolPrimitiveN": false,
        "BoolPrimitive": false,
        "Binary@odata.type": "Edm.Binary",
        "Binary": "AQIB",
        "BinaryPrimitive@odata.type": "Edm.Binary",
        "BinaryPrimitive": "AQIB",
        "DoublePrimitiveN": 1.01,
        "DoublePrimitive": 1.01,
        "DoubleN": 1.01,
        "Double": 1.01,
        "DoubleInteger": 1.0,
        "GuidN@odata.type": "Edm.Guid",
        "GuidN": "0d391d16-97f1-4b9a-be68-4cc871f90001",
        "Guid@odata.type": "Edm.Guid",
        "Guid": "0d391d16-97f1-4b9a-be68-4cc871f90001",
        "IntegerPrimitiveN": 1,
        "IntegerPrimitive": 1,
        "Int32N": 1,
        "Int32": 1,
        "LongPrimitiveN@odata.type": "Edm.Int64",
        "LongPrimitiveN": "2147483648",
        "LongPrimitive@odata.type": "Edm.Int64",
        "LongPrimitive": "2147483648",
        "Int64N@odata.type": "Edm.Int64",
        "Int64N": "123456789012",
        "Int64@odata.type": "Edm.Int64",
        "Int64": "2147483648",
        "String": "0001"
      }
    },
    {
      "RequestUri": "https://allkimprim.table.core.windows.net/testtablega8aoaum?$format=application%2Fjson%3Bodata%3Dfullmetadata",
      "RequestMethod": "POST",
      "RequestHeaders": {
        "Accept": "application/json",
        "Authorization": "Sanitized",
        "Content-Length": "1673",
        "Content-Type": "application/json; odata=nometadata",
        "DataServiceVersion": "3.0",
        "traceparent": "00-0b157939918c8f4fb4c8acf66a1bc69f-5511ab12fac05e4c-00",
        "User-Agent": [
          "azsdk-net-Data.Tables/1.0.0-dev.20200724.1",
          "(.NET Core 4.6.29017.01; Microsoft Windows 10.0.19041 )"
        ],
        "x-ms-client-request-id": "77676ab031c0bba7aa65a0ff7182a926",
        "x-ms-date": "Sat, 25 Jul 2020 01:24:23 GMT",
        "x-ms-return-client-request-id": "true",
        "x-ms-version": "2019-02-02"
      },
      "RequestBody": {
        "DateTimeOffsetNull": null,
        "DateTimeOffsetN": "2020-01-01T01:03:00.0000000Z",
        "DateTimeOffsetN@odata.type": "Edm.DateTime",
        "DateTimeOffset": "2020-01-01T01:03:00.0000000Z",
        "DateTimeOffset@odata.type": "Edm.DateTime",
        "DateTimeNull": null,
        "DateTimeN": "2020-01-01T01:03:00.0000000Z",
        "DateTimeN@odata.type": "Edm.DateTime",
        "DateTime": "2020-01-01T01:03:00.0000000Z",
        "DateTime@odata.type": "Edm.DateTime",
        "DateTimeAsString": "2020-01-01T01:03:00.0000000Z",
        "BoolNull": null,
        "BoolN": false,
        "Bool": true,
        "BoolPrimitiveNull": null,
        "BoolPrimitiveN": false,
        "BoolPrimitive": true,
        "Binary": "AQIC",
        "Binary@odata.type": "Edm.Binary",
        "BinaryNull": null,
        "BinaryPrimitive": "AQIC",
        "BinaryPrimitive@odata.type": "Edm.Binary",
        "DoublePrimitiveNull": null,
        "DoublePrimitiveN": 2.02,
        "DoublePrimitiveN@odata.type": "Edm.Double",
        "DoublePrimitive": 2.02,
        "DoublePrimitive@odata.type": "Edm.Double",
        "DoubleNull": null,
        "DoubleN": 2.02,
        "DoubleN@odata.type": "Edm.Double",
        "Double": 2.02,
        "Double@odata.type": "Edm.Double",
        "DoubleInteger": 2,
        "DoubleInteger@odata.type": "Edm.Double",
        "GuidNull": null,
        "GuidN": "0d391d16-97f1-4b9a-be68-4cc871f90002",
        "GuidN@odata.type": "Edm.Guid",
        "Guid": "0d391d16-97f1-4b9a-be68-4cc871f90002",
        "Guid@odata.type": "Edm.Guid",
        "IntegerPrimitiveNull": null,
        "IntegerPrimitiveN": 2,
        "IntegerPrimitive": 2,
        "Int32Null": null,
        "Int32N": 2,
        "Int32": 2,
        "LongPrimitiveNull": null,
        "LongPrimitiveN": "2147483649",
        "LongPrimitiveN@odata.type": "Edm.Int64",
        "LongPrimitive": "2147483649",
        "LongPrimitive@odata.type": "Edm.Int64",
        "Int64Null": null,
        "Int64N": "123456789012",
        "Int64N@odata.type": "Edm.Int64",
        "Int64": "2147483649",
        "Int64@odata.type": "Edm.Int64",
        "String": "0002",
        "PartitionKey": "somPartition",
        "RowKey": "0002",
        "Timestamp": null,
        "ETag": null
      },
      "StatusCode": 201,
      "ResponseHeaders": {
        "Cache-Control": "no-cache",
        "Content-Type": "application/json; odata=fullmetadata; streaming=true; charset=utf-8",
        "Date": "Sat, 25 Jul 2020 01:24:18 GMT",
        "ETag": "W/\u0022datetime\u00272020-07-25T01%3A24%3A19.4572773Z\u0027\u0022",
        "Location": "https://allkimprim.table.core.windows.net/testtablega8aoaum(PartitionKey=\u0027somPartition\u0027,RowKey=\u00270002\u0027)",
        "Server": [
          "Windows-Azure-Table/1.0",
          "Microsoft-HTTPAPI/2.0"
        ],
        "Transfer-Encoding": "chunked",
        "X-Content-Type-Options": "nosniff",
        "x-ms-client-request-id": "77676ab031c0bba7aa65a0ff7182a926",
        "x-ms-request-id": "4c83fe04-d002-007e-4e22-620faa000000",
        "x-ms-version": "2019-02-02"
      },
      "ResponseBody": {
        "odata.metadata": "https://allkimprim.table.core.windows.net/$metadata#testtablega8aoaum/@Element",
        "odata.type": "allkimprim.testtablega8aoaum",
        "odata.id": "https://allkimprim.table.core.windows.net/testtablega8aoaum(PartitionKey=\u0027somPartition\u0027,RowKey=\u00270002\u0027)",
        "odata.etag": "W/\u0022datetime\u00272020-07-25T01%3A24%3A19.4572773Z\u0027\u0022",
        "odata.editLink": "testtablega8aoaum(PartitionKey=\u0027somPartition\u0027,RowKey=\u00270002\u0027)",
        "PartitionKey": "somPartition",
        "RowKey": "0002",
        "Timestamp@odata.type": "Edm.DateTime",
        "Timestamp": "2020-07-25T01:24:19.4572773Z",
        "DateTimeOffsetN@odata.type": "Edm.DateTime",
        "DateTimeOffsetN": "2020-01-01T01:03:00Z",
        "DateTimeOffset@odata.type": "Edm.DateTime",
        "DateTimeOffset": "2020-01-01T01:03:00Z",
        "DateTimeN@odata.type": "Edm.DateTime",
        "DateTimeN": "2020-01-01T01:03:00Z",
        "DateTime@odata.type": "Edm.DateTime",
        "DateTime": "2020-01-01T01:03:00Z",
        "DateTimeAsString": "2020-01-01T01:03:00.0000000Z",
        "BoolN": false,
        "Bool": true,
        "BoolPrimitiveN": false,
        "BoolPrimitive": true,
        "Binary@odata.type": "Edm.Binary",
        "Binary": "AQIC",
        "BinaryPrimitive@odata.type": "Edm.Binary",
        "BinaryPrimitive": "AQIC",
        "DoublePrimitiveN": 2.02,
        "DoublePrimitive": 2.02,
        "DoubleN": 2.02,
        "Double": 2.02,
        "DoubleInteger": 2.0,
        "GuidN@odata.type": "Edm.Guid",
        "GuidN": "0d391d16-97f1-4b9a-be68-4cc871f90002",
        "Guid@odata.type": "Edm.Guid",
        "Guid": "0d391d16-97f1-4b9a-be68-4cc871f90002",
        "IntegerPrimitiveN": 2,
        "IntegerPrimitive": 2,
        "Int32N": 2,
        "Int32": 2,
        "LongPrimitiveN@odata.type": "Edm.Int64",
        "LongPrimitiveN": "2147483649",
        "LongPrimitive@odata.type": "Edm.Int64",
        "LongPrimitive": "2147483649",
        "Int64N@odata.type": "Edm.Int64",
        "Int64N": "123456789012",
        "Int64@odata.type": "Edm.Int64",
        "Int64": "2147483649",
        "String": "0002"
      }
    },
    {
      "RequestUri": "https://allkimprim.table.core.windows.net/testtablega8aoaum()?$format=application%2Fjson%3Bodata%3Dfullmetadata\u0026$filter=%28PartitionKey%20eq%20%27somPartition%27%29%20and%20%28RowKey%20eq%20%270002%27%29",
      "RequestMethod": "GET",
      "RequestHeaders": {
        "Accept": "application/json",
        "Authorization": "Sanitized",
        "DataServiceVersion": "3.0",
        "User-Agent": [
          "azsdk-net-Data.Tables/1.0.0-dev.20200724.1",
          "(.NET Core 4.6.29017.01; Microsoft Windows 10.0.19041 )"
        ],
        "x-ms-client-request-id": "80b317fab167072fe8c53817010ebf28",
        "x-ms-date": "Sat, 25 Jul 2020 01:24:23 GMT",
        "x-ms-return-client-request-id": "true",
        "x-ms-version": "2019-02-02"
      },
      "RequestBody": null,
      "StatusCode": 200,
      "ResponseHeaders": {
        "Cache-Control": "no-cache",
        "Content-Type": "application/json; odata=fullmetadata; streaming=true; charset=utf-8",
        "Date": "Sat, 25 Jul 2020 01:24:18 GMT",
        "Server": [
          "Windows-Azure-Table/1.0",
          "Microsoft-HTTPAPI/2.0"
        ],
        "Transfer-Encoding": "chunked",
        "X-Content-Type-Options": "nosniff",
        "x-ms-client-request-id": "80b317fab167072fe8c53817010ebf28",
        "x-ms-request-id": "4c83fe09-d002-007e-5222-620faa000000",
        "x-ms-version": "2019-02-02"
      },
      "ResponseBody": {
        "odata.metadata": "https://allkimprim.table.core.windows.net/$metadata#testtablega8aoaum",
        "value": [
          {
            "odata.type": "allkimprim.testtablega8aoaum",
            "odata.id": "https://allkimprim.table.core.windows.net/testtablega8aoaum(PartitionKey=\u0027somPartition\u0027,RowKey=\u00270002\u0027)",
            "odata.etag": "W/\u0022datetime\u00272020-07-25T01%3A24%3A19.4572773Z\u0027\u0022",
            "odata.editLink": "testtablega8aoaum(PartitionKey=\u0027somPartition\u0027,RowKey=\u00270002\u0027)",
            "PartitionKey": "somPartition",
            "RowKey": "0002",
            "Timestamp@odata.type": "Edm.DateTime",
            "Timestamp": "2020-07-25T01:24:19.4572773Z",
            "DateTimeOffsetN@odata.type": "Edm.DateTime",
            "DateTimeOffsetN": "2020-01-01T01:03:00Z",
            "DateTimeOffset@odata.type": "Edm.DateTime",
            "DateTimeOffset": "2020-01-01T01:03:00Z",
            "DateTimeN@odata.type": "Edm.DateTime",
            "DateTimeN": "2020-01-01T01:03:00Z",
            "DateTime@odata.type": "Edm.DateTime",
            "DateTime": "2020-01-01T01:03:00Z",
            "DateTimeAsString": "2020-01-01T01:03:00.0000000Z",
            "BoolN": false,
            "Bool": true,
            "BoolPrimitiveN": false,
            "BoolPrimitive": true,
            "Binary@odata.type": "Edm.Binary",
            "Binary": "AQIC",
            "BinaryPrimitive@odata.type": "Edm.Binary",
            "BinaryPrimitive": "AQIC",
            "DoublePrimitiveN": 2.02,
            "DoublePrimitive": 2.02,
            "DoubleN": 2.02,
            "Double": 2.02,
            "DoubleInteger": 2.0,
            "GuidN@odata.type": "Edm.Guid",
            "GuidN": "0d391d16-97f1-4b9a-be68-4cc871f90002",
            "Guid@odata.type": "Edm.Guid",
            "Guid": "0d391d16-97f1-4b9a-be68-4cc871f90002",
            "IntegerPrimitiveN": 2,
            "IntegerPrimitive": 2,
            "Int32N": 2,
            "Int32": 2,
            "LongPrimitiveN@odata.type": "Edm.Int64",
            "LongPrimitiveN": "2147483649",
            "LongPrimitive@odata.type": "Edm.Int64",
            "LongPrimitive": "2147483649",
            "Int64N@odata.type": "Edm.Int64",
            "Int64N": "123456789012",
            "Int64@odata.type": "Edm.Int64",
            "Int64": "2147483649",
            "String": "0002"
          }
        ]
      }
    },
    {
      "RequestUri": "https://allkimprim.table.core.windows.net/Tables(\u0027testtablega8aoaum\u0027)",
      "RequestMethod": "DELETE",
      "RequestHeaders": {
        "Accept": "application/json",
        "Authorization": "Sanitized",
        "traceparent": "00-82e9701b3180dc4ca586549c9eef68ec-aca7e8fe0ee8034f-00",
        "User-Agent": [
          "azsdk-net-Data.Tables/1.0.0-dev.20200724.1",
          "(.NET Core 4.6.29017.01; Microsoft Windows 10.0.19041 )"
        ],
        "x-ms-client-request-id": "2a13a6554554bbdaf77eae290b82d41a",
        "x-ms-date": "Sat, 25 Jul 2020 01:24:23 GMT",
        "x-ms-return-client-request-id": "true",
        "x-ms-version": "2019-02-02"
      },
      "RequestBody": null,
      "StatusCode": 204,
      "ResponseHeaders": {
        "Cache-Control": "no-cache",
        "Content-Length": "0",
        "Date": "Sat, 25 Jul 2020 01:24:18 GMT",
        "Server": [
          "Windows-Azure-Table/1.0",
          "Microsoft-HTTPAPI/2.0"
        ],
        "X-Content-Type-Options": "nosniff",
        "x-ms-client-request-id": "2a13a6554554bbdaf77eae290b82d41a",
        "x-ms-request-id": "4c83fe0d-d002-007e-5522-620faa000000",
        "x-ms-version": "2019-02-02"
      },
      "ResponseBody": []
    }
  ],
  "Variables": {
    "RandomSeed": "1896186809",
    "TABLES_PRIMARY_STORAGE_ACCOUNT_KEY": "",
    "TABLES_STORAGE_ACCOUNT_NAME": "allkimprim"
  }
}